version 1
nodes
0 "root" -1
end
skeleton
time 0
0 0 0 0 0 0 0
end
triangles
soap003a
0  -2.336133 -0.103333 -1.296954  -1.000000 0.000000 0.000000  0.114601 0.795228 0
0  -2.336133 2.232786 5.322894  -1.000000 0.000000 0.000000  0.225026 0.482317 0
0  -2.336133 2.232786 -1.296954  -1.000000 0.000000 0.000000  0.225026 0.795228 0
soap003a
0  -2.336133 2.232786 -1.296954  0.000000 1.000000 0.000000  0.381887 0.479533 0
0  2.336106 2.232786 5.322894  0.000000 0.996457 -0.084099  0.068976 0.258683 0
0  2.336106 2.232786 -1.296954  0.000000 1.000000 -0.000000  0.381887 0.258683 0
soap003a
0  -2.336133 2.232786 5.322894  0.000000 0.996457 -0.084099  0.962166 0.798637 0
0  -2.692158 -0.103333 -1.296954  -0.389933 0.904643 -0.171972  0.978995 0.466816 0
0  -2.692158 2.232786 5.322894  -0.349874 0.923421 -0.157737  0.978995 0.798637 0
soap003a
0  2.336106 2.232786 6.752694  -0.000000 -0.231304 0.972882  0.001392 0.239070 0
0  -2.336133 -0.973480 5.990400  -0.001071 -0.495120 0.868824  0.157172 0.018221 0
0  2.336106 -0.973480 5.990400  0.001404 -0.495466 0.868626  0.157172 0.239070 0
soap003a
0  2.336106 2.232786 -5.465301  0.923879 0.000000 -0.382684  0.001392 0.992260 0
0  2.336106 -0.103333 -1.296954  1.000000 0.000000 0.000000  0.111817 0.795228 0
0  2.336106 -0.103333 -5.465301  0.923880 0.000000 -0.382683  0.111817 0.992260 0
soap003a
0  2.336106 2.232786 -1.296954  1.000000 0.000000 0.000000  0.001392 0.795228 0
0  2.336106 2.232786 5.322894  1.000000 0.000000 0.000000  0.001392 0.482317 0
0  2.336106 -0.103333 -1.296954  1.000000 0.000000 0.000000  0.111817 0.795228 0
soap003a
0  -2.336133 -0.103333 -5.972982  -0.178106 0.879963 -0.440389  0.468575 0.499146 0
0  2.101238 -0.103333 -5.700169  0.000000 1.000000 0.000000  0.481470 0.708893 0
0  2.336106 -0.103333 -5.972982  0.195858 0.874727 -0.443275  0.468575 0.719995 0
soap003a
0  2.336106 -2.549492 -5.915469  0.199452 -0.865641 -0.459222  0.732788 0.239071 0
0  -2.336133 -2.549492 -2.068267  -0.000000 -0.997389 0.072214  0.550937 0.018221 0
0  -2.336133 -2.549492 -5.915469  -0.203613 -0.864295 -0.459930  0.732788 0.018221 0
soap003a
0  -2.911624 2.034090 5.354054  -0.899046 0.431503 -0.074311  0.606909 0.809127 0
0  -2.911624 -0.674419 5.941956  -0.816049 -0.223614 0.532974  0.735723 0.817276 0
0  -2.911624 2.033366 6.579664  -0.863384 0.236723 0.445568  0.615504 0.865553 0
soap003a
0  -2.101265 2.232786 -5.700169  -0.382684 0.000000 -0.923879  0.465791 0.498018 0
0  2.101238 -0.103333 -5.700169  0.382684 0.000000 -0.923879  0.355366 0.696664 0
0  -2.101265 -0.103333 -5.700169  -0.382683 0.000000 -0.923880  0.355366 0.498018 0
soap003a
0  2.336106 2.232786 -1.296954  0.000000 1.000000 -0.000000  0.381887 0.258683 0
0  2.336106 2.232786 -5.465301  0.000000 1.000000 0.000000  0.578919 0.258683 0
0  2.101238 2.232786 -5.700169  0.000000 1.000000 -0.000000  0.590021 0.269785 0
soap003a
0  2.336106 -0.103333 -1.296954  0.000000 0.985648 -0.168814  0.981779 0.658087 0
0  2.692130 2.232786 5.322894  0.349911 0.923398 -0.157795  0.998608 0.326267 0
0  2.692130 -0.103333 -1.296954  0.390037 0.904601 -0.171953  0.998608 0.658087 0
soap003a
0  -2.336133 2.232786 5.322894  0.000000 0.996457 -0.084099  0.962166 0.798637 0
0  -2.692158 2.232786 6.752694  -0.286696 0.958022 0.000149  0.978995 0.866223 0
0  -2.336133 2.232786 6.752694  0.000000 1.000000 0.000000  0.962166 0.866223 0
soap003a
0  2.692130 -0.103333 -5.700169  0.440462 0.850835 -0.286484  0.998608 0.866223 0
0  2.336106 -0.103333 -1.296954  0.000000 0.985648 -0.168814  0.981779 0.658087 0
0  2.692130 -0.103333 -1.296954  0.390037 0.904601 -0.171953  0.998608 0.658087 0
soap003a
0  -2.598046 -2.549492 -2.068267  -0.374652 -0.925069 0.062313  0.774702 0.429334 0
0  -2.911624 -1.147330 5.453427  -0.885937 -0.406479 0.223363  0.754085 0.791479 0
0  -2.911624 -2.232313 -1.968256  -0.915503 -0.400845 0.034302  0.754165 0.436191 0
soap003a
0  -2.336133 -0.331719 -6.192449  -0.307026 0.334328 -0.891044  0.337610 0.518114 0
0  -2.911624 -2.235601 -5.700169  -0.863312 -0.340156 -0.372808  0.247616 0.482317 0
0  -2.911624 -0.333916 -5.700169  -0.867770 0.327100 -0.374139  0.337506 0.482317 0
soap003a
0  -2.336133 -2.549492 -5.915469  -0.203613 -0.864295 -0.459930  0.732788 0.018221 0
0  -2.598046 -2.549492 -2.068267  -0.374652 -0.925069 0.062313  0.550937 0.005840 0
0  -2.594136 -2.549492 -5.700169  -0.429129 -0.864200 -0.262691  0.722612 0.006025 0
soap003a
0  2.692130 2.232786 5.322894  0.349911 0.923398 -0.157795  0.998608 0.326267 0
0  2.336106 2.232786 6.752694  0.000000 1.000000 0.000000  0.981779 0.258683 0
0  2.692130 2.232786 6.752694  0.357693 0.589789 0.724020  0.998608 0.258683 0
soap003a
0  2.600137 -1.447704 5.500535  0.345624 -0.847564 0.402715  0.959382 0.347525 0
0  2.911597 -2.232313 -1.968256  0.915619 -0.400576 0.034376  0.938845 0.702967 0
0  2.911597 -1.147330 5.453426  0.885104 -0.406649 0.226338  0.938765 0.347679 0
soap003a
0  2.692130 2.232786 6.752694  0.357693 0.589789 0.724020  0.794445 0.258683 0
0  2.911597 -0.674419 5.941956  0.818603 -0.228085 0.527131  0.920404 0.321883 0
0  2.911597 2.033366 6.579664  0.865059 0.242474 0.439180  0.800184 0.273606 0
soap003a
0  -2.336133 -0.973480 5.990400  -0.001071 -0.495120 0.868824  0.157172 0.018221 0
0  -2.692158 2.232786 6.752694  -0.173034 -0.231965 0.957210  0.001392 0.001392 0
0  -2.610924 -0.970815 5.991034  -0.287971 -0.505219 0.813527  0.157042 0.005232 0
soap003a
0  2.336106 2.232786 5.322894  0.000000 0.996457 -0.084099  0.068976 0.258683 0
0  -2.336133 2.232786 6.752694  0.000000 1.000000 0.000000  0.001392 0.479533 0
0  2.336106 2.232786 6.752694  0.000000 1.000000 0.000000  0.001392 0.258683 0
soap003a
0  2.336106 -1.447704 5.500535  0.000342 -0.897260 0.441502  0.189400 0.239070 0
0  2.598019 -2.549492 -2.068267  0.374295 -0.925196 0.062582  0.550937 0.251452 0
0  2.600137 -1.447704 5.500535  0.345624 -0.847564 0.402715  0.189400 0.251551 0
soap003a
0  2.336106 2.232786 6.752694  -0.000000 -0.231304 0.972882  0.001392 0.239070 0
0  2.610897 -0.970815 5.991034  0.289500 -0.507821 0.811362  0.157042 0.252060 0
0  2.692130 2.232786 6.752694  0.357693 0.589789 0.724020  0.001392 0.255899 0
soap003a
0  -2.336133 -0.103333 -1.296954  0.000000 0.985648 -0.168814  0.962166 0.466816 0
0  -2.692158 -0.103333 -5.700169  -0.440175 0.857990 -0.264762  0.978995 0.258683 0
0  -2.692158 -0.103333 -1.296954  -0.389933 0.904643 -0.171972  0.978995 0.466816 0
soap003a
0  2.692130 2.232786 6.752694  0.357693 0.589789 0.724020  0.787742 0.263565 0
0  2.911597 2.034090 5.354054  0.899028 0.431525 -0.074398  0.791590 0.330031 0
0  2.692130 2.232786 5.322894  0.349911 0.923398 -0.157795  0.777741 0.329395 0
soap003a
0  2.911597 -0.333916 -5.700169  0.864912 0.330669 -0.377605  0.831262 0.868896 0
0  2.911597 -2.232313 -1.968256  0.915619 -0.400576 0.034376  0.938845 0.702967 0
0  2.911597 -2.235601 -5.700169  0.863795 -0.339229 -0.372536  0.920587 0.878278 0
soap003a
0  -0.000014 -0.893625 -6.192449  0.000000 -1.000000 0.000000  0.535530 0.538874 0
0  0.276341 -1.008096 -5.792997  -0.640461 -0.640462 -0.423813  0.516648 0.553013 0
0  -0.000014 -0.893625 -5.792997  0.000000 -0.905750 -0.423813  0.516648 0.538874 0
soap003a
0  2.336106 -2.549492 -2.068267  0.000000 -0.997389 0.072214  0.550937 0.239071 0
0  2.594109 -2.549492 -5.700169  0.428464 -0.865893 -0.258162  0.722612 0.251266 0
0  2.598019 -2.549492 -2.068267  0.374295 -0.925196 0.062582  0.550937 0.251451 0
soap003a
0  0.525844 -1.588776 4.531430  -0.528641 -0.681862 -0.505573  0.227810 0.840244 0
0  -0.388667 -1.243250 4.208887  0.483139 -0.840752 -0.244361  0.250152 0.797016 0
0  0.388640 -1.243250 4.208887  -0.483139 -0.840752 -0.244361  0.250152 0.833758 0
soap003a
0  2.336106 -2.237182 -6.192449  0.312372 -0.320637 -0.894212  0.247541 0.738965 0
0  2.911597 -0.333916 -5.700169  0.864912 0.330669 -0.377605  0.337506 0.774762 0
0  2.911597 -2.235601 -5.700169  0.863795 -0.339229 -0.372536  0.247616 0.774762 0
soap003a
0  -2.911624 2.034090 5.354054  -0.899046 0.431503 -0.074311  0.606909 0.809127 0
0  -2.692158 2.232786 6.752694  -0.286696 0.958022 0.000149  0.603061 0.875593 0
0  -2.692158 2.232786 5.322894  -0.349874 0.923421 -0.157737  0.593060 0.809763 0
soap003a
0  2.911597 -0.336290 -1.370409  0.938583 0.341874 -0.046732  0.852926 0.663206 0
0  2.692130 -0.103333 -5.700169  0.440462 0.850835 -0.286484  0.816391 0.867352 0
0  2.692130 -0.103333 -1.296954  0.390037 0.904601 -0.171953  0.837949 0.658495 0
soap003a
0  -2.692158 -0.103333 -1.296954  -0.389933 0.904643 -0.171972  0.653269 0.480663 0
0  -2.911624 -0.333916 -5.700169  -0.867770 0.327100 -0.374139  0.646581 0.270263 0
0  -2.911624 -0.336290 -1.370409  -0.938625 0.341768 -0.046661  0.668246 0.475952 0
soap003a
0  2.911597 2.034090 5.354054  0.899028 0.431525 -0.074398  0.791590 0.330031 0
0  2.692130 -0.103333 -1.296954  0.390037 0.904601 -0.171953  0.837949 0.658495 0
0  2.692130 2.232786 5.322894  0.349911 0.923398 -0.157795  0.777486 0.330861 0
soap003a
0  -2.692158 2.232786 5.322894  -0.349874 0.923421 -0.157737  0.592805 0.808297 0
0  -2.911624 -0.336290 -1.370409  -0.938625 0.341768 -0.046661  0.668246 0.475952 0
0  -2.911624 2.034090 5.354054  -0.899046 0.431503 -0.074311  0.606909 0.809127 0
soap003a
0  2.336106 -0.331719 -6.192449  0.311100 0.337958 -0.888257  0.337610 0.738965 0
0  -2.336133 -0.103333 -5.972982  -0.178106 0.879963 -0.440389  0.352582 0.518114 0
0  2.336106 -0.103333 -5.972982  0.195858 0.874727 -0.443275  0.352582 0.738965 0
soap003a
0  2.911597 -0.333916 -5.700169  0.864912 0.330669 -0.377605  0.337506 0.774762 0
0  2.336106 -0.103333 -5.972982  0.195858 0.874727 -0.443275  0.350985 0.745693 0
0  2.692130 -0.103333 -5.700169  0.440462 0.850835 -0.286484  0.350326 0.766884 0
soap003a
0  -2.336133 -0.331719 -6.192449  -0.307026 0.334328 -0.891044  0.337610 0.518114 0
0  -2.692158 -0.103333 -5.700169  -0.440175 0.857990 -0.264762  0.350326 0.490195 0
0  -2.336133 -0.103333 -5.972982  -0.178106 0.879963 -0.440389  0.350985 0.511386 0
soap003a
0  -2.610924 -0.970815 5.991034  -0.287971 -0.505219 0.813527  0.753304 0.826374 0
0  -2.911624 2.033366 6.579664  -0.863384 0.236723 0.445568  0.615504 0.865553 0
0  -2.911624 -0.674419 5.941956  -0.816049 -0.223614 0.532974  0.735723 0.817276 0
soap003a
0  2.598019 -2.549492 -2.068267  0.374295 -0.925196 0.062582  0.959304 0.709861 0
0  2.911597 -2.235601 -5.700169  0.863795 -0.339229 -0.372536  0.920587 0.878278 0
0  2.911597 -2.232313 -1.968256  0.915619 -0.400576 0.034376  0.938845 0.702967 0
soap003a
0  -2.594136 -2.549492 -5.700169  -0.429129 -0.864200 -0.262691  0.756878 0.258683 0
0  -2.911624 -2.232313 -1.968256  -0.915503 -0.400845 0.034302  0.754165 0.436191 0
0  -2.911624 -2.235601 -5.700169  -0.863312 -0.340156 -0.372808  0.735907 0.260881 0
soap003a
0  2.911597 -0.336290 -1.370409  0.938583 0.341874 -0.046732  0.852926 0.663206 0
0  2.911597 -1.147330 5.453426  0.885104 -0.406649 0.226338  0.938765 0.347679 0
0  2.911597 -2.232313 -1.968256  0.915619 -0.400576 0.034376  0.938845 0.702967 0
soap003a
0  -2.336133 -2.237182 -6.192449  -0.313101 -0.321396 -0.893685  0.247541 0.518115 0
0  2.336106 -2.549492 -5.915469  0.199452 -0.865641 -0.459222  0.227810 0.738965 0
0  -2.336133 -2.549492 -5.915469  -0.203613 -0.864295 -0.459930  0.227810 0.518115 0
soap003a
0  2.911597 -0.674419 5.941956  0.818603 -0.228085 0.527131  0.920404 0.321883 0
0  2.911597 2.034090 5.354054  0.899028 0.431525 -0.074398  0.791590 0.330031 0
0  2.911597 2.033366 6.579664  0.865059 0.242474 0.439180  0.800184 0.273606 0
soap003a
0  -2.911624 -2.232313 -1.968256  -0.915503 -0.400845 0.034302  0.754165 0.436191 0
0  -2.911624 2.034090 5.354054  -0.899046 0.431503 -0.074311  0.606909 0.809127 0
0  -2.911624 -0.336290 -1.370409  -0.938625 0.341768 -0.046661  0.668246 0.475952 0
soap003a
0  -2.911624 -2.235601 -5.700169  -0.863312 -0.340156 -0.372808  0.247616 0.482317 0
0  -2.336133 -2.549492 -5.915469  -0.203613 -0.864295 -0.459930  0.229742 0.509599 0
0  -2.594136 -2.549492 -5.700169  -0.429129 -0.864200 -0.262691  0.229855 0.493715 0
soap003a
0  2.336106 -2.237182 -6.192449  0.312372 -0.320637 -0.894212  0.247541 0.738965 0
0  2.594109 -2.549492 -5.700169  0.428464 -0.865893 -0.258162  0.229855 0.763364 0
0  2.336106 -2.549492 -5.915469  0.199452 -0.865641 -0.459222  0.229742 0.747480 0
soap003a
0  -2.911624 -2.235601 -5.700169  -0.863312 -0.340156 -0.372808  0.735907 0.260881 0
0  -2.911624 -0.336290 -1.370409  -0.938625 0.341768 -0.046661  0.668246 0.475952 0
0  -2.911624 -0.333916 -5.700169  -0.867770 0.327100 -0.374139  0.646581 0.270263 0
soap003a
0  2.336106 -0.973480 5.990400  0.001404 -0.495466 0.868626  0.157172 0.239070 0
0  -2.336133 -1.447704 5.500535  0.000000 -0.897440 0.441137  0.189400 0.018221 0
0  2.336106 -1.447704 5.500535  0.000342 -0.897260 0.441502  0.189400 0.239070 0
soap003a
0  -2.610924 -0.970815 5.991034  -0.287971 -0.505219 0.813527  0.755105 0.821303 0
0  -2.911624 -1.147330 5.453427  -0.885937 -0.406479 0.223363  0.754085 0.791479 0
0  -2.600164 -1.447704 5.500535  -0.345336 -0.848319 0.401371  0.773932 0.795597 0
soap003a
0  2.911597 -0.674419 5.941956  0.818603 -0.228085 0.527131  0.920404 0.321883 0
0  2.600137 -1.447704 5.500535  0.345624 -0.847564 0.402715  0.958613 0.343561 0
0  2.911597 -1.147330 5.453426  0.885104 -0.406649 0.226338  0.938765 0.347679 0
soap003a
0  -2.336133 -0.973480 5.990400  -0.001071 -0.495120 0.868824  0.157172 0.018221 0
0  -2.600164 -1.447704 5.500535  -0.345336 -0.848319 0.401371  0.189400 0.005740 0
0  -2.336133 -1.447704 5.500535  0.000000 -0.897440 0.441137  0.189400 0.018221 0
soap003a
0  2.610897 -0.970815 5.991034  0.289500 -0.507821 0.811362  0.157063 0.252060 0
0  2.336106 -1.447704 5.500535  0.000342 -0.897260 0.441502  0.189400 0.239070 0
0  2.600137 -1.447704 5.500535  0.345624 -0.847564 0.402715  0.189400 0.251551 0
soap003a
0  -2.336133 -2.549492 -2.068267  -0.000000 -0.997389 0.072214  0.550937 0.018221 0
0  -2.600164 -1.447704 5.500535  -0.345336 -0.848319 0.401371  0.189400 0.005740 0
0  -2.598046 -2.549492 -2.068267  -0.374652 -0.925069 0.062313  0.550937 0.005840 0
soap003a
0  0.525844 -2.408420 -1.099162  0.000000 -0.989570 0.144051  0.504646 0.153502 0
0  -2.336133 -2.549492 -2.068267  -0.000000 -0.997389 0.072214  0.550937 0.018221 0
0  2.336106 -2.549492 -2.068267  0.000000 -0.997389 0.072214  0.550937 0.239071 0
soap003a
0  -0.525872 -1.588776 4.531430  0.000000 -0.989570 0.144051  0.235691 0.103789 0
0  2.336106 -1.447704 5.500535  0.000342 -0.897260 0.441502  0.189400 0.239070 0
0  -2.336133 -1.447704 5.500535  0.000000 -0.897440 0.441137  0.189400 0.018221 0
soap003a
0  -0.525872 -2.408420 -1.099162  -0.000000 -0.989570 0.144051  0.504646 0.103789 0
0  -2.336133 -1.447704 5.500535  0.000000 -0.897440 0.441137  0.189400 0.018221 0
0  -2.336133 -2.549492 -2.068267  -0.000000 -0.997389 0.072214  0.550937 0.018221 0
soap003a
0  0.525844 -1.588776 4.531430  -0.000000 -0.989570 0.144051  0.235691 0.153502 0
0  2.336106 -2.549492 -2.068267  0.000000 -0.997389 0.072214  0.550937 0.239071 0
0  2.336106 -1.447704 5.500535  0.000342 -0.897260 0.441502  0.189400 0.239070 0
soap003a
0  0.388640 -1.918844 -0.432142  -0.520913 -0.802880 0.289885  0.471839 0.833758 0
0  -0.388667 -1.243250 4.208887  0.483139 -0.840752 -0.244361  0.250152 0.797016 0
0  -0.388667 -1.918844 -0.432142  0.520913 -0.802880 0.289885  0.471839 0.797016 0
soap003a
0  -0.525872 -1.588776 4.531430  0.528640 -0.681862 -0.505573  0.237418 0.777546 0
0  -0.388667 -1.918844 -0.432142  0.520913 -0.802880 0.289885  0.471839 0.797016 0
0  -0.388667 -1.243250 4.208887  0.483139 -0.840752 -0.244361  0.250152 0.797016 0
soap003a
0  -0.525872 -2.408420 -1.099162  0.296438 -0.797988 0.524727  0.510950 0.790531 0
0  0.388640 -1.918844 -0.432142  -0.520913 -0.802880 0.289885  0.471839 0.833758 0
0  -0.388667 -1.918844 -0.432142  0.520913 -0.802880 0.289885  0.471839 0.797016 0
soap003a
0  0.525844 -2.408420 -1.099162  -0.296438 -0.797989 0.524727  0.506373 0.853229 0
0  0.388640 -1.243250 4.208887  -0.483139 -0.840752 -0.244361  0.250152 0.833758 0
0  0.388640 -1.918844 -0.432142  -0.520913 -0.802880 0.289885  0.471839 0.833758 0
soap003a
0  -0.000014 -0.893625 -6.192449  0.000000 0.000000 -1.000000  0.311050 0.628540 0
0  -2.336133 -0.331719 -6.192449  -0.307026 0.334328 -0.891044  0.337610 0.518114 0
0  2.336106 -0.331719 -6.192449  0.311100 0.337958 -0.888257  0.337610 0.738965 0
soap003a
0  -0.000014 -1.675275 -6.192449  0.000000 0.000000 -1.000000  0.274102 0.628540 0
0  2.336106 -2.237182 -6.192449  0.312372 -0.320637 -0.894212  0.247541 0.738965 0
0  -2.336133 -2.237182 -6.192449  -0.313101 -0.321396 -0.893685  0.247541 0.518115 0
soap003a
0  -0.390839 -1.284450 -6.192449  -0.000001 0.000000 -1.000000  0.292576 0.610066 0
0  -2.336133 -2.237182 -6.192449  -0.313101 -0.321396 -0.893685  0.247541 0.518115 0
0  -2.336133 -0.331719 -6.192449  -0.307026 0.334328 -0.891044  0.337610 0.518114 0
soap003a
0  0.390811 -1.284450 -6.192449  0.000000 0.000000 -1.000000  0.292576 0.647013 0
0  2.336106 -0.331719 -6.192449  0.311100 0.337958 -0.888257  0.337610 0.738965 0
0  2.336106 -2.237182 -6.192449  0.312372 -0.320637 -0.894212  0.247541 0.738965 0
soap003a
0  -0.276369 -1.008095 -6.192449  0.707107 -0.707107 0.000000  0.535530 0.524735 0
0  -0.000014 -0.893625 -5.792997  0.000000 -0.905750 -0.423813  0.516648 0.538874 0
0  -0.276369 -1.008095 -5.792997  0.640462 -0.640462 -0.423813  0.516648 0.524735 0
soap003a
0  -0.276369 -1.560805 -6.192449  0.707107 0.707107 0.000000  0.535530 0.496456 0
0  -0.390839 -1.284450 -5.792997  0.905750 -0.000000 -0.423813  0.516648 0.510596 0
0  -0.276369 -1.560805 -5.792997  0.640462 0.640462 -0.423813  0.516648 0.496456 0
soap003a
0  -0.000014 -1.675275 -6.192449  0.000000 1.000000 0.000000  0.535530 0.482317 0
0  -0.276369 -1.560805 -5.792997  0.640462 0.640462 -0.423813  0.516648 0.496456 0
0  -0.000014 -1.675275 -5.792997  -0.000000 0.905750 -0.423813  0.516648 0.482317 0
soap003a
0  0.390811 -1.284450 -6.192449  -1.000000 0.000000 0.000000  0.535530 0.567152 0
0  0.276341 -1.560805 -5.792997  -0.640462 0.640462 -0.423813  0.516648 0.581291 0
0  0.390811 -1.284450 -5.792997  -0.905750 0.000000 -0.423813  0.516648 0.567152 0
soap003a
0  -0.390839 -1.284450 -6.192449  1.000000 -0.000000 0.000000  0.535530 0.510596 0
0  -0.276369 -1.008095 -5.792997  0.640462 -0.640462 -0.423813  0.516648 0.524735 0
0  -0.390839 -1.284450 -5.792997  0.905750 -0.000000 -0.423813  0.516648 0.510596 0
soap003a
0  0.276341 -1.008096 -6.192449  -0.707107 -0.707107 0.000000  0.535530 0.553013 0
0  0.390811 -1.284450 -5.792997  -0.905750 0.000000 -0.423813  0.516648 0.567152 0
0  0.276341 -1.008096 -5.792997  -0.640461 -0.640462 -0.423813  0.516648 0.553013 0
soap003a
0  0.276341 -1.560805 -6.192449  -0.707107 0.707107 0.000000  0.535530 0.581291 0
0  -0.000014 -1.675275 -5.792997  -0.000000 0.905750 -0.423813  0.516648 0.595431 0
0  0.276341 -1.560805 -5.792997  -0.640462 0.640462 -0.423813  0.516648 0.581291 0
soap003a
0  0.276341 -1.008096 -5.792997  -0.640461 -0.640462 -0.423813  0.516648 0.553013 0
0  0.390811 -1.284450 -5.792997  -0.905750 0.000000 -0.423813  0.516648 0.567152 0
0  -0.000014 -1.284450 -5.523694  0.000000 -0.000000 -1.000000  0.495356 0.560083 0
soap003a
0  -0.000014 -1.675275 -5.792997  -0.000000 0.905750 -0.423813  0.516648 0.482317 0
0  -0.276369 -1.560805 -5.792997  0.640462 0.640462 -0.423813  0.516648 0.496456 0
0  -0.000014 -1.284450 -5.523694  0.000000 -0.000000 -1.000000  0.495356 0.489387 0
soap003a
0  -0.390839 -1.284450 -5.792997  0.905750 -0.000000 -0.423813  0.516648 0.510596 0
0  -0.276369 -1.008095 -5.792997  0.640462 -0.640462 -0.423813  0.516648 0.524735 0
0  -0.000014 -1.284450 -5.523694  0.000000 -0.000000 -1.000000  0.495356 0.517665 0
soap003a
0  -0.276369 -1.008095 -5.792997  0.640462 -0.640462 -0.423813  0.516648 0.524735 0
0  -0.000014 -0.893625 -5.792997  0.000000 -0.905750 -0.423813  0.516648 0.538874 0
0  -0.000014 -1.284450 -5.523694  0.000000 -0.000000 -1.000000  0.495356 0.531804 0
soap003a
0  -0.000014 -0.893625 -5.792997  0.000000 -0.905750 -0.423813  0.516648 0.538874 0
0  0.276341 -1.008096 -5.792997  -0.640461 -0.640462 -0.423813  0.516648 0.553013 0
0  -0.000014 -1.284450 -5.523694  0.000000 -0.000000 -1.000000  0.495356 0.545943 0
soap003a
0  0.390811 -1.284450 -5.792997  -0.905750 0.000000 -0.423813  0.516648 0.567152 0
0  0.276341 -1.560805 -5.792997  -0.640462 0.640462 -0.423813  0.516648 0.581291 0
0  -0.000014 -1.284450 -5.523694  0.000000 -0.000000 -1.000000  0.495356 0.574222 0
soap003a
0  0.276341 -1.560805 -5.792997  -0.640462 0.640462 -0.423813  0.516648 0.581291 0
0  -0.000014 -1.675275 -5.792997  -0.000000 0.905750 -0.423813  0.516648 0.595431 0
0  -0.000014 -1.284450 -5.523694  0.000000 -0.000000 -1.000000  0.495356 0.588361 0
soap003a
0  -0.276369 -1.560805 -5.792997  0.640462 0.640462 -0.423813  0.516648 0.496456 0
0  -0.390839 -1.284450 -5.792997  0.905750 -0.000000 -0.423813  0.516648 0.510596 0
0  -0.000014 -1.284450 -5.523694  0.000000 -0.000000 -1.000000  0.495356 0.503526 0
soap003a
0  -2.336133 -0.103333 -5.465301  0.000000 1.000000 0.000000  0.492572 0.499146 0
0  -2.336133 -0.103333 -5.972982  -0.178106 0.879963 -0.440389  0.468575 0.499146 0
0  -2.692158 -0.103333 -5.700169  -0.440175 0.857990 -0.264762  0.481470 0.482317 0
soap003a
0  2.101238 -0.103333 -5.700169  0.000000 1.000000 0.000000  0.481470 0.708893 0
0  2.692130 -0.103333 -5.700169  0.440462 0.850835 -0.286484  0.481470 0.736824 0
0  2.336106 -0.103333 -5.972982  0.195858 0.874727 -0.443275  0.468575 0.719995 0
soap003a
0  2.101238 -0.103333 -5.700169  0.382684 0.000000 -0.923879  0.355366 0.696664 0
0  2.336106 2.232786 -5.465301  0.923879 0.000000 -0.382684  0.465791 0.712364 0
0  2.336106 -0.103333 -5.465301  0.923880 0.000000 -0.382683  0.355366 0.712364 0
soap003a
0  -2.101265 2.232786 -5.700169  -0.382684 0.000000 -0.923879  0.465791 0.498018 0
0  -2.336133 -0.103333 -5.465301  -0.923879 0.000000 -0.382684  0.355366 0.482317 0
0  -2.336133 2.232786 -5.465301  -0.923880 0.000000 -0.382683  0.465791 0.482317 0
soap003a
0  -2.336133 -0.103333 -5.465301  -0.923879 0.000000 -0.382684  0.114601 0.992260 0
0  -2.336133 2.232786 -1.296954  -1.000000 0.000000 0.000000  0.225026 0.795228 0
0  -2.336133 2.232786 -5.465301  -0.923880 0.000000 -0.382683  0.225026 0.992260 0
soap003a
0  -2.336133 2.232786 -1.296954  0.000000 1.000000 0.000000  0.381887 0.479533 0
0  -2.336133 2.232786 5.322894  0.000000 0.996457 -0.084099  0.068977 0.479533 0
0  2.336106 2.232786 5.322894  0.000000 0.996457 -0.084099  0.068976 0.258683 0
soap003a
0  -2.336133 2.232786 5.322894  0.000000 0.996457 -0.084099  0.962166 0.798637 0
0  -2.336133 -0.103333 -1.296954  0.000000 0.985648 -0.168814  0.962166 0.466816 0
0  -2.692158 -0.103333 -1.296954  -0.389933 0.904643 -0.171972  0.978995 0.466816 0
soap003a
0  2.336106 2.232786 6.752694  -0.000000 -0.231304 0.972882  0.001392 0.239070 0
0  -2.336133 2.232786 6.752694  0.000000 -0.231304 0.972882  0.001392 0.018221 0
0  -2.336133 -0.973480 5.990400  -0.001071 -0.495120 0.868824  0.157172 0.018221 0
soap003a
0  2.336106 2.232786 -5.465301  0.923879 0.000000 -0.382684  0.001392 0.992260 0
0  2.336106 2.232786 -1.296954  1.000000 0.000000 0.000000  0.001392 0.795228 0
0  2.336106 -0.103333 -1.296954  1.000000 0.000000 0.000000  0.111817 0.795228 0
soap003a
0  -2.336133 -0.103333 -5.972982  -0.178106 0.879963 -0.440389  0.468575 0.499146 0
0  -2.101265 -0.103333 -5.700169  0.000000 1.000000 -0.000000  0.481470 0.510248 0
0  2.101238 -0.103333 -5.700169  0.000000 1.000000 0.000000  0.481470 0.708893 0
soap003a
0  2.336106 -2.549492 -5.915469  0.199452 -0.865641 -0.459222  0.732788 0.239071 0
0  2.336106 -2.549492 -2.068267  0.000000 -0.997389 0.072214  0.550937 0.239071 0
0  -2.336133 -2.549492 -2.068267  -0.000000 -0.997389 0.072214  0.550937 0.018221 0
soap003a
0  -2.911624 2.034090 5.354054  -0.899046 0.431503 -0.074311  0.606909 0.809127 0
0  -2.911624 -1.147330 5.453427  -0.885937 -0.406479 0.223363  0.754085 0.791479 0
0  -2.911624 -0.674419 5.941956  -0.816049 -0.223614 0.532974  0.735723 0.817276 0
soap003a
0  -2.101265 2.232786 -5.700169  -0.382684 0.000000 -0.923879  0.465791 0.498018 0
0  2.101238 2.232786 -5.700169  0.382683 0.000000 -0.923880  0.465791 0.696664 0
0  2.101238 -0.103333 -5.700169  0.382684 0.000000 -0.923879  0.355366 0.696664 0
soap003a
0  2.101238 2.232786 -5.700169  0.000000 1.000000 -0.000000  0.590021 0.269785 0
0  -2.101265 2.232786 -5.700169  0.000000 1.000000 -0.000000  0.590021 0.468431 0
0  2.336106 2.232786 -1.296954  0.000000 1.000000 -0.000000  0.381887 0.258683 0
soap003a
0  -2.101265 2.232786 -5.700169  0.000000 1.000000 -0.000000  0.590021 0.468431 0
0  -2.336133 2.232786 -5.465301  0.000000 1.000000 0.000000  0.578919 0.479533 0
0  -2.336133 2.232786 -1.296954  0.000000 1.000000 0.000000  0.381887 0.479533 0
soap003a
0  2.336106 2.232786 -1.296954  0.000000 1.000000 -0.000000  0.381887 0.258683 0
0  -2.101265 2.232786 -5.700169  0.000000 1.000000 -0.000000  0.590021 0.468431 0
0  -2.336133 2.232786 -1.296954  0.000000 1.000000 0.000000  0.381887 0.479533 0
soap003a
0  2.336106 -0.103333 -1.296954  0.000000 0.985648 -0.168814  0.981779 0.658087 0
0  2.336106 2.232786 5.322894  0.000000 0.996457 -0.084099  0.981779 0.326267 0
0  2.692130 2.232786 5.322894  0.349911 0.923398 -0.157795  0.998608 0.326267 0
soap003a
0  -2.336133 2.232786 5.322894  0.000000 0.996457 -0.084099  0.962166 0.798637 0
0  -2.692158 2.232786 5.322894  -0.349874 0.923421 -0.157737  0.978995 0.798637 0
0  -2.692158 2.232786 6.752694  -0.286696 0.958022 0.000149  0.978995 0.866223 0
soap003a
0  2.692130 -0.103333 -5.700169  0.440462 0.850835 -0.286484  0.998608 0.866223 0
0  2.336106 -0.103333 -5.465301  0.000000 1.000000 0.000000  0.981779 0.855121 0
0  2.336106 -0.103333 -1.296954  0.000000 0.985648 -0.168814  0.981779 0.658087 0
soap003a
0  -2.598046 -2.549492 -2.068267  -0.374652 -0.925069 0.062313  0.774702 0.429334 0
0  -2.600164 -1.447704 5.500535  -0.345336 -0.848319 0.401371  0.774702 0.791634 0
0  -2.911624 -1.147330 5.453427  -0.885937 -0.406479 0.223363  0.754085 0.791479 0
soap003a
0  -2.336133 -0.331719 -6.192449  -0.307026 0.334328 -0.891044  0.337610 0.518114 0
0  -2.336133 -2.237182 -6.192449  -0.313101 -0.321396 -0.893685  0.247541 0.518115 0
0  -2.911624 -2.235601 -5.700169  -0.863312 -0.340156 -0.372808  0.247616 0.482317 0
soap003a
0  -2.336133 -2.549492 -5.915469  -0.203613 -0.864295 -0.459930  0.732788 0.018221 0
0  -2.336133 -2.549492 -2.068267  -0.000000 -0.997389 0.072214  0.550937 0.018221 0
0  -2.598046 -2.549492 -2.068267  -0.374652 -0.925069 0.062313  0.550937 0.005840 0
soap003a
0  2.692130 2.232786 5.322894  0.349911 0.923398 -0.157795  0.998608 0.326267 0
0  2.336106 2.232786 5.322894  0.000000 0.996457 -0.084099  0.981779 0.326267 0
0  2.336106 2.232786 6.752694  0.000000 1.000000 0.000000  0.981779 0.258683 0
soap003a
0  2.600137 -1.447704 5.500535  0.345624 -0.847564 0.402715  0.959382 0.347525 0
0  2.598019 -2.549492 -2.068267  0.374295 -0.925196 0.062582  0.959382 0.709824 0
0  2.911597 -2.232313 -1.968256  0.915619 -0.400576 0.034376  0.938845 0.702967 0
soap003a
0  2.692130 2.232786 6.752694  0.357693 0.589789 0.724020  0.794445 0.258683 0
0  2.610897 -0.970815 5.991034  0.289500 -0.507821 0.811362  0.937984 0.312784 0
0  2.911597 -0.674419 5.941956  0.818603 -0.228085 0.527131  0.920404 0.321883 0
soap003a
0  -2.336133 -0.973480 5.990400  -0.001071 -0.495120 0.868824  0.157172 0.018221 0
0  -2.336133 2.232786 6.752694  0.000000 -0.231304 0.972882  0.001392 0.018221 0
0  -2.692158 2.232786 6.752694  -0.173034 -0.231965 0.957210  0.001392 0.001392 0
soap003a
0  2.336106 2.232786 5.322894  0.000000 0.996457 -0.084099  0.068976 0.258683 0
0  -2.336133 2.232786 5.322894  0.000000 0.996457 -0.084099  0.068977 0.479533 0
0  -2.336133 2.232786 6.752694  0.000000 1.000000 0.000000  0.001392 0.479533 0
soap003a
0  2.336106 -1.447704 5.500535  0.000342 -0.897260 0.441502  0.189400 0.239070 0
0  2.336106 -2.549492 -2.068267  0.000000 -0.997389 0.072214  0.550937 0.239071 0
0  2.598019 -2.549492 -2.068267  0.374295 -0.925196 0.062582  0.550937 0.251452 0
soap003a
0  2.336106 2.232786 6.752694  -0.000000 -0.231304 0.972882  0.001392 0.239070 0
0  2.336106 -0.973480 5.990400  0.001404 -0.495466 0.868626  0.157172 0.239070 0
0  2.610897 -0.970815 5.991034  0.289500 -0.507821 0.811362  0.157042 0.252060 0
soap003a
0  -2.336133 -0.103333 -1.296954  0.000000 0.985648 -0.168814  0.962166 0.466816 0
0  -2.336133 -0.103333 -5.465301  0.000000 1.000000 0.000000  0.962166 0.269785 0
0  -2.692158 -0.103333 -5.700169  -0.440175 0.857990 -0.264762  0.978995 0.258683 0
soap003a
0  2.692130 2.232786 6.752694  0.357693 0.589789 0.724020  0.787742 0.263565 0
0  2.911597 2.033366 6.579664  0.865059 0.242474 0.439180  0.800184 0.273606 0
0  2.911597 2.034090 5.354054  0.899028 0.431525 -0.074398  0.791590 0.330031 0
soap003a
0  2.911597 -0.333916 -5.700169  0.864912 0.330669 -0.377605  0.831262 0.868896 0
0  2.911597 -0.336290 -1.370409  0.938583 0.341874 -0.046732  0.852926 0.663206 0
0  2.911597 -2.232313 -1.968256  0.915619 -0.400576 0.034376  0.938845 0.702967 0
soap003a
0  -0.000014 -0.893625 -6.192449  0.000000 -1.000000 0.000000  0.535530 0.538874 0
0  0.276341 -1.008096 -6.192449  -0.707107 -0.707107 0.000000  0.535530 0.553013 0
0  0.276341 -1.008096 -5.792997  -0.640461 -0.640462 -0.423813  0.516648 0.553013 0
soap003a
0  2.336106 -2.549492 -2.068267  0.000000 -0.997389 0.072214  0.550937 0.239071 0
0  2.336106 -2.549492 -5.915469  0.199452 -0.865641 -0.459222  0.732788 0.239071 0
0  2.594109 -2.549492 -5.700169  0.428464 -0.865893 -0.258162  0.722612 0.251266 0
soap003a
0  0.525844 -1.588776 4.531430  -0.528641 -0.681862 -0.505573  0.227810 0.840244 0
0  -0.525872 -1.588776 4.531430  0.528640 -0.681862 -0.505573  0.227810 0.790531 0
0  -0.388667 -1.243250 4.208887  0.483139 -0.840752 -0.244361  0.250152 0.797016 0
soap003a
0  2.336106 -2.237182 -6.192449  0.312372 -0.320637 -0.894212  0.247541 0.738965 0
0  2.336106 -0.331719 -6.192449  0.311100 0.337958 -0.888257  0.337610 0.738965 0
0  2.911597 -0.333916 -5.700169  0.864912 0.330669 -0.377605  0.337506 0.774762 0
soap003a
0  -2.911624 2.034090 5.354054  -0.899046 0.431503 -0.074311  0.606909 0.809127 0
0  -2.911624 2.033366 6.579664  -0.863384 0.236723 0.445568  0.615504 0.865553 0
0  -2.692158 2.232786 6.752694  -0.286696 0.958022 0.000149  0.603061 0.875593 0
soap003a
0  2.911597 -0.336290 -1.370409  0.938583 0.341874 -0.046732  0.852926 0.663206 0
0  2.911597 -0.333916 -5.700169  0.864912 0.330669 -0.377605  0.831262 0.868896 0
0  2.692130 -0.103333 -5.700169  0.440462 0.850835 -0.286484  0.816391 0.867352 0
soap003a
0  -2.692158 -0.103333 -1.296954  -0.389933 0.904643 -0.171972  0.653269 0.480663 0
0  -2.692158 -0.103333 -5.700169  -0.440175 0.857990 -0.264762  0.631711 0.271807 0
0  -2.911624 -0.333916 -5.700169  -0.867770 0.327100 -0.374139  0.646581 0.270263 0
soap003a
0  2.911597 2.034090 5.354054  0.899028 0.431525 -0.074398  0.791590 0.330031 0
0  2.911597 -0.336290 -1.370409  0.938583 0.341874 -0.046732  0.852926 0.663206 0
0  2.692130 -0.103333 -1.296954  0.390037 0.904601 -0.171953  0.837949 0.658495 0
soap003a
0  -2.692158 2.232786 5.322894  -0.349874 0.923421 -0.157737  0.592805 0.808297 0
0  -2.692158 -0.103333 -1.296954  -0.389933 0.904643 -0.171972  0.653269 0.480663 0
0  -2.911624 -0.336290 -1.370409  -0.938625 0.341768 -0.046661  0.668246 0.475952 0
soap003a
0  2.336106 -0.331719 -6.192449  0.311100 0.337958 -0.888257  0.337610 0.738965 0
0  -2.336133 -0.331719 -6.192449  -0.307026 0.334328 -0.891044  0.337610 0.518114 0
0  -2.336133 -0.103333 -5.972982  -0.178106 0.879963 -0.440389  0.352582 0.518114 0
soap003a
0  2.911597 -0.333916 -5.700169  0.864912 0.330669 -0.377605  0.337506 0.774762 0
0  2.336106 -0.331719 -6.192449  0.311100 0.337958 -0.888257  0.337610 0.738965 0
0  2.336106 -0.103333 -5.972982  0.195858 0.874727 -0.443275  0.350985 0.745693 0
soap003a
0  -2.336133 -0.331719 -6.192449  -0.307026 0.334328 -0.891044  0.337610 0.518114 0
0  -2.911624 -0.333916 -5.700169  -0.867770 0.327100 -0.374139  0.337506 0.482317 0
0  -2.692158 -0.103333 -5.700169  -0.440175 0.857990 -0.264762  0.350326 0.490195 0
soap003a
0  -2.610924 -0.970815 5.991034  -0.287971 -0.505219 0.813527  0.753304 0.826374 0
0  -2.692158 2.232786 6.752694  -0.173034 -0.231965 0.957210  0.609765 0.880476 0
0  -2.911624 2.033366 6.579664  -0.863384 0.236723 0.445568  0.615504 0.865553 0
soap003a
0  2.598019 -2.549492 -2.068267  0.374295 -0.925196 0.062582  0.959304 0.709861 0
0  2.594109 -2.549492 -5.700169  0.428464 -0.865893 -0.258162  0.941559 0.880476 0
0  2.911597 -2.235601 -5.700169  0.863795 -0.339229 -0.372536  0.920587 0.878278 0
soap003a
0  -2.594136 -2.549492 -5.700169  -0.429129 -0.864200 -0.262691  0.756878 0.258683 0
0  -2.598046 -2.549492 -2.068267  -0.374652 -0.925069 0.062313  0.774623 0.429298 0
0  -2.911624 -2.232313 -1.968256  -0.915503 -0.400845 0.034302  0.754165 0.436191 0
soap003a
0  2.911597 -0.336290 -1.370409  0.938583 0.341874 -0.046732  0.852926 0.663206 0
0  2.911597 2.034090 5.354054  0.899028 0.431525 -0.074398  0.791590 0.330031 0
0  2.911597 -1.147330 5.453426  0.885104 -0.406649 0.226338  0.938765 0.347679 0
soap003a
0  -2.336133 -2.237182 -6.192449  -0.313101 -0.321396 -0.893685  0.247541 0.518115 0
0  2.336106 -2.237182 -6.192449  0.312372 -0.320637 -0.894212  0.247541 0.738965 0
0  2.336106 -2.549492 -5.915469  0.199452 -0.865641 -0.459222  0.227810 0.738965 0
soap003a
0  2.911597 -0.674419 5.941956  0.818603 -0.228085 0.527131  0.920404 0.321883 0
0  2.911597 -1.147330 5.453426  0.885104 -0.406649 0.226338  0.938765 0.347679 0
0  2.911597 2.034090 5.354054  0.899028 0.431525 -0.074398  0.791590 0.330031 0
soap003a
0  -2.911624 -2.232313 -1.968256  -0.915503 -0.400845 0.034302  0.754165 0.436191 0
0  -2.911624 -1.147330 5.453427  -0.885937 -0.406479 0.223363  0.754085 0.791479 0
0  -2.911624 2.034090 5.354054  -0.899046 0.431503 -0.074311  0.606909 0.809127 0
soap003a
0  -2.911624 -2.235601 -5.700169  -0.863312 -0.340156 -0.372808  0.247616 0.482317 0
0  -2.336133 -2.237182 -6.192449  -0.313101 -0.321396 -0.893685  0.247541 0.518115 0
0  -2.336133 -2.549492 -5.915469  -0.203613 -0.864295 -0.459930  0.229742 0.509599 0
soap003a
0  2.336106 -2.237182 -6.192449  0.312372 -0.320637 -0.894212  0.247541 0.738965 0
0  2.911597 -2.235601 -5.700169  0.863795 -0.339229 -0.372536  0.247616 0.774762 0
0  2.594109 -2.549492 -5.700169  0.428464 -0.865893 -0.258162  0.229855 0.763364 0
soap003a
0  -2.911624 -2.235601 -5.700169  -0.863312 -0.340156 -0.372808  0.735907 0.260881 0
0  -2.911624 -2.232313 -1.968256  -0.915503 -0.400845 0.034302  0.754165 0.436191 0
0  -2.911624 -0.336290 -1.370409  -0.938625 0.341768 -0.046661  0.668246 0.475952 0
soap003a
0  2.336106 -0.973480 5.990400  0.001404 -0.495466 0.868626  0.157172 0.239070 0
0  -2.336133 -0.973480 5.990400  -0.001071 -0.495120 0.868824  0.157172 0.018221 0
0  -2.336133 -1.447704 5.500535  0.000000 -0.897440 0.441137  0.189400 0.018221 0
soap003a
0  -2.610924 -0.970815 5.991034  -0.287971 -0.505219 0.813527  0.755105 0.821303 0
0  -2.911624 -0.674419 5.941956  -0.816049 -0.223614 0.532974  0.735723 0.817276 0
0  -2.911624 -1.147330 5.453427  -0.885937 -0.406479 0.223363  0.754085 0.791479 0
soap003a
0  2.911597 -0.674419 5.941956  0.818603 -0.228085 0.527131  0.920404 0.321883 0
0  2.610897 -0.970815 5.991034  0.289500 -0.507821 0.811362  0.939785 0.317856 0
0  2.600137 -1.447704 5.500535  0.345624 -0.847564 0.402715  0.958613 0.343561 0
soap003a
0  -2.336133 -0.973480 5.990400  -0.001071 -0.495120 0.868824  0.157172 0.018221 0
0  -2.610924 -0.970815 5.991034  -0.287971 -0.505219 0.813527  0.157063 0.005232 0
0  -2.600164 -1.447704 5.500535  -0.345336 -0.848319 0.401371  0.189400 0.005740 0
soap003a
0  2.610897 -0.970815 5.991034  0.289500 -0.507821 0.811362  0.157063 0.252060 0
0  2.336106 -0.973480 5.990400  0.001404 -0.495466 0.868626  0.157172 0.239070 0
0  2.336106 -1.447704 5.500535  0.000342 -0.897260 0.441502  0.189400 0.239070 0
soap003a
0  -2.336133 -2.549492 -2.068267  -0.000000 -0.997389 0.072214  0.550937 0.018221 0
0  -2.336133 -1.447704 5.500535  0.000000 -0.897440 0.441137  0.189400 0.018221 0
0  -2.600164 -1.447704 5.500535  -0.345336 -0.848319 0.401371  0.189400 0.005740 0
soap003a
0  0.525844 -2.408420 -1.099162  0.000000 -0.989570 0.144051  0.504646 0.153502 0
0  -0.525872 -2.408420 -1.099162  -0.000000 -0.989570 0.144051  0.504646 0.103789 0
0  -2.336133 -2.549492 -2.068267  -0.000000 -0.997389 0.072214  0.550937 0.018221 0
soap003a
0  -0.525872 -1.588776 4.531430  0.000000 -0.989570 0.144051  0.235691 0.103789 0
0  0.525844 -1.588776 4.531430  -0.000000 -0.989570 0.144051  0.235691 0.153502 0
0  2.336106 -1.447704 5.500535  0.000342 -0.897260 0.441502  0.189400 0.239070 0
soap003a
0  -0.525872 -2.408420 -1.099162  -0.000000 -0.989570 0.144051  0.504646 0.103789 0
0  -0.525872 -1.588776 4.531430  0.000000 -0.989570 0.144051  0.235691 0.103789 0
0  -2.336133 -1.447704 5.500535  0.000000 -0.897440 0.441137  0.189400 0.018221 0
soap003a
0  0.525844 -1.588776 4.531430  -0.000000 -0.989570 0.144051  0.235691 0.153502 0
0  0.525844 -2.408420 -1.099162  0.000000 -0.989570 0.144051  0.504646 0.153502 0
0  2.336106 -2.549492 -2.068267  0.000000 -0.997389 0.072214  0.550937 0.239071 0
soap003a
0  0.388640 -1.918844 -0.432142  -0.520913 -0.802880 0.289885  0.471839 0.833758 0
0  0.388640 -1.243250 4.208887  -0.483139 -0.840752 -0.244361  0.250152 0.833758 0
0  -0.388667 -1.243250 4.208887  0.483139 -0.840752 -0.244361  0.250152 0.797016 0
soap003a
0  -0.525872 -1.588776 4.531430  0.528640 -0.681862 -0.505573  0.237418 0.777546 0
0  -0.525872 -2.408420 -1.099162  0.296438 -0.797988 0.524727  0.506373 0.777546 0
0  -0.388667 -1.918844 -0.432142  0.520913 -0.802880 0.289885  0.471839 0.797016 0
soap003a
0  -0.525872 -2.408420 -1.099162  0.296438 -0.797988 0.524727  0.510950 0.790531 0
0  0.525844 -2.408420 -1.099162  -0.296438 -0.797989 0.524727  0.510950 0.840244 0
0  0.388640 -1.918844 -0.432142  -0.520913 -0.802880 0.289885  0.471839 0.833758 0
soap003a
0  0.525844 -2.408420 -1.099162  -0.296438 -0.797989 0.524727  0.506373 0.853229 0
0  0.525844 -1.588776 4.531430  -0.528641 -0.681862 -0.505573  0.237418 0.853229 0
0  0.388640 -1.243250 4.208887  -0.483139 -0.840752 -0.244361  0.250152 0.833758 0
soap003a
0  2.336106 -0.331719 -6.192449  0.311100 0.337958 -0.888257  0.337610 0.738965 0
0  0.276341 -1.008096 -6.192449  0.000001 0.000000 -1.000000  0.305639 0.641602 0
0  -0.000014 -0.893625 -6.192449  0.000000 0.000000 -1.000000  0.311050 0.628540 0
soap003a
0  -0.000014 -0.893625 -6.192449  0.000000 0.000000 -1.000000  0.311050 0.628540 0
0  -0.276369 -1.008095 -6.192449  -0.000000 0.000000 -1.000000  0.305639 0.615477 0
0  -2.336133 -0.331719 -6.192449  -0.307026 0.334328 -0.891044  0.337610 0.518114 0
soap003a
0  -2.336133 -2.237182 -6.192449  -0.313101 -0.321396 -0.893685  0.247541 0.518115 0
0  -0.276369 -1.560805 -6.192449  0.000000 0.000000 -1.000000  0.279513 0.615477 0
0  -0.000014 -1.675275 -6.192449  0.000000 0.000000 -1.000000  0.274102 0.628540 0
soap003a
0  -0.000014 -1.675275 -6.192449  0.000000 0.000000 -1.000000  0.274102 0.628540 0
0  0.276341 -1.560805 -6.192449  0.000000 0.000000 -1.000000  0.279513 0.641602 0
0  2.336106 -2.237182 -6.192449  0.312372 -0.320637 -0.894212  0.247541 0.738965 0
soap003a
0  -2.336133 -0.331719 -6.192449  -0.307026 0.334328 -0.891044  0.337610 0.518114 0
0  -0.276369 -1.008095 -6.192449  -0.000000 0.000000 -1.000000  0.305639 0.615477 0
0  -0.390839 -1.284450 -6.192449  -0.000001 0.000000 -1.000000  0.292576 0.610066 0
soap003a
0  -0.390839 -1.284450 -6.192449  -0.000001 0.000000 -1.000000  0.292576 0.610066 0
0  -0.276369 -1.560805 -6.192449  0.000000 0.000000 -1.000000  0.279513 0.615477 0
0  -2.336133 -2.237182 -6.192449  -0.313101 -0.321396 -0.893685  0.247541 0.518115 0
soap003a
0  2.336106 -2.237182 -6.192449  0.312372 -0.320637 -0.894212  0.247541 0.738965 0
0  0.276341 -1.560805 -6.192449  0.000000 0.000000 -1.000000  0.279513 0.641602 0
0  0.390811 -1.284450 -6.192449  0.000000 0.000000 -1.000000  0.292576 0.647013 0
soap003a
0  0.390811 -1.284450 -6.192449  0.000000 0.000000 -1.000000  0.292576 0.647013 0
0  0.276341 -1.008096 -6.192449  0.000001 0.000000 -1.000000  0.305639 0.641602 0
0  2.336106 -0.331719 -6.192449  0.311100 0.337958 -0.888257  0.337610 0.738965 0
soap003a
0  -0.276369 -1.008095 -6.192449  0.707107 -0.707107 0.000000  0.535530 0.524735 0
0  -0.000014 -0.893625 -6.192449  0.000000 -1.000000 0.000000  0.535530 0.538874 0
0  -0.000014 -0.893625 -5.792997  0.000000 -0.905750 -0.423813  0.516648 0.538874 0
soap003a
0  -0.276369 -1.560805 -6.192449  0.707107 0.707107 0.000000  0.535530 0.496456 0
0  -0.390839 -1.284450 -6.192449  1.000000 -0.000000 0.000000  0.535530 0.510596 0
0  -0.390839 -1.284450 -5.792997  0.905750 -0.000000 -0.423813  0.516648 0.510596 0
soap003a
0  -0.000014 -1.675275 -6.192449  0.000000 1.000000 0.000000  0.535530 0.482317 0
0  -0.276369 -1.560805 -6.192449  0.707107 0.707107 0.000000  0.535530 0.496456 0
0  -0.276369 -1.560805 -5.792997  0.640462 0.640462 -0.423813  0.516648 0.496456 0
soap003a
0  0.390811 -1.284450 -6.192449  -1.000000 0.000000 0.000000  0.535530 0.567152 0
0  0.276341 -1.560805 -6.192449  -0.707107 0.707107 0.000000  0.535530 0.581291 0
0  0.276341 -1.560805 -5.792997  -0.640462 0.640462 -0.423813  0.516648 0.581291 0
soap003a
0  -0.390839 -1.284450 -6.192449  1.000000 -0.000000 0.000000  0.535530 0.510596 0
0  -0.276369 -1.008095 -6.192449  0.707107 -0.707107 0.000000  0.535530 0.524735 0
0  -0.276369 -1.008095 -5.792997  0.640462 -0.640462 -0.423813  0.516648 0.524735 0
soap003a
0  0.276341 -1.008096 -6.192449  -0.707107 -0.707107 0.000000  0.535530 0.553013 0
0  0.390811 -1.284450 -6.192449  -1.000000 0.000000 0.000000  0.535530 0.567152 0
0  0.390811 -1.284450 -5.792997  -0.905750 0.000000 -0.423813  0.516648 0.567152 0
soap003a
0  0.276341 -1.560805 -6.192449  -0.707107 0.707107 0.000000  0.535530 0.581291 0
0  -0.000014 -1.675275 -6.192449  0.000000 1.000000 0.000000  0.535530 0.595431 0
0  -0.000014 -1.675275 -5.792997  -0.000000 0.905750 -0.423813  0.516648 0.595431 0
soap003a
0  -2.336133 -0.103333 -5.465301  0.000000 1.000000 0.000000  0.492572 0.499146 0
0  -2.101265 -0.103333 -5.700169  0.000000 1.000000 -0.000000  0.481470 0.510248 0
0  -2.336133 -0.103333 -5.972982  -0.178106 0.879963 -0.440389  0.468575 0.499146 0
soap003a
0  2.101238 -0.103333 -5.700169  0.000000 1.000000 0.000000  0.481470 0.708893 0
0  2.336106 -0.103333 -5.465301  0.000000 1.000000 0.000000  0.492572 0.719995 0
0  2.692130 -0.103333 -5.700169  0.440462 0.850835 -0.286484  0.481470 0.736824 0
soap003a
0  2.101238 -0.103333 -5.700169  0.382684 0.000000 -0.923879  0.355366 0.696664 0
0  2.101238 2.232786 -5.700169  0.382683 0.000000 -0.923880  0.465791 0.696664 0
0  2.336106 2.232786 -5.465301  0.923879 0.000000 -0.382684  0.465791 0.712364 0
soap003a
0  -2.101265 2.232786 -5.700169  -0.382684 0.000000 -0.923879  0.465791 0.498018 0
0  -2.101265 -0.103333 -5.700169  -0.382683 0.000000 -0.923880  0.355366 0.498018 0
0  -2.336133 -0.103333 -5.465301  -0.923879 0.000000 -0.382684  0.355366 0.482317 0
soap003a
0  -2.336133 -0.103333 -5.465301  -0.923879 0.000000 -0.382684  0.114601 0.992260 0
0  -2.336133 -0.103333 -1.296954  -1.000000 0.000000 0.000000  0.114601 0.795228 0
0  -2.336133 2.232786 -1.296954  -1.000000 0.000000 0.000000  0.225026 0.795228 0
end
