version 1
nodes
0 "root" -1
end
skeleton
time 0
0 0 0 0 0 0 0
end
triangles
phy
0  -26.635576 -0.505361 -19.079491  -0.577349 -0.577349 -0.577349  0.375000 0.000000 0
0  -26.635576 0.267882 19.079491  -0.577349 0.577349 0.577349  0.625000 0.250000 0
0  -26.635576 0.267882 -19.079491  -0.577349 0.577349 -0.577349  0.375000 0.250000 0
phy
0  -26.635576 0.267882 -19.079491  -0.577349 0.577349 -0.577349  0.375000 0.250000 0
0  26.635576 0.267882 19.079491  0.577349 0.577349 0.577349  0.625000 0.500000 0
0  26.635576 0.267882 -19.079491  0.577349 0.577349 -0.577349  0.375000 0.500000 0
phy
0  26.635576 0.267882 -19.079491  0.577349 0.577349 -0.577349  0.375000 0.500000 0
0  26.635576 -0.505361 19.079491  0.577349 -0.577349 0.577349  0.625000 0.750000 0
0  26.635576 -0.505361 -19.079491  0.577349 -0.577349 -0.577349  0.375000 0.750000 0
phy
0  26.635576 -0.505361 -19.079491  0.577349 -0.577349 -0.577349  0.375000 0.750000 0
0  -26.635576 -0.505361 19.079491  -0.577349 -0.577349 0.577349  0.625000 1.000000 0
0  -26.635576 -0.505361 -19.079491  -0.577349 -0.577349 -0.577349  0.375000 1.000000 0
phy
0  -26.635576 0.267882 -19.079491  -0.577349 0.577349 -0.577349  0.125000 0.500000 0
0  26.635576 -0.505361 -19.079491  0.577349 -0.577349 -0.577349  0.375000 0.750000 0
0  -26.635576 -0.505361 -19.079491  -0.577349 -0.577349 -0.577349  0.125000 0.750000 0
phy
0  26.635576 0.267882 19.079491  0.577349 0.577349 0.577349  0.625000 0.500000 0
0  -26.635576 -0.505361 19.079491  -0.577349 -0.577349 0.577349  0.875000 0.750000 0
0  26.635576 -0.505361 19.079491  0.577349 -0.577349 0.577349  0.625000 0.750000 0
phy
0  -26.635576 -0.505361 -19.079491  -0.577349 -0.577349 -0.577349  0.375000 0.000000 0
0  -26.635576 -0.505361 19.079491  -0.577349 -0.577349 0.577349  0.625000 0.000000 0
0  -26.635576 0.267882 19.079491  -0.577349 0.577349 0.577349  0.625000 0.250000 0
phy
0  -26.635576 0.267882 -19.079491  -0.577349 0.577349 -0.577349  0.375000 0.250000 0
0  -26.635576 0.267882 19.079491  -0.577349 0.577349 0.577349  0.625000 0.250000 0
0  26.635576 0.267882 19.079491  0.577349 0.577349 0.577349  0.625000 0.500000 0
phy
0  26.635576 0.267882 -19.079491  0.577349 0.577349 -0.577349  0.375000 0.500000 0
0  26.635576 0.267882 19.079491  0.577349 0.577349 0.577349  0.625000 0.500000 0
0  26.635576 -0.505361 19.079491  0.577349 -0.577349 0.577349  0.625000 0.750000 0
phy
0  26.635576 -0.505361 -19.079491  0.577349 -0.577349 -0.577349  0.375000 0.750000 0
0  26.635576 -0.505361 19.079491  0.577349 -0.577349 0.577349  0.625000 0.750000 0
0  -26.635576 -0.505361 19.079491  -0.577349 -0.577349 0.577349  0.625000 1.000000 0
phy
0  -26.635576 0.267882 -19.079491  -0.577349 0.577349 -0.577349  0.125000 0.500000 0
0  26.635576 0.267882 -19.079491  0.577349 0.577349 -0.577349  0.375000 0.500000 0
0  26.635576 -0.505361 -19.079491  0.577349 -0.577349 -0.577349  0.375000 0.750000 0
phy
0  26.635576 0.267882 19.079491  0.577349 0.577349 0.577349  0.625000 0.500000 0
0  -26.635576 0.267882 19.079491  -0.577349 0.577349 0.577349  0.875000 0.500000 0
0  -26.635576 -0.505361 19.079491  -0.577349 -0.577349 0.577349  0.875000 0.750000 0
end
