// Created by Crowbar 0.71
version 1
nodes
  0 "door" -1
  1 "handle" 0
  2 "handle02" 0
end
skeleton
  time 0
    0 0.000000 0.000000 0.000000 1.570796 0.000000 -1.570796
    1 43.810005 -10.390667 1.997513 0.000000 0.000000 0.000000
    2 43.810005 -10.390667 1.997513 0.000000 0.000000 0.000000
  time 1
    0 0.000000 0.000000 0.000000 1.570796 0.000000 -1.570796
    1 43.810005 -10.390667 1.997513 0.000000 0.000000 0.000000
    2 43.810005 -10.390667 1.985794 0.000000 0.000000 0.000000
  time 2
    0 0.000000 0.000000 0.000000 1.570796 0.000000 -1.570796
    1 43.810005 -10.390667 1.997513 0.000000 0.000000 0.000000
    2 43.810005 -10.390667 1.950637 0.000000 0.000000 0.000000
  time 3
    0 0.000000 0.000000 0.000000 1.570796 0.000000 -1.570796
    1 43.810005 -10.390667 1.997513 0.000000 0.000000 0.000000
    2 43.810005 -10.390667 1.899854 0.000000 0.000000 0.000000
  time 4
    0 0.000000 0.000000 0.000000 1.570796 0.000000 -1.570796
    1 43.810005 -10.390667 1.997513 0.000000 0.000000 0.000000
    2 43.810005 -10.390667 1.833446 0.000000 0.000000 0.000000
  time 5
    0 0.000000 0.000000 0.000000 1.570796 0.000000 -1.570796
    1 43.810005 -10.390667 1.997513 0.000000 0.000000 0.000000
    2 43.810005 -10.390667 1.767037 0.000000 0.000000 0.000000
  time 6
    0 0.000000 0.000000 0.000000 1.570796 0.000000 -1.570796
    1 43.810005 -10.390667 1.997513 0.000000 0.000000 0.000000
    2 43.810005 -10.390667 1.696723 0.000000 0.000000 0.000000
  time 7
    0 0.000000 0.000000 0.000000 1.570796 0.000000 -1.570796
    1 43.810005 -10.390667 1.997513 0.000000 0.000000 0.000000
    2 43.810005 -10.390667 1.634221 0.000000 0.000000 0.000000
  time 8
    0 0.000000 0.000000 0.000000 1.570796 0.000000 -1.570796
    1 43.810005 -10.390667 1.997513 0.000000 0.000000 0.000000
    2 43.810005 -10.390667 1.579532 0.000000 0.000000 0.000000
  time 9
    0 0.000000 0.000000 0.000000 1.570796 0.000000 -1.570796
    1 43.810005 -10.390667 1.997513 0.000000 0.000000 0.000000
    2 43.810005 -10.390667 1.544374 0.000000 0.000000 0.000000
  time 10
    0 0.000000 0.000000 0.000000 1.570796 0.000000 -1.570796
    1 43.810005 -10.390667 1.997513 0.000000 0.000000 0.000000
    2 43.810005 -10.390667 1.532655 0.000000 0.000000 0.000000
  time 11
    0 0.000000 0.000000 0.000000 1.570796 0.000000 -1.570796
    1 43.810005 -10.390667 1.997513 0.000000 0.000000 0.000000
    2 43.810005 -10.390667 1.579532 0.000000 0.000000 0.000000
  time 12
    0 0.000000 0.000000 0.000000 1.570796 0.000000 -1.570796
    1 43.810005 -10.390667 1.997513 0.000000 0.000000 0.000000
    2 43.810005 -10.390667 1.696723 0.000000 0.000000 0.000000
  time 13
    0 0.000000 0.000000 0.000000 1.570796 0.000000 -1.570796
    1 43.810005 -10.390667 1.997513 0.000000 0.000000 0.000000
    2 43.810005 -10.390667 1.833446 0.000000 0.000000 0.000000
  time 14
    0 0.000000 0.000000 0.000000 1.570796 0.000000 -1.570796
    1 43.810005 -10.390667 1.997513 0.000000 0.000000 0.000000
    2 43.810005 -10.390667 1.950637 0.000000 0.000000 0.000000
  time 15
    0 0.000000 0.000000 0.000000 1.570796 0.000000 -1.570796
    1 43.810005 -10.390667 1.997513 0.000000 0.000000 0.000000
    2 43.810005 -10.390667 1.997513 0.000000 0.000000 0.000000
end
