version 1
nodes
0 "root" -1
end
skeleton
time 0
0 0 0 0 0 0 0
end
triangles
glasschunks001a
0  3.583867 -0.501567 0.466756  0.000000 -1.000000 0.000000  0.913272 0.186949 0
0  4.539101 -0.501566 2.649613  0.000000 -1.000000 0.000000  0.872200 0.221293 0
0  -0.345923 -0.501566 2.141289  -0.000000 -1.000000 0.000000  0.852417 0.112724 0
glasschunks001a
0  2.399153 0.498433 -1.565853  0.851264 -0.052691 -0.522086  0.180478 0.467851 0
0  3.583867 -0.501567 0.466756  0.851264 -0.052691 -0.522086  0.205893 0.416339 0
0  2.441898 -0.501567 -1.395232  0.851264 -0.052691 -0.522086  0.203155 0.465342 0
glasschunks001a
0  3.435377 0.498433 0.343990  0.221927 -0.086281 -0.971238  0.183178 0.419102 0
0  5.223966 -0.501566 0.841517  0.221927 -0.086281 -0.971238  0.207735 0.378581 0
0  3.583867 -0.501567 0.466756  0.221927 -0.086281 -0.971238  0.205893 0.416339 0
glasschunks001a
0  -4.528951 0.498433 -1.647078  -0.785929 -0.058648 -0.615529  0.181051 0.640367 0
0  -3.331980 -0.501567 -3.080132  -0.785929 -0.058648 -0.615529  0.206948 0.600436 0
0  -4.439357 -0.501567 -1.666196  -0.785929 -0.058648 -0.615529  0.203613 0.640653 0
glasschunks001a
0  -3.331980 0.498433 -2.971666  0.278624 0.103563 -0.954800  0.184347 0.600388 0
0  2.441898 -0.501567 -1.395232  0.278624 0.103563 -0.954800  0.203155 0.465342 0
0  -3.331980 -0.501567 -3.080132  0.278624 0.103563 -0.954800  0.206948 0.600436 0
glasschunks001a
0  2.399153 0.498433 -1.565853  0.000000 1.000000 -0.000000  0.923416 0.657512 0
0  -3.331980 0.498433 -2.971666  -0.000000 1.000000 -0.000000  0.923416 0.790105 0
0  -0.488175 0.498434 2.296371  0.000000 1.000000 -0.000000  0.823676 0.699846 0
glasschunks001a
0  -4.439357 -0.501567 -1.666196  -0.958607 -0.091043 0.269785  0.203613 0.640653 0
0  -3.970946 0.498434 0.335644  -0.958607 -0.091043 0.269785  0.180736 0.686647 0
0  -4.528951 0.498433 -1.647078  -0.958607 -0.091043 0.269785  0.181051 0.640367 0
glasschunks001a
0  -3.985753 -0.501566 0.342602  -0.490535 0.013326 0.871320  0.203207 0.686924 0
0  -0.488175 0.498434 2.296371  -0.490535 0.013326 0.871320  0.178778 0.776432 0
0  -3.970946 0.498434 0.335644  -0.490535 0.013326 0.871320  0.180736 0.686647 0
glasschunks001a
0  -0.345923 -0.501566 2.141289  -0.052260 -0.160296 0.985685  0.201676 0.778138 0
0  4.437511 0.498434 2.557528  -0.052260 -0.160296 0.985685  0.185089 0.887085 0
0  -0.488175 0.498434 2.296371  -0.052260 -0.160296 0.985685  0.178778 0.776432 0
glasschunks001a
0  4.539101 -0.501566 2.649613  0.935747 0.125414 0.329619  0.207735 0.888328 0
0  5.074875 0.498434 0.748130  0.935747 0.125414 0.329619  0.180465 0.929942 0
0  4.437511 0.498434 2.557528  0.935747 0.125414 0.329619  0.185089 0.887085 0
glasschunks001a
0  -4.439357 -0.501567 -1.666196  0.000000 -1.000000 0.000000  0.908778 0.000463 0
0  -3.331980 -0.501567 -3.080132  0.000000 -1.000000 0.000000  0.946247 0.015449 0
0  -3.985753 -0.501566 0.342602  -0.000000 -1.000000 0.000000  0.868304 0.022891 0
glasschunks001a
0  -3.331980 -0.501567 -3.080132  0.000000 -1.000000 0.000000  0.946247 0.015449 0
0  2.441898 -0.501567 -1.395232  -0.000000 -1.000000 0.000000  0.946247 0.150597 0
0  -0.345923 -0.501566 2.141289  -0.000000 -1.000000 0.000000  0.852417 0.112724 0
glasschunks001a
0  3.583867 -0.501567 0.466756  0.000000 -1.000000 0.000000  0.913272 0.186949 0
0  5.223966 -0.501566 0.841517  0.000001 -1.000000 0.000000  0.915512 0.224685 0
0  4.539101 -0.501566 2.649613  0.000000 -1.000000 0.000000  0.872200 0.221293 0
glasschunks001a
0  -3.331980 -0.501567 -3.080132  0.000000 -1.000000 0.000000  0.946247 0.015449 0
0  -0.345923 -0.501566 2.141289  -0.000000 -1.000000 0.000000  0.852417 0.112724 0
0  -3.985753 -0.501566 0.342602  -0.000000 -1.000000 0.000000  0.868304 0.022891 0
glasschunks001a
0  2.441898 -0.501567 -1.395232  -0.000000 -1.000000 0.000000  0.946247 0.150597 0
0  3.583867 -0.501567 0.466756  0.000000 -1.000000 0.000000  0.913272 0.186949 0
0  -0.345923 -0.501566 2.141289  -0.000000 -1.000000 0.000000  0.852417 0.112724 0
glasschunks001a
0  2.399153 0.498433 -1.565853  0.876692 0.071784 -0.475667  0.180478 0.467851 0
0  3.435377 0.498433 0.343990  0.876692 0.071784 -0.475667  0.183178 0.419102 0
0  3.583867 -0.501567 0.466756  0.876692 0.071784 -0.475667  0.205893 0.416339 0
glasschunks001a
0  3.435377 0.498433 0.343990  0.238977 -0.054907 -0.969472  0.183178 0.419102 0
0  5.074875 0.498434 0.748130  0.238977 -0.054907 -0.969472  0.185072 0.381208 0
0  5.223966 -0.501566 0.841517  0.238977 -0.054907 -0.969472  0.207735 0.378581 0
glasschunks001a
0  -4.528951 0.498433 -1.647078  -0.739990 0.072531 -0.668696  0.181051 0.640367 0
0  -3.331980 0.498433 -2.971666  -0.739990 0.072531 -0.668696  0.184347 0.600388 0
0  -3.331980 -0.501567 -3.080132  -0.739990 0.072531 -0.668696  0.206948 0.600436 0
glasschunks001a
0  -3.331980 0.498433 -2.971666  0.235402 -0.153678 -0.959671  0.184347 0.600388 0
0  2.399153 0.498433 -1.565853  0.235402 -0.153678 -0.959671  0.180478 0.467851 0
0  2.441898 -0.501567 -1.395232  0.235402 -0.153678 -0.959671  0.203155 0.465342 0
glasschunks001a
0  -4.528951 0.498433 -1.647078  -0.000000 1.000000 -0.000000  0.888103 0.809136 0
0  -3.970946 0.498434 0.335644  0.000000 1.000000 -0.000000  0.847821 0.786345 0
0  -3.331980 0.498433 -2.971666  -0.000000 1.000000 -0.000000  0.923416 0.790105 0
glasschunks001a
0  -3.970946 0.498434 0.335644  0.000000 1.000000 -0.000000  0.847821 0.786345 0
0  -0.488175 0.498434 2.296371  0.000000 1.000000 -0.000000  0.823676 0.699846 0
0  -3.331980 0.498433 -2.971666  -0.000000 1.000000 -0.000000  0.923416 0.790105 0
glasschunks001a
0  -0.488175 0.498434 2.296371  0.000000 1.000000 -0.000000  0.823676 0.699846 0
0  4.437511 0.498434 2.557528  -0.000000 1.000000 -0.000000  0.844344 0.590957 0
0  3.435377 0.498433 0.343990  -0.000000 1.000000 -0.000000  0.887285 0.624675 0
glasschunks001a
0  4.437511 0.498434 2.557528  -0.000000 1.000000 -0.000000  0.844344 0.590957 0
0  5.074875 0.498434 0.748130  -0.000001 1.000000 -0.000000  0.887242 0.586734 0
0  3.435377 0.498433 0.343990  -0.000000 1.000000 -0.000000  0.887285 0.624675 0
glasschunks001a
0  3.435377 0.498433 0.343990  -0.000000 1.000000 -0.000000  0.887285 0.624675 0
0  2.399153 0.498433 -1.565853  0.000000 1.000000 -0.000000  0.923416 0.657512 0
0  -0.488175 0.498434 2.296371  0.000000 1.000000 -0.000000  0.823676 0.699846 0
glasschunks001a
0  -4.439357 -0.501567 -1.666196  -0.975316 0.015974 0.220235  0.203613 0.640653 0
0  -3.985753 -0.501566 0.342602  -0.975316 0.015974 0.220235  0.203207 0.686924 0
0  -3.970946 0.498434 0.335644  -0.975316 0.015974 0.220235  0.180736 0.686647 0
glasschunks001a
0  -3.985753 -0.501566 0.342602  -0.434250 -0.198051 0.878750  0.203207 0.686924 0
0  -0.345923 -0.501566 2.141289  -0.434250 -0.198051 0.878750  0.201676 0.778138 0
0  -0.488175 0.498434 2.296371  -0.434250 -0.198051 0.878750  0.178778 0.776432 0
glasschunks001a
0  -0.345923 -0.501566 2.141289  -0.103160 0.080811 0.991377  0.201676 0.778138 0
0  4.539101 -0.501566 2.649613  -0.103160 0.080811 0.991377  0.207735 0.888328 0
0  4.437511 0.498434 2.557528  -0.103160 0.080811 0.991377  0.185089 0.887085 0
glasschunks001a
0  4.539101 -0.501566 2.649613  0.921552 0.169994 0.349062  0.207735 0.888328 0
0  5.223966 -0.501566 0.841517  0.921552 0.169994 0.349062  0.203224 0.931538 0
0  5.074875 0.498434 0.748130  0.921552 0.169994 0.349062  0.180465 0.929942 0
end
