// Created by Crowbar 0.19.0.0

$modelname "props_expanded\architecture\window_glass_chunk10.mdl"

$staticprop

$bodygroup "Body"
{
	studio "chunk10.smd"
}

$noforcedfade

$cdmaterials "models\props_expanded\architecture\"

$surfaceprop "glass"

$contents "solid"


$attachment "placementOrigin" "static_prop" 0 0 0 rotate 0 0 0

$definebone "static_prop" "" 0 0 0 0 0 0 0 0 0 0 0 0


$sequence "idle" "anims\idle.smd" {
	fps 30
}

$collisionmodel "chunk10_physics.smd"
{
	$mass 1
	$inertia 1
	$damping 0
	$rotdamping 0
	$concave

}


$keyvalues
{
	prop_data 
	{
		"base" "Glass.Window"
	}
}
