version 1
nodes
0 "root" -1
end
skeleton
time 0
0 0 0 0 0 0 0
end
triangles
phy
0  -2.344998 -6.044774 -15.546656  -0.578631 -0.569536 -0.583728  0.375000 0.000000 0
0  -2.344998 -5.809036 11.881807  -0.578631 0.569536 0.583728  0.625000 0.250000 0
0  -2.344998 -5.134045 -15.546656  -0.576067 0.585040 -0.570818  0.375000 0.250000 0
phy
0  -2.344998 -5.134045 -15.546656  -0.576067 0.585040 -0.570818  0.375000 0.250000 0
0  2.344999 -5.809036 11.881807  0.578631 0.569536 0.583728  0.625000 0.500000 0
0  2.344999 -5.134045 -15.546656  0.576067 0.585040 -0.570818  0.375000 0.500000 0
phy
0  2.344999 -5.134045 -15.546656  0.576067 0.585040 -0.570818  0.375000 0.500000 0
0  2.344999 -6.719766 11.881807  0.576067 -0.585040 0.570818  0.625000 0.750000 0
0  2.344999 -6.044774 -15.546656  0.578631 -0.569536 -0.583728  0.375000 0.750000 0
phy
0  2.344999 -6.044774 -15.546656  0.578631 -0.569536 -0.583728  0.375000 0.750000 0
0  -2.344998 -6.719766 11.881807  -0.576067 -0.585040 0.570818  0.625000 1.000000 0
0  -2.344998 -6.044774 -15.546656  -0.578631 -0.569536 -0.583728  0.375000 1.000000 0
phy
0  -2.344998 -5.134045 -15.546656  -0.576067 0.585040 -0.570818  0.125000 0.500000 0
0  2.344999 -6.044774 -15.546656  0.578631 -0.569536 -0.583728  0.375000 0.750000 0
0  -2.344998 -6.044774 -15.546656  -0.578631 -0.569536 -0.583728  0.125000 0.750000 0
phy
0  2.344999 -5.809036 11.881807  0.578631 0.569536 0.583728  0.625000 0.500000 0
0  -2.344998 -6.719766 11.881807  -0.576067 -0.585040 0.570818  0.875000 0.750000 0
0  2.344999 -6.719766 11.881807  0.576067 -0.585040 0.570818  0.625000 0.750000 0
phy
0  2.089133 -6.137901 -15.546656  -0.077151 -0.808252 -0.583728  0.375000 0.000000 0
0  1.937604 -5.957315 11.881807  -0.809351 0.064333 0.583728  0.625000 0.250000 0
0  1.503727 -5.440242 -15.546656  -0.817347 0.077883 -0.570818  0.375000 0.250000 0
phy
0  1.503727 -5.440242 -15.546656  -0.817347 0.077883 -0.570818  0.375000 0.250000 0
0  5.530350 -2.942644 11.881807  0.077151 0.808252 0.583728  0.625000 0.500000 0
0  5.096474 -2.425570 -15.546656  0.065218 0.818445 -0.570818  0.375000 0.500000 0
phy
0  5.096474 -2.425570 -15.546656  0.065218 0.818445 -0.570818  0.375000 0.500000 0
0  6.115756 -3.640303 11.881807  0.817347 -0.077883 0.570818  0.625000 0.750000 0
0  5.681879 -3.123230 -15.546656  0.809351 -0.064333 -0.583728  0.375000 0.750000 0
phy
0  5.681879 -3.123230 -15.546656  0.809351 -0.064333 -0.583728  0.375000 0.750000 0
0  2.523009 -6.654975 11.881807  -0.065218 -0.818445 0.570818  0.625000 1.000000 0
0  2.089133 -6.137901 -15.546656  -0.077151 -0.808252 -0.583728  0.375000 1.000000 0
phy
0  1.503727 -5.440242 -15.546656  -0.817347 0.077883 -0.570818  0.125000 0.500000 0
0  5.681879 -3.123230 -15.546656  0.809351 -0.064333 -0.583728  0.375000 0.750000 0
0  2.089133 -6.137901 -15.546656  -0.077151 -0.808252 -0.583728  0.125000 0.750000 0
phy
0  5.530350 -2.942644 11.881807  0.077151 0.808252 0.583728  0.625000 0.500000 0
0  2.523009 -6.654975 11.881807  -0.065218 -0.818445 0.570818  0.875000 0.750000 0
0  6.115756 -3.640303 11.881807  0.817347 -0.077883 0.570818  0.625000 0.750000 0
phy
0  5.545736 -3.359036 -15.546656  0.460402 -0.668752 -0.583728  0.375000 0.000000 0
0  5.313580 -3.318101 11.881807  -0.661367 -0.470931 0.583728  0.625000 0.250000 0
0  4.648842 -3.200890 -15.546656  -0.676199 -0.465712 -0.570818  0.375000 0.250000 0
phy
0  4.648842 -3.200890 -15.546656  -0.676199 -0.465712 -0.570818  0.375000 0.250000 0
0  6.127989 1.300645 11.881807  -0.460402 0.668752 0.583728  0.625000 0.500000 0
0  5.463252 1.417856 -15.546656  -0.476119 0.668905 -0.570818  0.375000 0.500000 0
phy
0  5.463252 1.417856 -15.546656  -0.476119 0.668905 -0.570818  0.375000 0.500000 0
0  7.024882 1.142498 11.881807  0.676199 0.465712 0.570818  0.625000 0.750000 0
0  6.360145 1.259709 -15.546656  0.661367 0.470931 -0.583728  0.375000 0.750000 0
phy
0  6.360145 1.259709 -15.546656  0.661367 0.470931 -0.583728  0.375000 0.750000 0
0  6.210473 -3.476247 11.881807  0.476119 -0.668905 0.570818  0.625000 1.000000 0
0  5.545736 -3.359036 -15.546656  0.460402 -0.668752 -0.583728  0.375000 1.000000 0
phy
0  4.648842 -3.200890 -15.546656  -0.676199 -0.465712 -0.570818  0.125000 0.500000 0
0  6.360145 1.259709 -15.546656  0.661367 0.470931 -0.583728  0.375000 0.750000 0
0  5.545736 -3.359036 -15.546656  0.460402 -0.668752 -0.583728  0.125000 0.750000 0
phy
0  6.127989 1.300645 11.881807  -0.460402 0.668752 0.583728  0.625000 0.500000 0
0  6.210473 -3.476247 11.881807  0.476119 -0.668905 0.570818  0.875000 0.750000 0
0  7.024882 1.142498 11.881807  0.676199 0.465712 0.570818  0.625000 0.750000 0
phy
0  6.407427 0.991560 -15.546656  0.782556 -0.216346 -0.583728  0.375000 0.000000 0
0  6.203272 0.873690 11.881807  -0.203925 -0.785882 0.583728  0.625000 0.250000 0
0  5.618712 0.536195 -15.546656  -0.218635 -0.791406 -0.570818  0.375000 0.250000 0
phy
0  5.618712 0.536195 -15.546656  -0.218635 -0.791406 -0.570818  0.375000 0.250000 0
0  3.858273 4.935347 11.881807  -0.782556 0.216346 0.583728  0.625000 0.500000 0
0  3.273714 4.597851 -15.546656  -0.794702 0.206336 -0.570818  0.375000 0.500000 0
phy
0  3.273714 4.597851 -15.546656  -0.794702 0.206336 -0.570818  0.375000 0.500000 0
0  4.646988 5.390712 11.881807  0.218635 0.791406 0.570818  0.625000 0.750000 0
0  4.062428 5.053216 -15.546656  0.203894 0.785882 -0.583728  0.375000 0.750000 0
phy
0  4.062428 5.053216 -15.546656  0.203894 0.785882 -0.583728  0.375000 0.750000 0
0  6.991987 1.329055 11.881807  0.794702 -0.206336 0.570818  0.625000 1.000000 0
0  6.407427 0.991560 -15.546656  0.782556 -0.216346 -0.583728  0.375000 1.000000 0
phy
0  5.618712 0.536195 -15.546656  -0.218635 -0.791406 -0.570818  0.125000 0.500000 0
0  4.062428 5.053216 -15.546656  0.203894 0.785882 -0.583728  0.375000 0.750000 0
0  6.407427 0.991560 -15.546656  0.782556 -0.216346 -0.583728  0.125000 0.750000 0
phy
0  3.858273 4.935347 11.881807  -0.782556 0.216346 0.583728  0.625000 0.500000 0
0  6.991987 1.329055 11.881807  0.794702 -0.206336 0.570818  0.875000 0.750000 0
0  4.646988 5.390712 11.881807  0.218635 0.791406 0.570818  0.625000 0.750000 0
phy
0  4.271012 4.878193 -15.546656  0.738548 0.337291 -0.583728  0.375000 0.000000 0
0  4.190385 4.656672 11.881807  0.348949 -0.733116 0.583728  0.625000 0.250000 0
0  3.959524 4.022388 -15.546656  0.341197 -0.746788 -0.570818  0.375000 0.250000 0
phy
0  3.959524 4.022388 -15.546656  0.341197 -0.746788 -0.570818  0.375000 0.250000 0
0  -0.216771 6.260746 11.881807  -0.738548 -0.337291 0.583728  0.625000 0.500000 0
0  -0.447632 5.626461 -15.546656  -0.741417 -0.352733 -0.570818  0.375000 0.500000 0
phy
0  -0.447632 5.626461 -15.546656  -0.741417 -0.352733 -0.570818  0.375000 0.500000 0
0  0.094716 7.116552 11.881807  -0.341197 0.746788 0.570818  0.625000 0.750000 0
0  -0.136144 6.482267 -15.546656  -0.348949 0.733116 -0.583728  0.375000 0.750000 0
phy
0  -0.136144 6.482267 -15.546656  -0.348949 0.733116 -0.583728  0.375000 0.750000 0
0  4.501873 5.512478 11.881807  0.741417 0.352733 0.570818  0.625000 1.000000 0
0  4.271012 4.878193 -15.546656  0.738548 0.337291 -0.583728  0.375000 1.000000 0
phy
0  3.959524 4.022388 -15.546656  0.341197 -0.746788 -0.570818  0.125000 0.500000 0
0  -0.136144 6.482267 -15.546656  -0.348949 0.733116 -0.583728  0.375000 0.750000 0
0  4.271012 4.878193 -15.546656  0.738548 0.337291 -0.583728  0.125000 0.750000 0
phy
0  -0.216771 6.260746 11.881807  -0.738548 -0.337291 0.583728  0.625000 0.500000 0
0  4.501873 5.512478 11.881807  0.741417 0.352733 0.570818  0.875000 0.750000 0
0  0.094716 7.116552 11.881807  -0.341197 0.746788 0.570818  0.625000 0.750000 0
phy
0  0.136142 6.482267 -15.546656  0.348949 0.733116 -0.583728  0.375000 0.000000 0
0  0.216770 6.260746 11.881807  0.738548 -0.337291 0.583728  0.625000 0.250000 0
0  0.447630 5.626461 -15.546656  0.741417 -0.352733 -0.570818  0.375000 0.250000 0
phy
0  0.447630 5.626461 -15.546656  0.741417 -0.352733 -0.570818  0.375000 0.250000 0
0  -4.190386 4.656672 11.881807  -0.348949 -0.733116 0.583728  0.625000 0.500000 0
0  -3.959526 4.022387 -15.546656  -0.341197 -0.746788 -0.570818  0.375000 0.500000 0
phy
0  -3.959526 4.022387 -15.546656  -0.341197 -0.746788 -0.570818  0.375000 0.500000 0
0  -4.501874 5.512477 11.881807  -0.741417 0.352733 0.570818  0.625000 0.750000 0
0  -4.271013 4.878193 -15.546656  -0.738548 0.337291 -0.583728  0.375000 0.750000 0
phy
0  -4.271013 4.878193 -15.546656  -0.738548 0.337291 -0.583728  0.375000 0.750000 0
0  -0.094718 7.116551 11.881807  0.341197 0.746788 0.570818  0.625000 1.000000 0
0  0.136142 6.482267 -15.546656  0.348949 0.733116 -0.583728  0.375000 1.000000 0
phy
0  0.447630 5.626461 -15.546656  0.741417 -0.352733 -0.570818  0.125000 0.500000 0
0  -4.271013 4.878193 -15.546656  -0.738548 0.337291 -0.583728  0.375000 0.750000 0
0  0.136142 6.482267 -15.546656  0.348949 0.733116 -0.583728  0.125000 0.750000 0
phy
0  -4.190386 4.656672 11.881807  -0.348949 -0.733116 0.583728  0.625000 0.500000 0
0  -0.094718 7.116551 11.881807  0.341197 0.746788 0.570818  0.875000 0.750000 0
0  -4.501874 5.512477 11.881807  -0.741417 0.352733 0.570818  0.625000 0.750000 0
phy
0  -4.062430 5.053215 -15.546656  -0.203925 0.785882 -0.583728  0.375000 0.000000 0
0  -3.858275 4.935347 11.881807  0.782556 0.216346 0.583728  0.625000 0.250000 0
0  -3.273715 4.597851 -15.546656  0.794702 0.206336 -0.570818  0.375000 0.250000 0
phy
0  -3.273715 4.597851 -15.546656  0.794702 0.206336 -0.570818  0.375000 0.250000 0
0  -6.203273 0.873689 11.881807  0.203894 -0.785882 0.583728  0.625000 0.500000 0
0  -5.618713 0.536193 -15.546656  0.218635 -0.791406 -0.570818  0.375000 0.500000 0
phy
0  -5.618713 0.536193 -15.546656  0.218635 -0.791406 -0.570818  0.375000 0.500000 0
0  -6.991988 1.329054 11.881807  -0.794702 -0.206336 0.570818  0.625000 0.750000 0
0  -6.407428 0.991558 -15.546656  -0.782556 -0.216346 -0.583728  0.375000 0.750000 0
phy
0  -6.407428 0.991558 -15.546656  -0.782556 -0.216346 -0.583728  0.375000 0.750000 0
0  -4.646990 5.390711 11.881807  -0.218635 0.791406 0.570818  0.625000 1.000000 0
0  -4.062430 5.053215 -15.546656  -0.203925 0.785882 -0.583728  0.375000 1.000000 0
phy
0  -3.273715 4.597851 -15.546656  0.794702 0.206336 -0.570818  0.125000 0.500000 0
0  -6.407428 0.991558 -15.546656  -0.782556 -0.216346 -0.583728  0.375000 0.750000 0
0  -4.062430 5.053215 -15.546656  -0.203925 0.785882 -0.583728  0.125000 0.750000 0
phy
0  -6.203273 0.873689 11.881807  0.203894 -0.785882 0.583728  0.625000 0.500000 0
0  -4.646990 5.390711 11.881807  -0.218635 0.791406 0.570818  0.875000 0.750000 0
0  -6.991988 1.329054 11.881807  -0.794702 -0.206336 0.570818  0.625000 0.750000 0
phy
0  -6.360146 1.259708 -15.546656  -0.661367 0.470962 -0.583728  0.375000 0.000000 0
0  -6.127990 1.300643 11.881807  0.460402 0.668752 0.583728  0.625000 0.250000 0
0  -5.463253 1.417855 -15.546656  0.476119 0.668905 -0.570818  0.375000 0.250000 0
phy
0  -5.463253 1.417855 -15.546656  0.476119 0.668905 -0.570818  0.375000 0.250000 0
0  -5.313580 -3.318103 11.881807  0.661367 -0.470931 0.583728  0.625000 0.500000 0
0  -4.648842 -3.200892 -15.546656  0.676199 -0.465712 -0.570818  0.375000 0.500000 0
phy
0  -4.648842 -3.200892 -15.546656  0.676199 -0.465712 -0.570818  0.375000 0.500000 0
0  -6.210473 -3.476250 11.881807  -0.476119 -0.668905 0.570818  0.625000 0.750000 0
0  -5.545736 -3.359038 -15.546656  -0.460402 -0.668752 -0.583728  0.375000 0.750000 0
phy
0  -5.545736 -3.359038 -15.546656  -0.460402 -0.668752 -0.583728  0.375000 0.750000 0
0  -7.024883 1.142497 11.881807  -0.676199 0.465712 0.570818  0.625000 1.000000 0
0  -6.360146 1.259708 -15.546656  -0.661367 0.470962 -0.583728  0.375000 1.000000 0
phy
0  -5.463253 1.417855 -15.546656  0.476119 0.668905 -0.570818  0.125000 0.500000 0
0  -5.545736 -3.359038 -15.546656  -0.460402 -0.668752 -0.583728  0.375000 0.750000 0
0  -6.360146 1.259708 -15.546656  -0.661367 0.470962 -0.583728  0.125000 0.750000 0
phy
0  -5.313580 -3.318103 11.881807  0.661367 -0.470931 0.583728  0.625000 0.500000 0
0  -7.024883 1.142497 11.881807  -0.676199 0.465712 0.570818  0.875000 0.750000 0
0  -6.210473 -3.476250 11.881807  -0.476119 -0.668905 0.570818  0.625000 0.750000 0
phy
0  -5.681879 -3.123231 -15.546656  -0.809351 -0.064333 -0.583728  0.375000 0.000000 0
0  -5.530350 -2.942646 11.881807  -0.077151 0.808252 0.583728  0.625000 0.250000 0
0  -5.096474 -2.425572 -15.546656  -0.065218 0.818445 -0.570818  0.375000 0.250000 0
phy
0  -5.096474 -2.425572 -15.546656  -0.065218 0.818445 -0.570818  0.375000 0.250000 0
0  -1.937603 -5.957317 11.881807  0.809351 0.064333 0.583728  0.625000 0.500000 0
0  -1.503726 -5.440244 -15.546656  0.817347 0.077883 -0.570818  0.375000 0.500000 0
phy
0  -1.503726 -5.440244 -15.546656  0.817347 0.077883 -0.570818  0.375000 0.500000 0
0  -2.523008 -6.654977 11.881807  0.065218 -0.818445 0.570818  0.625000 0.750000 0
0  -2.089132 -6.137903 -15.546656  0.077151 -0.808252 -0.583728  0.375000 0.750000 0
phy
0  -2.089132 -6.137903 -15.546656  0.077151 -0.808252 -0.583728  0.375000 0.750000 0
0  -6.115755 -3.640305 11.881807  -0.817347 -0.077883 0.570818  0.625000 1.000000 0
0  -5.681879 -3.123231 -15.546656  -0.809351 -0.064333 -0.583728  0.375000 1.000000 0
phy
0  -5.096474 -2.425572 -15.546656  -0.065218 0.818445 -0.570818  0.125000 0.500000 0
0  -2.089132 -6.137903 -15.546656  0.077151 -0.808252 -0.583728  0.375000 0.750000 0
0  -5.681879 -3.123231 -15.546656  -0.809351 -0.064333 -0.583728  0.125000 0.750000 0
phy
0  -1.937603 -5.957317 11.881807  0.809351 0.064333 0.583728  0.625000 0.500000 0
0  -6.115755 -3.640305 11.881807  -0.817347 -0.077883 0.570818  0.875000 0.750000 0
0  -2.523008 -6.654977 11.881807  0.065218 -0.818445 0.570818  0.625000 0.750000 0
phy
0  0.000000 5.950206 -15.556631  0.000000 0.776360 -0.630238  1.000000 0.500000 0
0  4.207431 4.207431 -12.751126  0.548967 0.548967 0.630238  0.875000 1.000000 0
0  4.207431 4.207431 -15.556631  0.548967 0.548967 -0.630238  0.875000 0.500000 0
phy
0  -2.955237 -1.830840 15.955431  0.704428 -0.190497 0.683676  0.375000 0.166667 0
0  -3.808363 -4.547601 13.816534  -0.464125 -0.707480 0.532914  0.625000 0.250000 0
0  -2.955237 -4.547601 13.816534  0.855403 -0.401196 0.327525  0.375000 0.250000 0
phy
0  4.207431 4.207431 -15.556631  0.548967 0.548967 -0.630238  0.875000 0.500000 0
0  5.950206 -0.000000 -12.751126  0.776360 0.000000 0.630238  0.750000 1.000000 0
0  5.950206 -0.000000 -15.556631  0.776360 0.000000 -0.630238  0.750000 0.500000 0
phy
0  -6.507438 -1.830840 11.865904  -0.848292 -0.255257 -0.463881  0.375000 0.416667 0
0  -2.955237 -5.492520 11.865904  0.713889 -0.541673 -0.443770  0.625000 0.500000 0
0  -3.808363 -5.492520 11.865904  -0.384838 -0.806757 -0.448347  0.375000 0.500000 0
phy
0  5.950206 -0.000000 -15.556631  0.776360 0.000000 -0.630238  0.750000 0.500000 0
0  4.207431 -4.207431 -12.751126  0.548967 -0.548967 0.630238  0.625000 1.000000 0
0  4.207431 -4.207431 -15.556631  0.548967 -0.548967 -0.630238  0.625000 0.500000 0
phy
0  -2.955237 -5.492520 11.865904  0.713889 -0.541673 -0.443770  0.375000 0.500000 0
0  -3.808363 -4.547601 13.816534  -0.464125 -0.707480 0.532914  0.625000 0.750000 0
0  -3.808363 -5.492520 11.865904  -0.384838 -0.806757 -0.448347  0.375000 0.750000 0
phy
0  4.207431 -4.207431 -15.556631  0.548967 -0.548967 -0.630238  0.625000 0.500000 0
0  -0.000000 -5.950206 -12.751126  0.000000 -0.776360 0.630238  0.500000 1.000000 0
0  -0.000000 -5.950206 -15.556631  0.000000 -0.776360 -0.630238  0.500000 0.500000 0
phy
0  -5.761325 -1.830840 11.865904  0.391278 0.103153 -0.914457  0.375000 0.916667 0
0  -2.955237 -4.547601 13.816534  0.855403 -0.401196 0.327525  0.625000 1.000000 0
0  -2.955237 -5.492520 11.865904  0.713889 -0.541673 -0.443770  0.375000 1.000000 0
phy
0  -0.000000 -5.950206 -15.556631  0.000000 -0.776360 -0.630238  0.500000 0.500000 0
0  -4.207431 -4.207430 -12.751126  -0.548967 -0.548967 0.630238  0.375000 1.000000 0
0  -4.207431 -4.207430 -15.556631  -0.548967 -0.548967 -0.630238  0.375000 0.500000 0
phy
0  -3.808363 5.492520 11.865904  -0.361827 0.812128 -0.457686  0.125000 0.500000 0
0  -2.955237 4.547601 13.816534  0.641621 0.566363 0.517197  0.375000 0.750000 0
0  -2.955237 5.492520 11.865904  0.657430 0.582324 -0.478164  0.125000 0.750000 0
phy
0  -4.207431 -4.207430 -15.556631  -0.548967 -0.548967 -0.630238  0.375000 0.500000 0
0  -5.950205 0.000000 -12.751126  -0.776360 0.000000 0.630238  0.250000 1.000000 0
0  -5.950205 0.000000 -15.556631  -0.776360 0.000000 -0.630238  0.250000 0.500000 0
phy
0  5.950206 -0.000000 -12.751126  0.776360 0.000000 0.630238  0.490000 0.250000 0
0  0.000000 5.950206 -12.751126  0.000000 0.776360 0.630238  0.250000 0.490000 0
0  -5.950205 0.000000 -12.751126  -0.776360 0.000000 0.630238  0.010000 0.250000 0
phy
0  -6.507438 1.830840 11.865904  -0.850429 0.237617 -0.469344  0.625000 0.666667 0
0  -3.808363 4.547601 13.816534  -0.369610 0.697104 0.614338  0.875000 0.750000 0
0  -3.808363 5.492520 11.865904  -0.361827 0.812128 -0.457686  0.625000 0.750000 0
phy
0  -5.950205 0.000000 -15.556631  -0.776360 0.000000 -0.630238  0.250000 0.500000 0
0  -4.207431 4.207430 -12.751126  -0.548967 0.548967 0.630238  0.125000 1.000000 0
0  -4.207431 4.207430 -15.556631  -0.548967 0.548967 -0.630238  0.125000 0.500000 0
phy
0  -4.207431 4.207430 -15.556631  -0.548967 0.548967 -0.630238  0.125000 0.500000 0
0  0.000000 5.950206 -12.751126  0.000000 0.776360 0.630238  0.000000 1.000000 0
0  0.000000 5.950206 -15.556631  0.000000 0.776360 -0.630238  0.000000 0.500000 0
phy
0  -4.207431 4.207430 -15.556631  -0.548967 0.548967 -0.630238  0.580294 0.419706 0
0  4.207431 4.207431 -15.556631  0.548967 0.548967 -0.630238  0.919706 0.419706 0
0  4.207431 -4.207431 -15.556631  0.548967 -0.548967 -0.630238  0.919706 0.080294 0
phy
0  -3.808363 -5.492520 11.865904  -0.384838 -0.806757 -0.448347  0.625000 0.500000 0
0  -4.781280 -1.830840 15.214643  -0.651540 -0.271554 0.708304  0.875000 0.583333 0
0  -6.507438 -1.830840 11.865904  -0.848292 -0.255257 -0.463881  0.625000 0.583333 0
phy
0  -6.507438 -1.830840 11.865904  -0.848292 -0.255257 -0.463881  0.625000 0.583333 0
0  -4.781280 1.830840 15.214643  -0.636250 0.276772 0.720115  0.875000 0.666667 0
0  -6.507438 1.830840 11.865904  -0.850429 0.237617 -0.469344  0.625000 0.666667 0
phy
0  -2.955237 5.492520 11.865904  0.657430 0.582324 -0.478164  0.375000 0.750000 0
0  -2.955237 1.830840 15.955431  0.686544 0.187231 0.702536  0.625000 0.833333 0
0  -5.761325 1.830840 11.865904  0.374706 -0.113773 -0.920103  0.375000 0.833333 0
phy
0  -5.761325 1.830840 11.865904  0.374706 -0.113773 -0.920103  0.375000 0.833333 0
0  -2.955237 -1.830840 15.955431  0.704428 -0.190497 0.683676  0.625000 0.916667 0
0  -5.761325 -1.830840 11.865904  0.391278 0.103153 -0.914457  0.375000 0.916667 0
phy
0  -3.808363 5.492520 11.865904  -0.361827 0.812128 -0.457686  0.375000 0.250000 0
0  -5.761325 1.830840 11.865904  0.374706 -0.113773 -0.920103  0.625000 0.333333 0
0  -6.507438 1.830840 11.865904  -0.850429 0.237617 -0.469344  0.375000 0.333333 0
phy
0  -6.507438 1.830840 11.865904  -0.850429 0.237617 -0.469344  0.375000 0.333333 0
0  -5.761325 -1.830840 11.865904  0.391278 0.103153 -0.914457  0.625000 0.416667 0
0  -6.507438 -1.830840 11.865904  -0.848292 -0.255257 -0.463881  0.375000 0.416667 0
phy
0  -2.955237 4.547601 13.816534  0.641621 0.566363 0.517197  0.375000 0.000000 0
0  -4.781280 1.830840 15.214643  -0.636250 0.276772 0.720115  0.625000 0.083333 0
0  -2.955237 1.830840 15.955431  0.686544 0.187231 0.702536  0.375000 0.083333 0
phy
0  -2.955237 1.830840 15.955431  0.686544 0.187231 0.702536  0.375000 0.083333 0
0  -4.781280 -1.830840 15.214643  -0.651540 -0.271554 0.708304  0.625000 0.166667 0
0  -2.955237 -1.830840 15.955431  0.704428 -0.190497 0.683676  0.375000 0.166667 0
phy
0  2.960419 1.830840 15.955431  -0.704428 0.190497 0.683676  0.375000 0.166667 0
0  3.813545 4.547601 13.816534  0.464125 0.707480 0.532914  0.625000 0.250000 0
0  2.960420 4.547601 13.816534  -0.855403 0.401196 0.327525  0.375000 0.250000 0
phy
0  6.512619 1.830840 11.865904  0.848292 0.255257 -0.463881  0.375000 0.416667 0
0  2.960420 5.492520 11.865904  -0.713889 0.541673 -0.443770  0.625000 0.500000 0
0  3.813545 5.492520 11.865904  0.384838 0.806757 -0.448347  0.375000 0.500000 0
phy
0  2.960420 5.492520 11.865904  -0.713889 0.541673 -0.443770  0.375000 0.500000 0
0  3.813545 4.547601 13.816534  0.464125 0.707480 0.532914  0.625000 0.750000 0
0  3.813545 5.492520 11.865904  0.384838 0.806757 -0.448347  0.375000 0.750000 0
phy
0  5.766506 1.830840 11.865904  -0.391278 -0.103153 -0.914457  0.375000 0.916667 0
0  2.960420 4.547601 13.816534  -0.855403 0.401196 0.327525  0.625000 1.000000 0
0  2.960420 5.492520 11.865904  -0.713889 0.541673 -0.443770  0.375000 1.000000 0
phy
0  3.813544 -5.492520 11.865904  0.361827 -0.812128 -0.457686  0.125000 0.500000 0
0  2.960418 -4.547601 13.816534  -0.641621 -0.566363 0.517197  0.375000 0.750000 0
0  2.960418 -5.492520 11.865904  -0.657430 -0.582324 -0.478164  0.125000 0.750000 0
phy
0  6.512619 -1.830841 11.865904  0.850429 -0.237617 -0.469344  0.625000 0.666667 0
0  3.813544 -4.547601 13.816534  0.369610 -0.697104 0.614338  0.875000 0.750000 0
0  3.813544 -5.492520 11.865904  0.361827 -0.812128 -0.457686  0.625000 0.750000 0
phy
0  3.813545 5.492520 11.865904  0.384838 0.806757 -0.448347  0.625000 0.500000 0
0  4.786462 1.830840 15.214643  0.651540 0.271554 0.708304  0.875000 0.583333 0
0  6.512619 1.830840 11.865904  0.848292 0.255257 -0.463881  0.625000 0.583333 0
phy
0  6.512619 1.830840 11.865904  0.848292 0.255257 -0.463881  0.625000 0.583333 0
0  4.786461 -1.830840 15.214643  0.636250 -0.276772 0.720115  0.875000 0.666667 0
0  6.512619 -1.830841 11.865904  0.850429 -0.237617 -0.469344  0.625000 0.666667 0
phy
0  2.960418 -5.492520 11.865904  -0.657430 -0.582324 -0.478164  0.375000 0.750000 0
0  2.960419 -1.830840 15.955431  -0.686544 -0.187231 0.702536  0.625000 0.833333 0
0  5.766506 -1.830840 11.865904  -0.374706 0.113773 -0.920103  0.375000 0.833333 0
phy
0  5.766506 -1.830840 11.865904  -0.374706 0.113773 -0.920103  0.375000 0.833333 0
0  2.960419 1.830840 15.955431  -0.704428 0.190497 0.683676  0.625000 0.916667 0
0  5.766506 1.830840 11.865904  -0.391278 -0.103153 -0.914457  0.375000 0.916667 0
phy
0  3.813544 -5.492520 11.865904  0.361827 -0.812128 -0.457686  0.375000 0.250000 0
0  5.766506 -1.830840 11.865904  -0.374706 0.113773 -0.920103  0.625000 0.333333 0
0  6.512619 -1.830841 11.865904  0.850429 -0.237617 -0.469344  0.375000 0.333333 0
phy
0  6.512619 -1.830841 11.865904  0.850429 -0.237617 -0.469344  0.375000 0.333333 0
0  5.766506 1.830840 11.865904  -0.391278 -0.103153 -0.914457  0.625000 0.416667 0
0  6.512619 1.830840 11.865904  0.848292 0.255257 -0.463881  0.375000 0.416667 0
phy
0  2.960418 -4.547601 13.816534  -0.641621 -0.566363 0.517197  0.375000 0.000000 0
0  4.786461 -1.830840 15.214643  0.636250 -0.276772 0.720115  0.625000 0.083333 0
0  2.960419 -1.830840 15.955431  -0.686544 -0.187231 0.702536  0.375000 0.083333 0
phy
0  2.960419 -1.830840 15.955431  -0.686544 -0.187231 0.702536  0.375000 0.083333 0
0  4.786462 1.830840 15.214643  0.651540 0.271554 0.708304  0.625000 0.166667 0
0  2.960419 1.830840 15.955431  -0.704428 0.190497 0.683676  0.375000 0.166667 0
phy
0  -2.344998 -6.044774 -15.546656  -0.578631 -0.569536 -0.583728  0.375000 0.000000 0
0  -2.344998 -6.719766 11.881807  -0.576067 -0.585040 0.570818  0.625000 0.000000 0
0  -2.344998 -5.809036 11.881807  -0.578631 0.569536 0.583728  0.625000 0.250000 0
phy
0  -2.344998 -5.134045 -15.546656  -0.576067 0.585040 -0.570818  0.375000 0.250000 0
0  -2.344998 -5.809036 11.881807  -0.578631 0.569536 0.583728  0.625000 0.250000 0
0  2.344999 -5.809036 11.881807  0.578631 0.569536 0.583728  0.625000 0.500000 0
phy
0  2.344999 -5.134045 -15.546656  0.576067 0.585040 -0.570818  0.375000 0.500000 0
0  2.344999 -5.809036 11.881807  0.578631 0.569536 0.583728  0.625000 0.500000 0
0  2.344999 -6.719766 11.881807  0.576067 -0.585040 0.570818  0.625000 0.750000 0
phy
0  2.344999 -6.044774 -15.546656  0.578631 -0.569536 -0.583728  0.375000 0.750000 0
0  2.344999 -6.719766 11.881807  0.576067 -0.585040 0.570818  0.625000 0.750000 0
0  -2.344998 -6.719766 11.881807  -0.576067 -0.585040 0.570818  0.625000 1.000000 0
phy
0  -2.344998 -5.134045 -15.546656  -0.576067 0.585040 -0.570818  0.125000 0.500000 0
0  2.344999 -5.134045 -15.546656  0.576067 0.585040 -0.570818  0.375000 0.500000 0
0  2.344999 -6.044774 -15.546656  0.578631 -0.569536 -0.583728  0.375000 0.750000 0
phy
0  2.344999 -5.809036 11.881807  0.578631 0.569536 0.583728  0.625000 0.500000 0
0  -2.344998 -5.809036 11.881807  -0.578631 0.569536 0.583728  0.875000 0.500000 0
0  -2.344998 -6.719766 11.881807  -0.576067 -0.585040 0.570818  0.875000 0.750000 0
phy
0  2.089133 -6.137901 -15.546656  -0.077151 -0.808252 -0.583728  0.375000 0.000000 0
0  2.523009 -6.654975 11.881807  -0.065218 -0.818445 0.570818  0.625000 0.000000 0
0  1.937604 -5.957315 11.881807  -0.809351 0.064333 0.583728  0.625000 0.250000 0
phy
0  1.503727 -5.440242 -15.546656  -0.817347 0.077883 -0.570818  0.375000 0.250000 0
0  1.937604 -5.957315 11.881807  -0.809351 0.064333 0.583728  0.625000 0.250000 0
0  5.530350 -2.942644 11.881807  0.077151 0.808252 0.583728  0.625000 0.500000 0
phy
0  5.096474 -2.425570 -15.546656  0.065218 0.818445 -0.570818  0.375000 0.500000 0
0  5.530350 -2.942644 11.881807  0.077151 0.808252 0.583728  0.625000 0.500000 0
0  6.115756 -3.640303 11.881807  0.817347 -0.077883 0.570818  0.625000 0.750000 0
phy
0  5.681879 -3.123230 -15.546656  0.809351 -0.064333 -0.583728  0.375000 0.750000 0
0  6.115756 -3.640303 11.881807  0.817347 -0.077883 0.570818  0.625000 0.750000 0
0  2.523009 -6.654975 11.881807  -0.065218 -0.818445 0.570818  0.625000 1.000000 0
phy
0  1.503727 -5.440242 -15.546656  -0.817347 0.077883 -0.570818  0.125000 0.500000 0
0  5.096474 -2.425570 -15.546656  0.065218 0.818445 -0.570818  0.375000 0.500000 0
0  5.681879 -3.123230 -15.546656  0.809351 -0.064333 -0.583728  0.375000 0.750000 0
phy
0  5.530350 -2.942644 11.881807  0.077151 0.808252 0.583728  0.625000 0.500000 0
0  1.937604 -5.957315 11.881807  -0.809351 0.064333 0.583728  0.875000 0.500000 0
0  2.523009 -6.654975 11.881807  -0.065218 -0.818445 0.570818  0.875000 0.750000 0
phy
0  5.545736 -3.359036 -15.546656  0.460402 -0.668752 -0.583728  0.375000 0.000000 0
0  6.210473 -3.476247 11.881807  0.476119 -0.668905 0.570818  0.625000 0.000000 0
0  5.313580 -3.318101 11.881807  -0.661367 -0.470931 0.583728  0.625000 0.250000 0
phy
0  4.648842 -3.200890 -15.546656  -0.676199 -0.465712 -0.570818  0.375000 0.250000 0
0  5.313580 -3.318101 11.881807  -0.661367 -0.470931 0.583728  0.625000 0.250000 0
0  6.127989 1.300645 11.881807  -0.460402 0.668752 0.583728  0.625000 0.500000 0
phy
0  5.463252 1.417856 -15.546656  -0.476119 0.668905 -0.570818  0.375000 0.500000 0
0  6.127989 1.300645 11.881807  -0.460402 0.668752 0.583728  0.625000 0.500000 0
0  7.024882 1.142498 11.881807  0.676199 0.465712 0.570818  0.625000 0.750000 0
phy
0  6.360145 1.259709 -15.546656  0.661367 0.470931 -0.583728  0.375000 0.750000 0
0  7.024882 1.142498 11.881807  0.676199 0.465712 0.570818  0.625000 0.750000 0
0  6.210473 -3.476247 11.881807  0.476119 -0.668905 0.570818  0.625000 1.000000 0
phy
0  4.648842 -3.200890 -15.546656  -0.676199 -0.465712 -0.570818  0.125000 0.500000 0
0  5.463252 1.417856 -15.546656  -0.476119 0.668905 -0.570818  0.375000 0.500000 0
0  6.360145 1.259709 -15.546656  0.661367 0.470931 -0.583728  0.375000 0.750000 0
phy
0  6.127989 1.300645 11.881807  -0.460402 0.668752 0.583728  0.625000 0.500000 0
0  5.313580 -3.318101 11.881807  -0.661367 -0.470931 0.583728  0.875000 0.500000 0
0  6.210473 -3.476247 11.881807  0.476119 -0.668905 0.570818  0.875000 0.750000 0
phy
0  6.407427 0.991560 -15.546656  0.782556 -0.216346 -0.583728  0.375000 0.000000 0
0  6.991987 1.329055 11.881807  0.794702 -0.206336 0.570818  0.625000 0.000000 0
0  6.203272 0.873690 11.881807  -0.203925 -0.785882 0.583728  0.625000 0.250000 0
phy
0  5.618712 0.536195 -15.546656  -0.218635 -0.791406 -0.570818  0.375000 0.250000 0
0  6.203272 0.873690 11.881807  -0.203925 -0.785882 0.583728  0.625000 0.250000 0
0  3.858273 4.935347 11.881807  -0.782556 0.216346 0.583728  0.625000 0.500000 0
phy
0  3.273714 4.597851 -15.546656  -0.794702 0.206336 -0.570818  0.375000 0.500000 0
0  3.858273 4.935347 11.881807  -0.782556 0.216346 0.583728  0.625000 0.500000 0
0  4.646988 5.390712 11.881807  0.218635 0.791406 0.570818  0.625000 0.750000 0
phy
0  4.062428 5.053216 -15.546656  0.203894 0.785882 -0.583728  0.375000 0.750000 0
0  4.646988 5.390712 11.881807  0.218635 0.791406 0.570818  0.625000 0.750000 0
0  6.991987 1.329055 11.881807  0.794702 -0.206336 0.570818  0.625000 1.000000 0
phy
0  5.618712 0.536195 -15.546656  -0.218635 -0.791406 -0.570818  0.125000 0.500000 0
0  3.273714 4.597851 -15.546656  -0.794702 0.206336 -0.570818  0.375000 0.500000 0
0  4.062428 5.053216 -15.546656  0.203894 0.785882 -0.583728  0.375000 0.750000 0
phy
0  3.858273 4.935347 11.881807  -0.782556 0.216346 0.583728  0.625000 0.500000 0
0  6.203272 0.873690 11.881807  -0.203925 -0.785882 0.583728  0.875000 0.500000 0
0  6.991987 1.329055 11.881807  0.794702 -0.206336 0.570818  0.875000 0.750000 0
phy
0  4.271012 4.878193 -15.546656  0.738548 0.337291 -0.583728  0.375000 0.000000 0
0  4.501873 5.512478 11.881807  0.741417 0.352733 0.570818  0.625000 0.000000 0
0  4.190385 4.656672 11.881807  0.348949 -0.733116 0.583728  0.625000 0.250000 0
phy
0  3.959524 4.022388 -15.546656  0.341197 -0.746788 -0.570818  0.375000 0.250000 0
0  4.190385 4.656672 11.881807  0.348949 -0.733116 0.583728  0.625000 0.250000 0
0  -0.216771 6.260746 11.881807  -0.738548 -0.337291 0.583728  0.625000 0.500000 0
phy
0  -0.447632 5.626461 -15.546656  -0.741417 -0.352733 -0.570818  0.375000 0.500000 0
0  -0.216771 6.260746 11.881807  -0.738548 -0.337291 0.583728  0.625000 0.500000 0
0  0.094716 7.116552 11.881807  -0.341197 0.746788 0.570818  0.625000 0.750000 0
phy
0  -0.136144 6.482267 -15.546656  -0.348949 0.733116 -0.583728  0.375000 0.750000 0
0  0.094716 7.116552 11.881807  -0.341197 0.746788 0.570818  0.625000 0.750000 0
0  4.501873 5.512478 11.881807  0.741417 0.352733 0.570818  0.625000 1.000000 0
phy
0  3.959524 4.022388 -15.546656  0.341197 -0.746788 -0.570818  0.125000 0.500000 0
0  -0.447632 5.626461 -15.546656  -0.741417 -0.352733 -0.570818  0.375000 0.500000 0
0  -0.136144 6.482267 -15.546656  -0.348949 0.733116 -0.583728  0.375000 0.750000 0
phy
0  -0.216771 6.260746 11.881807  -0.738548 -0.337291 0.583728  0.625000 0.500000 0
0  4.190385 4.656672 11.881807  0.348949 -0.733116 0.583728  0.875000 0.500000 0
0  4.501873 5.512478 11.881807  0.741417 0.352733 0.570818  0.875000 0.750000 0
phy
0  0.136142 6.482267 -15.546656  0.348949 0.733116 -0.583728  0.375000 0.000000 0
0  -0.094718 7.116551 11.881807  0.341197 0.746788 0.570818  0.625000 0.000000 0
0  0.216770 6.260746 11.881807  0.738548 -0.337291 0.583728  0.625000 0.250000 0
phy
0  0.447630 5.626461 -15.546656  0.741417 -0.352733 -0.570818  0.375000 0.250000 0
0  0.216770 6.260746 11.881807  0.738548 -0.337291 0.583728  0.625000 0.250000 0
0  -4.190386 4.656672 11.881807  -0.348949 -0.733116 0.583728  0.625000 0.500000 0
phy
0  -3.959526 4.022387 -15.546656  -0.341197 -0.746788 -0.570818  0.375000 0.500000 0
0  -4.190386 4.656672 11.881807  -0.348949 -0.733116 0.583728  0.625000 0.500000 0
0  -4.501874 5.512477 11.881807  -0.741417 0.352733 0.570818  0.625000 0.750000 0
phy
0  -4.271013 4.878193 -15.546656  -0.738548 0.337291 -0.583728  0.375000 0.750000 0
0  -4.501874 5.512477 11.881807  -0.741417 0.352733 0.570818  0.625000 0.750000 0
0  -0.094718 7.116551 11.881807  0.341197 0.746788 0.570818  0.625000 1.000000 0
phy
0  0.447630 5.626461 -15.546656  0.741417 -0.352733 -0.570818  0.125000 0.500000 0
0  -3.959526 4.022387 -15.546656  -0.341197 -0.746788 -0.570818  0.375000 0.500000 0
0  -4.271013 4.878193 -15.546656  -0.738548 0.337291 -0.583728  0.375000 0.750000 0
phy
0  -4.190386 4.656672 11.881807  -0.348949 -0.733116 0.583728  0.625000 0.500000 0
0  0.216770 6.260746 11.881807  0.738548 -0.337291 0.583728  0.875000 0.500000 0
0  -0.094718 7.116551 11.881807  0.341197 0.746788 0.570818  0.875000 0.750000 0
phy
0  -4.062430 5.053215 -15.546656  -0.203925 0.785882 -0.583728  0.375000 0.000000 0
0  -4.646990 5.390711 11.881807  -0.218635 0.791406 0.570818  0.625000 0.000000 0
0  -3.858275 4.935347 11.881807  0.782556 0.216346 0.583728  0.625000 0.250000 0
phy
0  -3.273715 4.597851 -15.546656  0.794702 0.206336 -0.570818  0.375000 0.250000 0
0  -3.858275 4.935347 11.881807  0.782556 0.216346 0.583728  0.625000 0.250000 0
0  -6.203273 0.873689 11.881807  0.203894 -0.785882 0.583728  0.625000 0.500000 0
phy
0  -5.618713 0.536193 -15.546656  0.218635 -0.791406 -0.570818  0.375000 0.500000 0
0  -6.203273 0.873689 11.881807  0.203894 -0.785882 0.583728  0.625000 0.500000 0
0  -6.991988 1.329054 11.881807  -0.794702 -0.206336 0.570818  0.625000 0.750000 0
phy
0  -6.407428 0.991558 -15.546656  -0.782556 -0.216346 -0.583728  0.375000 0.750000 0
0  -6.991988 1.329054 11.881807  -0.794702 -0.206336 0.570818  0.625000 0.750000 0
0  -4.646990 5.390711 11.881807  -0.218635 0.791406 0.570818  0.625000 1.000000 0
phy
0  -3.273715 4.597851 -15.546656  0.794702 0.206336 -0.570818  0.125000 0.500000 0
0  -5.618713 0.536193 -15.546656  0.218635 -0.791406 -0.570818  0.375000 0.500000 0
0  -6.407428 0.991558 -15.546656  -0.782556 -0.216346 -0.583728  0.375000 0.750000 0
phy
0  -6.203273 0.873689 11.881807  0.203894 -0.785882 0.583728  0.625000 0.500000 0
0  -3.858275 4.935347 11.881807  0.782556 0.216346 0.583728  0.875000 0.500000 0
0  -4.646990 5.390711 11.881807  -0.218635 0.791406 0.570818  0.875000 0.750000 0
phy
0  -6.360146 1.259708 -15.546656  -0.661367 0.470962 -0.583728  0.375000 0.000000 0
0  -7.024883 1.142497 11.881807  -0.676199 0.465712 0.570818  0.625000 0.000000 0
0  -6.127990 1.300643 11.881807  0.460402 0.668752 0.583728  0.625000 0.250000 0
phy
0  -5.463253 1.417855 -15.546656  0.476119 0.668905 -0.570818  0.375000 0.250000 0
0  -6.127990 1.300643 11.881807  0.460402 0.668752 0.583728  0.625000 0.250000 0
0  -5.313580 -3.318103 11.881807  0.661367 -0.470931 0.583728  0.625000 0.500000 0
phy
0  -4.648842 -3.200892 -15.546656  0.676199 -0.465712 -0.570818  0.375000 0.500000 0
0  -5.313580 -3.318103 11.881807  0.661367 -0.470931 0.583728  0.625000 0.500000 0
0  -6.210473 -3.476250 11.881807  -0.476119 -0.668905 0.570818  0.625000 0.750000 0
phy
0  -5.545736 -3.359038 -15.546656  -0.460402 -0.668752 -0.583728  0.375000 0.750000 0
0  -6.210473 -3.476250 11.881807  -0.476119 -0.668905 0.570818  0.625000 0.750000 0
0  -7.024883 1.142497 11.881807  -0.676199 0.465712 0.570818  0.625000 1.000000 0
phy
0  -5.463253 1.417855 -15.546656  0.476119 0.668905 -0.570818  0.125000 0.500000 0
0  -4.648842 -3.200892 -15.546656  0.676199 -0.465712 -0.570818  0.375000 0.500000 0
0  -5.545736 -3.359038 -15.546656  -0.460402 -0.668752 -0.583728  0.375000 0.750000 0
phy
0  -5.313580 -3.318103 11.881807  0.661367 -0.470931 0.583728  0.625000 0.500000 0
0  -6.127990 1.300643 11.881807  0.460402 0.668752 0.583728  0.875000 0.500000 0
0  -7.024883 1.142497 11.881807  -0.676199 0.465712 0.570818  0.875000 0.750000 0
phy
0  -5.681879 -3.123231 -15.546656  -0.809351 -0.064333 -0.583728  0.375000 0.000000 0
0  -6.115755 -3.640305 11.881807  -0.817347 -0.077883 0.570818  0.625000 0.000000 0
0  -5.530350 -2.942646 11.881807  -0.077151 0.808252 0.583728  0.625000 0.250000 0
phy
0  -5.096474 -2.425572 -15.546656  -0.065218 0.818445 -0.570818  0.375000 0.250000 0
0  -5.530350 -2.942646 11.881807  -0.077151 0.808252 0.583728  0.625000 0.250000 0
0  -1.937603 -5.957317 11.881807  0.809351 0.064333 0.583728  0.625000 0.500000 0
phy
0  -1.503726 -5.440244 -15.546656  0.817347 0.077883 -0.570818  0.375000 0.500000 0
0  -1.937603 -5.957317 11.881807  0.809351 0.064333 0.583728  0.625000 0.500000 0
0  -2.523008 -6.654977 11.881807  0.065218 -0.818445 0.570818  0.625000 0.750000 0
phy
0  -2.089132 -6.137903 -15.546656  0.077151 -0.808252 -0.583728  0.375000 0.750000 0
0  -2.523008 -6.654977 11.881807  0.065218 -0.818445 0.570818  0.625000 0.750000 0
0  -6.115755 -3.640305 11.881807  -0.817347 -0.077883 0.570818  0.625000 1.000000 0
phy
0  -5.096474 -2.425572 -15.546656  -0.065218 0.818445 -0.570818  0.125000 0.500000 0
0  -1.503726 -5.440244 -15.546656  0.817347 0.077883 -0.570818  0.375000 0.500000 0
0  -2.089132 -6.137903 -15.546656  0.077151 -0.808252 -0.583728  0.375000 0.750000 0
phy
0  -1.937603 -5.957317 11.881807  0.809351 0.064333 0.583728  0.625000 0.500000 0
0  -5.530350 -2.942646 11.881807  -0.077151 0.808252 0.583728  0.875000 0.500000 0
0  -6.115755 -3.640305 11.881807  -0.817347 -0.077883 0.570818  0.875000 0.750000 0
phy
0  0.000000 5.950206 -15.556631  0.000000 0.776360 -0.630238  1.000000 0.500000 0
0  0.000000 5.950206 -12.751126  0.000000 0.776360 0.630238  1.000000 1.000000 0
0  4.207431 4.207431 -12.751126  0.548967 0.548967 0.630238  0.875000 1.000000 0
phy
0  -2.955237 -1.830840 15.955431  0.704428 -0.190497 0.683676  0.375000 0.166667 0
0  -4.781280 -1.830840 15.214643  -0.651540 -0.271554 0.708304  0.625000 0.166667 0
0  -3.808363 -4.547601 13.816534  -0.464125 -0.707480 0.532914  0.625000 0.250000 0
phy
0  4.207431 4.207431 -15.556631  0.548967 0.548967 -0.630238  0.875000 0.500000 0
0  4.207431 4.207431 -12.751126  0.548967 0.548967 0.630238  0.875000 1.000000 0
0  5.950206 -0.000000 -12.751126  0.776360 0.000000 0.630238  0.750000 1.000000 0
phy
0  -6.507438 -1.830840 11.865904  -0.848292 -0.255257 -0.463881  0.375000 0.416667 0
0  -5.761325 -1.830840 11.865904  0.391278 0.103153 -0.914457  0.625000 0.416667 0
0  -2.955237 -5.492520 11.865904  0.713889 -0.541673 -0.443770  0.625000 0.500000 0
phy
0  5.950206 -0.000000 -15.556631  0.776360 0.000000 -0.630238  0.750000 0.500000 0
0  5.950206 -0.000000 -12.751126  0.776360 0.000000 0.630238  0.750000 1.000000 0
0  4.207431 -4.207431 -12.751126  0.548967 -0.548967 0.630238  0.625000 1.000000 0
phy
0  -2.955237 -5.492520 11.865904  0.713889 -0.541673 -0.443770  0.375000 0.500000 0
0  -2.955237 -4.547601 13.816534  0.855403 -0.401196 0.327525  0.625000 0.500000 0
0  -3.808363 -4.547601 13.816534  -0.464125 -0.707480 0.532914  0.625000 0.750000 0
phy
0  4.207431 -4.207431 -15.556631  0.548967 -0.548967 -0.630238  0.625000 0.500000 0
0  4.207431 -4.207431 -12.751126  0.548967 -0.548967 0.630238  0.625000 1.000000 0
0  -0.000000 -5.950206 -12.751126  0.000000 -0.776360 0.630238  0.500000 1.000000 0
phy
0  -5.761325 -1.830840 11.865904  0.391278 0.103153 -0.914457  0.375000 0.916667 0
0  -2.955237 -1.830840 15.955431  0.704428 -0.190497 0.683676  0.625000 0.916667 0
0  -2.955237 -4.547601 13.816534  0.855403 -0.401196 0.327525  0.625000 1.000000 0
phy
0  -0.000000 -5.950206 -15.556631  0.000000 -0.776360 -0.630238  0.500000 0.500000 0
0  -0.000000 -5.950206 -12.751126  0.000000 -0.776360 0.630238  0.500000 1.000000 0
0  -4.207431 -4.207430 -12.751126  -0.548967 -0.548967 0.630238  0.375000 1.000000 0
phy
0  -3.808363 5.492520 11.865904  -0.361827 0.812128 -0.457686  0.125000 0.500000 0
0  -3.808363 4.547601 13.816534  -0.369610 0.697104 0.614338  0.375000 0.500000 0
0  -2.955237 4.547601 13.816534  0.641621 0.566363 0.517197  0.375000 0.750000 0
phy
0  -4.207431 -4.207430 -15.556631  -0.548967 -0.548967 -0.630238  0.375000 0.500000 0
0  -4.207431 -4.207430 -12.751126  -0.548967 -0.548967 0.630238  0.375000 1.000000 0
0  -5.950205 0.000000 -12.751126  -0.776360 0.000000 0.630238  0.250000 1.000000 0
phy
0  5.950206 -0.000000 -12.751126  0.776360 0.000000 0.630238  0.490000 0.250000 0
0  4.207431 4.207431 -12.751126  0.548967 0.548967 0.630238  0.419706 0.419706 0
0  0.000000 5.950206 -12.751126  0.000000 0.776360 0.630238  0.250000 0.490000 0
phy
0  0.000000 5.950206 -12.751126  0.000000 0.776360 0.630238  0.250000 0.490000 0
0  -4.207431 4.207430 -12.751126  -0.548967 0.548967 0.630238  0.080294 0.419706 0
0  -5.950205 0.000000 -12.751126  -0.776360 0.000000 0.630238  0.010000 0.250000 0
phy
0  -5.950205 0.000000 -12.751126  -0.776360 0.000000 0.630238  0.010000 0.250000 0
0  -4.207431 -4.207430 -12.751126  -0.548967 -0.548967 0.630238  0.080294 0.080294 0
0  5.950206 -0.000000 -12.751126  0.776360 0.000000 0.630238  0.490000 0.250000 0
phy
0  -4.207431 -4.207430 -12.751126  -0.548967 -0.548967 0.630238  0.080294 0.080294 0
0  -0.000000 -5.950206 -12.751126  0.000000 -0.776360 0.630238  0.250000 0.010000 0
0  5.950206 -0.000000 -12.751126  0.776360 0.000000 0.630238  0.490000 0.250000 0
phy
0  -0.000000 -5.950206 -12.751126  0.000000 -0.776360 0.630238  0.250000 0.010000 0
0  4.207431 -4.207431 -12.751126  0.548967 -0.548967 0.630238  0.419706 0.080294 0
0  5.950206 -0.000000 -12.751126  0.776360 0.000000 0.630238  0.490000 0.250000 0
phy
0  -6.507438 1.830840 11.865904  -0.850429 0.237617 -0.469344  0.625000 0.666667 0
0  -4.781280 1.830840 15.214643  -0.636250 0.276772 0.720115  0.875000 0.666667 0
0  -3.808363 4.547601 13.816534  -0.369610 0.697104 0.614338  0.875000 0.750000 0
phy
0  -5.950205 0.000000 -15.556631  -0.776360 0.000000 -0.630238  0.250000 0.500000 0
0  -5.950205 0.000000 -12.751126  -0.776360 0.000000 0.630238  0.250000 1.000000 0
0  -4.207431 4.207430 -12.751126  -0.548967 0.548967 0.630238  0.125000 1.000000 0
phy
0  -4.207431 4.207430 -15.556631  -0.548967 0.548967 -0.630238  0.125000 0.500000 0
0  -4.207431 4.207430 -12.751126  -0.548967 0.548967 0.630238  0.125000 1.000000 0
0  0.000000 5.950206 -12.751126  0.000000 0.776360 0.630238  0.000000 1.000000 0
phy
0  -4.207431 4.207430 -15.556631  -0.548967 0.548967 -0.630238  0.580294 0.419706 0
0  0.000000 5.950206 -15.556631  0.000000 0.776360 -0.630238  0.750000 0.490000 0
0  4.207431 4.207431 -15.556631  0.548967 0.548967 -0.630238  0.919706 0.419706 0
phy
0  4.207431 4.207431 -15.556631  0.548967 0.548967 -0.630238  0.919706 0.419706 0
0  5.950206 -0.000000 -15.556631  0.776360 0.000000 -0.630238  0.990000 0.250000 0
0  4.207431 -4.207431 -15.556631  0.548967 -0.548967 -0.630238  0.919706 0.080294 0
phy
0  4.207431 -4.207431 -15.556631  0.548967 -0.548967 -0.630238  0.919706 0.080294 0
0  -0.000000 -5.950206 -15.556631  0.000000 -0.776360 -0.630238  0.750000 0.010000 0
0  -4.207431 -4.207430 -15.556631  -0.548967 -0.548967 -0.630238  0.580294 0.080294 0
phy
0  -4.207431 -4.207430 -15.556631  -0.548967 -0.548967 -0.630238  0.580294 0.080294 0
0  -5.950205 0.000000 -15.556631  -0.776360 0.000000 -0.630238  0.510000 0.250000 0
0  4.207431 -4.207431 -15.556631  0.548967 -0.548967 -0.630238  0.919706 0.080294 0
phy
0  -5.950205 0.000000 -15.556631  -0.776360 0.000000 -0.630238  0.510000 0.250000 0
0  -4.207431 4.207430 -15.556631  -0.548967 0.548967 -0.630238  0.580294 0.419706 0
0  4.207431 -4.207431 -15.556631  0.548967 -0.548967 -0.630238  0.919706 0.080294 0
phy
0  -3.808363 -5.492520 11.865904  -0.384838 -0.806757 -0.448347  0.625000 0.500000 0
0  -3.808363 -4.547601 13.816534  -0.464125 -0.707480 0.532914  0.875000 0.500000 0
0  -4.781280 -1.830840 15.214643  -0.651540 -0.271554 0.708304  0.875000 0.583333 0
phy
0  -6.507438 -1.830840 11.865904  -0.848292 -0.255257 -0.463881  0.625000 0.583333 0
0  -4.781280 -1.830840 15.214643  -0.651540 -0.271554 0.708304  0.875000 0.583333 0
0  -4.781280 1.830840 15.214643  -0.636250 0.276772 0.720115  0.875000 0.666667 0
phy
0  -2.955237 5.492520 11.865904  0.657430 0.582324 -0.478164  0.375000 0.750000 0
0  -2.955237 4.547601 13.816534  0.641621 0.566363 0.517197  0.625000 0.750000 0
0  -2.955237 1.830840 15.955431  0.686544 0.187231 0.702536  0.625000 0.833333 0
phy
0  -5.761325 1.830840 11.865904  0.374706 -0.113773 -0.920103  0.375000 0.833333 0
0  -2.955237 1.830840 15.955431  0.686544 0.187231 0.702536  0.625000 0.833333 0
0  -2.955237 -1.830840 15.955431  0.704428 -0.190497 0.683676  0.625000 0.916667 0
phy
0  -3.808363 5.492520 11.865904  -0.361827 0.812128 -0.457686  0.375000 0.250000 0
0  -2.955237 5.492520 11.865904  0.657430 0.582324 -0.478164  0.625000 0.250000 0
0  -5.761325 1.830840 11.865904  0.374706 -0.113773 -0.920103  0.625000 0.333333 0
phy
0  -6.507438 1.830840 11.865904  -0.850429 0.237617 -0.469344  0.375000 0.333333 0
0  -5.761325 1.830840 11.865904  0.374706 -0.113773 -0.920103  0.625000 0.333333 0
0  -5.761325 -1.830840 11.865904  0.391278 0.103153 -0.914457  0.625000 0.416667 0
phy
0  -2.955237 4.547601 13.816534  0.641621 0.566363 0.517197  0.375000 0.000000 0
0  -3.808363 4.547601 13.816534  -0.369610 0.697104 0.614338  0.625000 0.000000 0
0  -4.781280 1.830840 15.214643  -0.636250 0.276772 0.720115  0.625000 0.083333 0
phy
0  -2.955237 1.830840 15.955431  0.686544 0.187231 0.702536  0.375000 0.083333 0
0  -4.781280 1.830840 15.214643  -0.636250 0.276772 0.720115  0.625000 0.083333 0
0  -4.781280 -1.830840 15.214643  -0.651540 -0.271554 0.708304  0.625000 0.166667 0
phy
0  2.960419 1.830840 15.955431  -0.704428 0.190497 0.683676  0.375000 0.166667 0
0  4.786462 1.830840 15.214643  0.651540 0.271554 0.708304  0.625000 0.166667 0
0  3.813545 4.547601 13.816534  0.464125 0.707480 0.532914  0.625000 0.250000 0
phy
0  6.512619 1.830840 11.865904  0.848292 0.255257 -0.463881  0.375000 0.416667 0
0  5.766506 1.830840 11.865904  -0.391278 -0.103153 -0.914457  0.625000 0.416667 0
0  2.960420 5.492520 11.865904  -0.713889 0.541673 -0.443770  0.625000 0.500000 0
phy
0  2.960420 5.492520 11.865904  -0.713889 0.541673 -0.443770  0.375000 0.500000 0
0  2.960420 4.547601 13.816534  -0.855403 0.401196 0.327525  0.625000 0.500000 0
0  3.813545 4.547601 13.816534  0.464125 0.707480 0.532914  0.625000 0.750000 0
phy
0  5.766506 1.830840 11.865904  -0.391278 -0.103153 -0.914457  0.375000 0.916667 0
0  2.960419 1.830840 15.955431  -0.704428 0.190497 0.683676  0.625000 0.916667 0
0  2.960420 4.547601 13.816534  -0.855403 0.401196 0.327525  0.625000 1.000000 0
phy
0  3.813544 -5.492520 11.865904  0.361827 -0.812128 -0.457686  0.125000 0.500000 0
0  3.813544 -4.547601 13.816534  0.369610 -0.697104 0.614338  0.375000 0.500000 0
0  2.960418 -4.547601 13.816534  -0.641621 -0.566363 0.517197  0.375000 0.750000 0
phy
0  6.512619 -1.830841 11.865904  0.850429 -0.237617 -0.469344  0.625000 0.666667 0
0  4.786461 -1.830840 15.214643  0.636250 -0.276772 0.720115  0.875000 0.666667 0
0  3.813544 -4.547601 13.816534  0.369610 -0.697104 0.614338  0.875000 0.750000 0
phy
0  3.813545 5.492520 11.865904  0.384838 0.806757 -0.448347  0.625000 0.500000 0
0  3.813545 4.547601 13.816534  0.464125 0.707480 0.532914  0.875000 0.500000 0
0  4.786462 1.830840 15.214643  0.651540 0.271554 0.708304  0.875000 0.583333 0
phy
0  6.512619 1.830840 11.865904  0.848292 0.255257 -0.463881  0.625000 0.583333 0
0  4.786462 1.830840 15.214643  0.651540 0.271554 0.708304  0.875000 0.583333 0
0  4.786461 -1.830840 15.214643  0.636250 -0.276772 0.720115  0.875000 0.666667 0
phy
0  2.960418 -5.492520 11.865904  -0.657430 -0.582324 -0.478164  0.375000 0.750000 0
0  2.960418 -4.547601 13.816534  -0.641621 -0.566363 0.517197  0.625000 0.750000 0
0  2.960419 -1.830840 15.955431  -0.686544 -0.187231 0.702536  0.625000 0.833333 0
phy
0  5.766506 -1.830840 11.865904  -0.374706 0.113773 -0.920103  0.375000 0.833333 0
0  2.960419 -1.830840 15.955431  -0.686544 -0.187231 0.702536  0.625000 0.833333 0
0  2.960419 1.830840 15.955431  -0.704428 0.190497 0.683676  0.625000 0.916667 0
phy
0  3.813544 -5.492520 11.865904  0.361827 -0.812128 -0.457686  0.375000 0.250000 0
0  2.960418 -5.492520 11.865904  -0.657430 -0.582324 -0.478164  0.625000 0.250000 0
0  5.766506 -1.830840 11.865904  -0.374706 0.113773 -0.920103  0.625000 0.333333 0
phy
0  6.512619 -1.830841 11.865904  0.850429 -0.237617 -0.469344  0.375000 0.333333 0
0  5.766506 -1.830840 11.865904  -0.374706 0.113773 -0.920103  0.625000 0.333333 0
0  5.766506 1.830840 11.865904  -0.391278 -0.103153 -0.914457  0.625000 0.416667 0
phy
0  2.960418 -4.547601 13.816534  -0.641621 -0.566363 0.517197  0.375000 0.000000 0
0  3.813544 -4.547601 13.816534  0.369610 -0.697104 0.614338  0.625000 0.000000 0
0  4.786461 -1.830840 15.214643  0.636250 -0.276772 0.720115  0.625000 0.083333 0
phy
0  2.960419 -1.830840 15.955431  -0.686544 -0.187231 0.702536  0.375000 0.083333 0
0  4.786461 -1.830840 15.214643  0.636250 -0.276772 0.720115  0.625000 0.083333 0
0  4.786462 1.830840 15.214643  0.651540 0.271554 0.708304  0.625000 0.166667 0
end
