// Created by Crowbar 0.19.0.0

$modelname "props_expanded\junk\cup001a.mdl"

$staticprop

$bodygroup "Body"
{
	studio "reference.smd"
}

$noforcedfade

$cdmaterials "models\props_expanded\junk\"

$surfaceprop "pottery"

$contents "solid"

$definebone "static_prop" "" 0 0 0 0 0 0 0 0 0 0 0 0

$sequence "idle" "anims\idle.smd" {
	fps 30
}

$collisionmodel "physics.smd"
{
	$mass 2
	$inertia 1
	$damping 0
	$rotdamping 0
	$concave

}

$collisiontext
{
	break 
	{
		"model"		"props_expanded\junk\cup001a_chunk01"
		"fadetime"		"10"
	}
	break 
	{
		"model"		"props_expanded\junk\cup001a_chunk02"
		"fadetime"		"10"
	}
	break 
	{
		"model"		"props_expanded\junk\cup001a_chunk03"
		"fadetime"		"10"
	}
}

$keyvalues
{
	prop_data 
	{
		"base" "Pottery.Small"
		"health" "5"
	}
}
