version 1
nodes
0 "root" -1
end
skeleton
time 0
0 0 0 0 0 0 0
end
triangles
phy
0  -1.000000 -1.611781 -0.467112  -0.577349 -0.577349 -0.577349  0.375000 0.000000 0
0  -1.000000 1.680509 0.454161  -0.577349 0.577349 0.577349  0.625000 0.250000 0
0  -1.000000 1.680509 -0.467112  -0.577349 0.577349 -0.577349  0.375000 0.250000 0
phy
0  -1.000000 1.680509 -0.467112  -0.577349 0.577349 -0.577349  0.375000 0.250000 0
0  1.000000 1.680509 0.454161  0.577349 0.577349 0.577349  0.625000 0.500000 0
0  1.000000 1.680509 -0.467112  0.577349 0.577349 -0.577349  0.375000 0.500000 0
phy
0  1.000000 1.680509 -0.467112  0.577349 0.577349 -0.577349  0.375000 0.500000 0
0  1.000000 -1.611781 0.454161  0.577349 -0.577349 0.577349  0.625000 0.750000 0
0  1.000000 -1.611781 -0.467112  0.577349 -0.577349 -0.577349  0.375000 0.750000 0
phy
0  1.000000 -1.611781 -0.467112  0.577349 -0.577349 -0.577349  0.375000 0.750000 0
0  -1.000000 -1.611781 0.454161  -0.577349 -0.577349 0.577349  0.625000 1.000000 0
0  -1.000000 -1.611781 -0.467112  -0.577349 -0.577349 -0.577349  0.375000 1.000000 0
phy
0  -1.000000 1.680509 -0.467112  -0.577349 0.577349 -0.577349  0.125000 0.500000 0
0  1.000000 -1.611781 -0.467112  0.577349 -0.577349 -0.577349  0.375000 0.750000 0
0  -1.000000 -1.611781 -0.467112  -0.577349 -0.577349 -0.577349  0.125000 0.750000 0
phy
0  1.000000 1.680509 0.454161  0.577349 0.577349 0.577349  0.625000 0.500000 0
0  -1.000000 -1.611781 0.454161  -0.577349 -0.577349 0.577349  0.875000 0.750000 0
0  1.000000 -1.611781 0.454161  0.577349 -0.577349 0.577349  0.625000 0.750000 0
phy
0  -1.000000 -1.611781 -0.467112  -0.577349 -0.577349 -0.577349  0.375000 0.000000 0
0  -1.000000 -1.611781 0.454161  -0.577349 -0.577349 0.577349  0.625000 0.000000 0
0  -1.000000 1.680509 0.454161  -0.577349 0.577349 0.577349  0.625000 0.250000 0
phy
0  -1.000000 1.680509 -0.467112  -0.577349 0.577349 -0.577349  0.375000 0.250000 0
0  -1.000000 1.680509 0.454161  -0.577349 0.577349 0.577349  0.625000 0.250000 0
0  1.000000 1.680509 0.454161  0.577349 0.577349 0.577349  0.625000 0.500000 0
phy
0  1.000000 1.680509 -0.467112  0.577349 0.577349 -0.577349  0.375000 0.500000 0
0  1.000000 1.680509 0.454161  0.577349 0.577349 0.577349  0.625000 0.500000 0
0  1.000000 -1.611781 0.454161  0.577349 -0.577349 0.577349  0.625000 0.750000 0
phy
0  1.000000 -1.611781 -0.467112  0.577349 -0.577349 -0.577349  0.375000 0.750000 0
0  1.000000 -1.611781 0.454161  0.577349 -0.577349 0.577349  0.625000 0.750000 0
0  -1.000000 -1.611781 0.454161  -0.577349 -0.577349 0.577349  0.625000 1.000000 0
phy
0  -1.000000 1.680509 -0.467112  -0.577349 0.577349 -0.577349  0.125000 0.500000 0
0  1.000000 1.680509 -0.467112  0.577349 0.577349 -0.577349  0.375000 0.500000 0
0  1.000000 -1.611781 -0.467112  0.577349 -0.577349 -0.577349  0.375000 0.750000 0
phy
0  1.000000 1.680509 0.454161  0.577349 0.577349 0.577349  0.625000 0.500000 0
0  -1.000000 1.680509 0.454161  -0.577349 0.577349 0.577349  0.875000 0.500000 0
0  -1.000000 -1.611781 0.454161  -0.577349 -0.577349 0.577349  0.875000 0.750000 0
end
