version 1
nodes
0 "root" -1
end
skeleton
time 0
0 0 0 0 0 0 0
end
triangles
handrail001a
0  -1.420577 -0.823179 -1.630823  -0.894388 -0.000000 -0.447291  0.481895 0.728905 0
0  -1.788777 -0.989528 -0.894582  -0.894389 0.000000 -0.447291  0.476722 0.739021 0
0  -1.475807 -0.699702 -1.520387  -0.894388 -0.000000 -0.447291  0.479416 0.728619 0
handrail001a
0  -2.156977 -0.823179 -0.158340  -0.894389 0.000001 -0.447291  0.472047 0.749073 0
0  -2.231384 -0.000000 -0.009559  -0.894389 0.000000 -0.447291  0.461039 0.753189 0
0  -2.101748 -0.699702 -0.268776  -0.894389 0.000001 -0.447291  0.470541 0.747401 0
handrail001a
0  -2.156977 0.823179 -0.158340  -0.894389 -0.000000 -0.447291  0.473147 0.668964 0
0  -1.788777 0.989528 -0.894582  -0.894388 0.000000 -0.447291  0.477889 0.679825 0
0  -2.101748 0.699702 -0.268776  -0.894389 -0.000000 -0.447291  0.471293 0.670797 0
handrail001a
0  -1.788777 1.164151 -0.894582  -0.894388 0.000000 -0.447291  0.480100 0.678830 0
0  -1.475807 0.699702 -1.520387  -0.894389 -0.000000 -0.447291  0.480565 0.690049 0
0  -1.788777 0.989528 -0.894582  -0.894388 0.000000 -0.447291  0.477889 0.679825 0
handrail001a
0  -1.268063 -0.000000 -1.935785  -0.894388 0.000000 -0.447291  0.481317 0.715491 0
0  -1.475807 -0.699702 -1.520387  -0.894388 -0.000000 -0.447291  0.479416 0.728619 0
0  -1.346170 -0.000000 -1.779604  -0.894388 0.000000 -0.447291  0.478565 0.716783 0
handrail001a
0  -1.788777 -1.164151 -0.894582  -0.894388 0.000000 -0.447291  0.478833 0.740077 0
0  -2.101748 -0.699702 -0.268776  -0.894389 0.000001 -0.447291  0.470541 0.747401 0
0  -1.788777 -0.989528 -0.894582  -0.894389 0.000000 -0.447291  0.476722 0.739021 0
handrail001a
0  -2.309491 -0.000000 0.146621  -0.894388 0.000000 -0.447291  0.461759 0.660740 0
0  -2.101748 0.699702 -0.268776  -0.894389 -0.000000 -0.447291  0.471293 0.670797 0
0  -2.231384 -0.000000 -0.009559  -0.894389 0.000000 -0.447291  0.461039 0.663833 0
handrail001a
0  -1.420577 0.823179 -1.630823  -0.894389 -0.000001 -0.447291  0.482858 0.689908 0
0  -1.346170 -0.000000 -1.779604  -0.894388 0.000000 -0.447291  0.479215 0.701490 0
0  -1.475807 0.699702 -1.520387  -0.894389 -0.000000 -0.447291  0.480565 0.690049 0
handrail001a
0  -0.699701 0.699702 -2.000001  -0.000000 -0.000000 -1.000000  0.497090 0.700853 0
0  -1.164150 -0.000000 -2.000001  -0.000002 0.000000 -1.000000  0.484405 0.704793 0
0  -0.823178 0.823179 -2.000001  0.000000 -0.000000 -1.000000  0.496285 0.698491 0
handrail001a
0  -0.699701 -0.699702 -2.000001  0.000000 0.000000 -1.000000  0.496259 0.718374 0
0  0.000000 -1.164151 -2.000001  0.000000 0.000000 -1.000000  0.506570 0.722716 0
0  -0.823178 -0.823179 -2.000001  0.000000 -0.000000 -1.000000  0.495405 0.720498 0
handrail001a
0  0.699703 -0.699702 -2.000001  0.000002 -0.000002 -1.000000  0.517252 0.718035 0
0  1.164151 -0.000000 -2.000001  0.000001 0.000000 -1.000000  0.529900 0.713303 0
0  0.823179 -0.823179 -2.000001  0.000002 -0.000002 -1.000000  0.518175 0.720414 0
handrail001a
0  0.699703 0.699702 -2.000001  0.000003 0.000002 -1.000000  0.517629 0.701048 0
0  0.000000 1.164151 -2.000001  0.000000 0.000000 -1.000000  0.507709 0.696509 0
0  0.823179 0.823179 -2.000001  0.000003 0.000002 -1.000000  0.518557 0.699025 0
handrail001a
0  0.000000 0.989528 -2.000001  -0.000000 0.000000 -1.000000  0.507631 0.698856 0
0  -0.823178 0.823179 -2.000001  0.000000 -0.000000 -1.000000  0.496285 0.698491 0
0  0.000000 1.164151 -2.000001  0.000000 0.000000 -1.000000  0.507709 0.696509 0
handrail001a
0  -0.989527 -0.000000 -2.000001  -0.000002 0.000000 -1.000000  0.486527 0.712234 0
0  -0.823178 -0.823179 -2.000001  0.000000 -0.000000 -1.000000  0.495405 0.720498 0
0  -1.164150 -0.000000 -2.000001  -0.000002 0.000000 -1.000000  0.484360 0.713765 0
handrail001a
0  0.000000 -0.989528 -2.000001  0.000000 -0.000000 -1.000000  0.506587 0.720319 0
0  0.823179 -0.823179 -2.000001  0.000002 -0.000002 -1.000000  0.518175 0.720414 0
0  0.000000 -1.164151 -2.000001  0.000000 0.000000 -1.000000  0.506570 0.722716 0
handrail001a
0  0.989529 -0.000000 -2.000001  0.000001 0.000000 -1.000000  0.526501 0.707501 0
0  0.823179 0.823179 -2.000001  0.000003 0.000002 -1.000000  0.518557 0.699025 0
0  1.164151 -0.000000 -2.000001  0.000001 0.000000 -1.000000  0.528658 0.706181 0
handrail001a
0  -2.156977 0.823179 -0.158340  -0.316282 0.707107 0.632428  0.473147 0.668964 0
0  -1.164150 -0.000000 0.719415  -0.850674 0.000000 0.525694  0.478020 0.644830 0
0  -0.823179 0.823179 0.508703  -0.492074 0.815716 0.304089  0.492368 0.654319 0
handrail001a
0  -2.309491 -0.000000 0.146621  -0.447291 -0.000000 0.894388  0.461433 0.755724 0
0  -0.823179 -0.823179 0.508703  -0.492074 -0.815716 0.304089  0.490136 0.764176 0
0  -1.164150 -0.000000 0.719415  -0.850674 0.000000 0.525694  0.475126 0.772372 0
handrail001a
0  -0.823178 0.823179 -2.000001  -0.707107 0.707107 0.000000  0.496285 0.698491 0
0  -1.164150 -0.000000 -1.883817  -1.000000 0.000000 0.000000  0.483481 0.702986 0
0  -0.823178 0.823179 -1.332060  -0.180955 0.938889 -0.292820  0.493389 0.688400 0
handrail001a
0  -1.420577 0.823179 -1.630823  0.316282 0.707107 -0.632428  0.482858 0.689908 0
0  -1.164150 -0.000000 -1.883817  0.447291 -0.000000 -0.894389  0.483481 0.702986 0
0  -1.268063 -0.000000 -1.935785  0.447291 -0.000000 -0.894389  0.481534 0.702787 0
handrail001a
0  -1.788777 1.164151 -0.894582  -0.000000 1.000000 0.000000  0.480100 0.678830 0
0  -0.823178 0.823179 -1.332060  -0.180955 0.938889 -0.292820  0.493389 0.688400 0
0  -1.420577 0.823179 -1.630823  0.316282 0.707107 -0.632428  0.482858 0.689908 0
handrail001a
0  0.000000 1.164151 -2.000001  -0.000000 1.000000 0.000000  0.507709 0.696509 0
0  -0.823178 0.823179 -1.332060  -0.180955 0.938889 -0.292820  0.493389 0.688400 0
0  0.000001 1.164151 0.000000  -0.012488 0.999584 0.026016  0.508647 0.664684 0
handrail001a
0  -1.788777 1.164151 -0.894582  -0.000000 1.000000 0.000000  0.480100 0.678830 0
0  -0.823179 0.823179 0.508703  -0.492074 0.815716 0.304089  0.492368 0.654319 0
0  0.000001 1.164151 0.000000  -0.012488 0.999584 0.026016  0.508647 0.664684 0
handrail001a
0  -1.788777 -1.164151 -0.894582  0.000000 -1.000000 -0.000000  0.478833 0.740077 0
0  -0.823178 -0.823179 -1.332060  -0.180955 -0.938888 -0.292820  0.492239 0.730630 0
0  0.000001 -1.164151 0.000000  -0.012487 -0.999584 0.026016  0.506852 0.754696 0
handrail001a
0  -0.823178 -0.823179 -1.332060  -0.180955 -0.938888 -0.292820  0.492239 0.730630 0
0  -1.268063 -0.000000 -1.935785  0.447291 -0.000000 -0.894389  0.481317 0.715491 0
0  -1.164150 -0.000000 -1.883817  0.447291 -0.000000 -0.894389  0.483343 0.715436 0
handrail001a
0  -0.823178 -0.823179 -1.332060  -0.180955 -0.938888 -0.292820  0.492239 0.730630 0
0  -1.164150 -0.000000 -2.000001  -1.000000 0.000000 0.000000  0.484360 0.713765 0
0  -0.823178 -0.823179 -2.000001  -0.707107 -0.707107 0.000000  0.495405 0.720498 0
handrail001a
0  0.000000 -1.164151 -2.000001  -0.000000 -1.000000 0.000000  0.506570 0.722716 0
0  0.823179 -0.823179 -0.823179  0.337726 -0.878568 -0.337726  0.522998 0.738949 0
0  0.000001 -1.164151 0.000000  -0.012487 -0.999584 0.026016  0.506852 0.754696 0
handrail001a
0  0.000001 1.164151 0.000000  -0.012488 0.999584 0.026016  0.508647 0.664684 0
0  0.823179 0.823179 -2.000001  0.707107 0.707107 0.000000  0.518557 0.699025 0
0  0.000000 1.164151 -2.000001  -0.000000 1.000000 0.000000  0.507709 0.696509 0
handrail001a
0  1.164151 -0.000000 -2.000001  1.000000 -0.000000 0.000000  0.529900 0.713303 0
0  0.823179 -0.823179 -0.823179  0.337726 -0.878568 -0.337726  0.522998 0.738949 0
0  0.823179 -0.823179 -2.000001  0.707107 -0.707107 0.000000  0.518175 0.720414 0
handrail001a
0  -0.823179 -0.823179 1.999998  -0.000001 -0.000000 1.000000  0.494034 0.787884 0
0  0.000000 -0.989528 1.999999  -0.000000 0.000001 1.000000  0.505717 0.788775 0
0  -0.699702 -0.699702 1.999999  -0.000001 -0.000000 1.000000  0.494777 0.790356 0
handrail001a
0  0.823179 -0.823179 1.999999  0.000000 0.000001 1.000000  0.516729 0.789085 0
0  0.989528 -0.000000 1.999999  -0.000001 -0.000000 1.000000  0.524662 0.797653 0
0  0.699702 -0.699702 1.999999  0.000000 0.000000 1.000000  0.515776 0.791112 0
handrail001a
0  0.823179 0.823179 1.999999  -0.000001 -0.000000 1.000000  0.519922 0.630598 0
0  0.000000 0.989528 1.999999  0.000000 -0.000000 1.000000  0.508413 0.630616 0
0  0.699702 0.699702 1.999999  -0.000001 -0.000001 1.000000  0.518990 0.628241 0
handrail001a
0  0.000000 1.164151 1.999999  -0.000000 0.000000 1.000000  0.508448 0.632990 0
0  -0.699702 0.699702 1.999999  -0.000002 0.000000 1.000000  0.498066 0.629031 0
0  0.000000 0.989528 1.999999  0.000000 -0.000000 1.000000  0.508413 0.630616 0
handrail001a
0  -1.164150 -0.000000 1.999998  -0.000000 0.000000 1.000000  0.481537 0.794038 0
0  -0.699702 -0.699702 1.999999  -0.000001 -0.000000 1.000000  0.494777 0.790356 0
0  -0.989528 -0.000000 1.999998  -0.000000 0.000000 1.000000  0.483913 0.796106 0
handrail001a
0  0.000000 -1.164151 1.999999  -0.000000 0.000001 1.000000  0.505867 0.786400 0
0  0.699702 -0.699702 1.999999  0.000000 0.000000 1.000000  0.515776 0.791112 0
0  0.000000 -0.989528 1.999999  -0.000000 0.000001 1.000000  0.505717 0.788775 0
handrail001a
0  1.164151 -0.000000 1.999999  -0.000001 -0.000000 1.000000  0.531558 0.623474 0
0  0.699702 0.699702 1.999999  -0.000001 -0.000001 1.000000  0.518990 0.628241 0
0  0.989528 -0.000000 1.999999  -0.000001 -0.000000 1.000000  0.529059 0.621672 0
handrail001a
0  -0.823179 0.823179 1.999998  -0.000002 0.000000 1.000000  0.497283 0.631153 0
0  -0.989528 -0.000000 1.999998  -0.000000 0.000000 1.000000  0.488463 0.623295 0
0  -0.699702 0.699702 1.999999  -0.000002 0.000000 1.000000  0.498066 0.629031 0
handrail001a
0  0.000001 -1.164151 0.000000  -0.012487 -0.999584 0.026016  0.506852 0.754696 0
0  -2.156977 -0.823179 -0.158340  -0.316282 -0.707107 0.632428  0.472047 0.749073 0
0  -1.788777 -1.164151 -0.894582  0.000000 -1.000000 -0.000000  0.478833 0.740077 0
handrail001a
0  -0.823179 0.823179 1.999998  -0.707107 0.707107 -0.000000  0.497283 0.631153 0
0  0.000001 1.164151 0.000000  -0.012488 0.999584 0.026016  0.508647 0.664684 0
0  -0.823179 0.823179 0.508703  -0.492074 0.815716 0.304089  0.492368 0.654319 0
handrail001a
0  0.000000 1.164151 1.999999  0.000000 1.000000 -0.000000  0.508448 0.632990 0
0  0.823179 0.823179 0.823178  0.337726 0.878568 0.337726  0.524757 0.649027 0
0  0.000001 1.164151 0.000000  -0.012488 0.999584 0.026016  0.508647 0.664684 0
handrail001a
0  0.823179 0.823179 0.823178  0.337726 0.878568 0.337726  0.524757 0.649027 0
0  1.164151 -0.000000 1.999999  1.000000 -0.000000 -0.000000  0.531558 0.623474 0
0  1.164151 -0.000000 1.164150  0.707107 0.000000 0.707107  0.537671 0.636957 0
handrail001a
0  1.164151 -0.000000 1.164150  0.707107 0.000000 0.707107  0.534101 0.784260 0
0  0.823179 -0.823179 1.999999  0.707107 -0.707107 -0.000000  0.516729 0.789085 0
0  0.823179 -0.823179 0.823178  0.337726 -0.878568 0.337726  0.522280 0.771077 0
handrail001a
0  0.000000 -1.164151 1.999999  0.000000 -1.000000 0.000000  0.505867 0.786400 0
0  -0.823179 -0.823179 0.508703  -0.492074 -0.815716 0.304089  0.490136 0.764176 0
0  0.000001 -1.164151 0.000000  -0.012487 -0.999584 0.026016  0.506852 0.754696 0
handrail001a
0  -0.823179 -0.823179 1.999998  -0.707107 -0.707107 0.000000  0.494034 0.787884 0
0  -1.164150 -0.000000 0.719415  -0.850674 0.000000 0.525694  0.475126 0.772372 0
0  -0.823179 -0.823179 0.508703  -0.492074 -0.815716 0.304089  0.490136 0.764176 0
handrail001a
0  -1.164150 -0.000000 0.719415  -0.850674 0.000000 0.525694  0.478020 0.644830 0
0  -0.823179 0.823179 1.999998  -0.707107 0.707107 -0.000000  0.497283 0.631153 0
0  -0.823179 0.823179 0.508703  -0.492074 0.815716 0.304089  0.492368 0.654319 0
handrail001a
0  0.000000 -1.164151 1.999999  0.000000 -1.000000 0.000000  0.505867 0.786400 0
0  0.823179 -0.823179 0.823178  0.337726 -0.878568 0.337726  0.522280 0.771077 0
0  0.823179 -0.823179 1.999999  0.707107 -0.707107 -0.000000  0.516729 0.789085 0
handrail001a
0  -0.823178 -0.823179 -2.000001  -0.707107 -0.707107 0.000000  0.495405 0.720498 0
0  0.000001 -1.164151 0.000000  -0.012487 -0.999584 0.026016  0.506852 0.754696 0
0  -0.823178 -0.823179 -1.332060  -0.180955 -0.938888 -0.292820  0.492239 0.730630 0
handrail001a
0  2.000001 0.699702 -0.699703  1.000000 0.000000 -0.000001  0.544897 0.675719 0
0  2.000001 -0.000000 -1.164151  1.000000 0.000000 -0.000001  0.549369 0.688333 0
0  2.000001 0.823179 -0.823179  1.000000 0.000000 -0.000001  0.542528 0.676590 0
handrail001a
0  2.000001 -0.699702 -0.699703  1.000000 -0.000001 -0.000001  0.543212 0.745051 0
0  2.000001 -1.164151 -0.000000  1.000000 0.000000 0.000000  0.538788 0.755076 0
0  2.000001 -0.823179 -0.823179  1.000000 -0.000001 -0.000001  0.541165 0.744148 0
handrail001a
0  2.000001 -0.699702 0.699702  1.000000 -0.000000 0.000000  0.543222 0.765749 0
0  2.000001 -0.000000 1.164150  1.000000 0.000000 0.000001  0.547708 0.778422 0
0  2.000001 -0.823179 0.823178  1.000000 0.000000 0.000000  0.540843 0.766623 0
handrail001a
0  2.000001 0.699702 0.699702  1.000000 0.000000 0.000000  0.544887 0.655096 0
0  2.000001 1.164151 -0.000000  1.000000 0.000000 -0.000000  0.540479 0.665089 0
0  2.000001 0.823179 0.823178  1.000000 0.000000 0.000000  0.542846 0.654197 0
handrail001a
0  2.000001 0.989528 -0.000000  1.000000 0.000000 -0.000000  0.542831 0.665145 0
0  2.000001 0.823179 -0.823179  1.000000 0.000000 -0.000001  0.542528 0.676590 0
0  2.000001 1.164151 -0.000000  1.000000 0.000000 -0.000000  0.540479 0.665089 0
handrail001a
0  2.000001 -0.000000 -0.989529  1.000000 0.000001 -0.000001  0.549565 0.736028 0
0  2.000001 -0.823179 -0.823179  1.000000 -0.000001 -0.000001  0.541165 0.744148 0
0  2.000001 -0.000000 -1.164151  1.000000 0.000000 -0.000001  0.548204 0.733879 0
handrail001a
0  2.000001 -0.989528 -0.000000  1.000000 0.000000 0.000000  0.541148 0.755132 0
0  2.000001 -0.823179 0.823178  1.000000 0.000000 0.000000  0.540843 0.766623 0
0  2.000001 -1.164151 -0.000000  1.000000 0.000000 0.000000  0.538788 0.755076 0
handrail001a
0  2.000001 -0.000000 0.989528  1.000000 -0.000000 0.000001  0.551217 0.646098 0
0  2.000001 0.823179 0.823178  1.000000 0.000000 0.000000  0.542846 0.654197 0
0  2.000001 -0.000000 1.164150  1.000000 0.000000 0.000001  0.549858 0.643956 0
handrail001a
0  2.000001 1.164151 -0.000000  0.000000 1.000000 -0.000000  0.540479 0.665089 0
0  0.823179 0.823179 -0.823179  0.337726 0.878568 -0.337726  0.524028 0.681048 0
0  0.000001 1.164151 0.000000  -0.012488 0.999584 0.026016  0.508647 0.664684 0
handrail001a
0  1.164151 -0.000000 -1.164151  0.707107 0.000000 -0.707107  0.535986 0.726853 0
0  2.000001 -0.823179 -0.823179  -0.000000 -0.707107 -0.707107  0.541165 0.744148 0
0  0.823179 -0.823179 -0.823179  0.337726 -0.878568 -0.337726  0.522998 0.738949 0
handrail001a
0  0.823179 0.823179 -0.823179  0.337726 0.878568 -0.337726  0.524028 0.681048 0
0  2.000001 -0.000000 -1.164151  0.000000 0.000000 -1.000000  0.549369 0.688333 0
0  1.164151 -0.000000 -1.164151  0.707107 0.000000 -0.707107  0.535829 0.694149 0
handrail001a
0  0.823179 -0.823179 -0.823179  0.337726 -0.878568 -0.337726  0.522998 0.738949 0
0  2.000001 -1.164151 -0.000000  0.000000 -1.000000 -0.000000  0.538788 0.755076 0
0  0.000001 -1.164151 0.000000  -0.012487 -0.999584 0.026016  0.506852 0.754696 0
handrail001a
0  2.000001 0.823179 0.823178  -0.000000 0.707107 0.707107  0.542846 0.654197 0
0  0.000001 1.164151 0.000000  -0.012488 0.999584 0.026016  0.508647 0.664684 0
0  0.823179 0.823179 0.823178  0.337726 0.878568 0.337726  0.524757 0.649027 0
handrail001a
0  2.000001 -0.823179 0.823178  0.000000 -0.707107 0.707107  0.540843 0.766623 0
0  1.164151 -0.000000 1.164150  0.707107 0.000000 0.707107  0.534101 0.784260 0
0  0.823179 -0.823179 0.823178  0.337726 -0.878568 0.337726  0.522280 0.771077 0
handrail001a
0  0.823179 0.823179 0.823178  0.337726 0.878568 0.337726  0.524757 0.649027 0
0  2.000001 -0.000000 1.164150  0.000000 0.000000 1.000000  0.549858 0.643956 0
0  2.000001 0.823179 0.823178  -0.000000 0.707107 0.707107  0.542846 0.654197 0
handrail001a
0  2.000001 -0.823179 0.823178  0.000000 -0.707107 0.707107  0.540843 0.766623 0
0  0.000001 -1.164151 0.000000  -0.012487 -0.999584 0.026016  0.506852 0.754696 0
0  2.000001 -1.164151 -0.000000  0.000000 -1.000000 -0.000000  0.538788 0.755076 0
handrail001a
0  0.823179 0.823179 -0.823179  0.337726 0.878568 -0.337726  0.524028 0.681048 0
0  1.164151 -0.000000 -2.000001  1.000000 -0.000000 0.000000  0.528658 0.706181 0
0  0.823179 0.823179 -2.000001  0.707107 0.707107 0.000000  0.518557 0.699025 0
handrail001a
0  -1.420577 -0.823179 -1.630823  -0.894388 -0.000000 -0.447291  0.481895 0.728905 0
0  -1.788777 -1.164151 -0.894582  -0.894388 0.000000 -0.447291  0.478833 0.740077 0
0  -1.788777 -0.989528 -0.894582  -0.894389 0.000000 -0.447291  0.476722 0.739021 0
handrail001a
0  -2.156977 -0.823179 -0.158340  -0.894389 0.000001 -0.447291  0.472047 0.749073 0
0  -2.309491 -0.000000 0.146621  -0.894388 0.000000 -0.447291  0.461433 0.755724 0
0  -2.231384 -0.000000 -0.009559  -0.894389 0.000000 -0.447291  0.461039 0.753189 0
handrail001a
0  -2.156977 0.823179 -0.158340  -0.894389 -0.000000 -0.447291  0.473147 0.668964 0
0  -1.788777 1.164151 -0.894582  -0.894388 0.000000 -0.447291  0.480100 0.678830 0
0  -1.788777 0.989528 -0.894582  -0.894388 0.000000 -0.447291  0.477889 0.679825 0
handrail001a
0  -1.788777 1.164151 -0.894582  -0.894388 0.000000 -0.447291  0.480100 0.678830 0
0  -1.420577 0.823179 -1.630823  -0.894389 -0.000001 -0.447291  0.482858 0.689908 0
0  -1.475807 0.699702 -1.520387  -0.894389 -0.000000 -0.447291  0.480565 0.690049 0
handrail001a
0  -1.268063 -0.000000 -1.935785  -0.894388 0.000000 -0.447291  0.481317 0.715491 0
0  -1.420577 -0.823179 -1.630823  -0.894388 -0.000000 -0.447291  0.481895 0.728905 0
0  -1.475807 -0.699702 -1.520387  -0.894388 -0.000000 -0.447291  0.479416 0.728619 0
handrail001a
0  -1.788777 -1.164151 -0.894582  -0.894388 0.000000 -0.447291  0.478833 0.740077 0
0  -2.156977 -0.823179 -0.158340  -0.894389 0.000001 -0.447291  0.472047 0.749073 0
0  -2.101748 -0.699702 -0.268776  -0.894389 0.000001 -0.447291  0.470541 0.747401 0
handrail001a
0  -2.309491 -0.000000 0.146621  -0.894388 0.000000 -0.447291  0.461759 0.660740 0
0  -2.156977 0.823179 -0.158340  -0.894389 -0.000000 -0.447291  0.473147 0.668964 0
0  -2.101748 0.699702 -0.268776  -0.894389 -0.000000 -0.447291  0.471293 0.670797 0
handrail001a
0  -1.420577 0.823179 -1.630823  -0.894389 -0.000001 -0.447291  0.482858 0.689908 0
0  -1.268063 -0.000000 -1.935785  -0.894388 0.000000 -0.447291  0.481534 0.702787 0
0  -1.346170 -0.000000 -1.779604  -0.894388 0.000000 -0.447291  0.479215 0.701490 0
handrail001a
0  -0.699701 0.699702 -2.000001  -0.000000 -0.000000 -1.000000  0.497090 0.700853 0
0  -0.989527 -0.000000 -2.000001  -0.000002 0.000000 -1.000000  0.486759 0.706723 0
0  -1.164150 -0.000000 -2.000001  -0.000002 0.000000 -1.000000  0.484405 0.704793 0
handrail001a
0  -0.699701 -0.699702 -2.000001  0.000000 0.000000 -1.000000  0.496259 0.718374 0
0  0.000000 -0.989528 -2.000001  0.000000 -0.000000 -1.000000  0.506587 0.720319 0
0  0.000000 -1.164151 -2.000001  0.000000 0.000000 -1.000000  0.506570 0.722716 0
handrail001a
0  0.699703 -0.699702 -2.000001  0.000002 -0.000002 -1.000000  0.517252 0.718035 0
0  0.989529 -0.000000 -2.000001  0.000001 0.000000 -1.000000  0.527397 0.711482 0
0  1.164151 -0.000000 -2.000001  0.000001 0.000000 -1.000000  0.529900 0.713303 0
handrail001a
0  0.699703 0.699702 -2.000001  0.000003 0.000002 -1.000000  0.517629 0.701048 0
0  0.000000 0.989528 -2.000001  -0.000000 0.000000 -1.000000  0.507631 0.698856 0
0  0.000000 1.164151 -2.000001  0.000000 0.000000 -1.000000  0.507709 0.696509 0
handrail001a
0  0.000000 0.989528 -2.000001  -0.000000 0.000000 -1.000000  0.507631 0.698856 0
0  -0.699701 0.699702 -2.000001  -0.000000 -0.000000 -1.000000  0.497090 0.700853 0
0  -0.823178 0.823179 -2.000001  0.000000 -0.000000 -1.000000  0.496285 0.698491 0
handrail001a
0  -0.989527 -0.000000 -2.000001  -0.000002 0.000000 -1.000000  0.486527 0.712234 0
0  -0.699701 -0.699702 -2.000001  0.000000 0.000000 -1.000000  0.496259 0.718374 0
0  -0.823178 -0.823179 -2.000001  0.000000 -0.000000 -1.000000  0.495405 0.720498 0
handrail001a
0  0.000000 -0.989528 -2.000001  0.000000 -0.000000 -1.000000  0.506587 0.720319 0
0  0.699703 -0.699702 -2.000001  0.000002 -0.000002 -1.000000  0.517252 0.718035 0
0  0.823179 -0.823179 -2.000001  0.000002 -0.000002 -1.000000  0.518175 0.720414 0
handrail001a
0  0.989529 -0.000000 -2.000001  0.000001 0.000000 -1.000000  0.526501 0.707501 0
0  0.699703 0.699702 -2.000001  0.000003 0.000002 -1.000000  0.517629 0.701048 0
0  0.823179 0.823179 -2.000001  0.000003 0.000002 -1.000000  0.518557 0.699025 0
handrail001a
0  -2.156977 0.823179 -0.158340  -0.316282 0.707107 0.632428  0.473147 0.668964 0
0  -2.309491 -0.000000 0.146621  -0.447291 -0.000000 0.894388  0.461759 0.660740 0
0  -1.164150 -0.000000 0.719415  -0.850674 0.000000 0.525694  0.478020 0.644830 0
handrail001a
0  -2.309491 -0.000000 0.146621  -0.447291 -0.000000 0.894388  0.461433 0.755724 0
0  -2.156977 -0.823179 -0.158340  -0.316282 -0.707107 0.632428  0.472047 0.749073 0
0  -0.823179 -0.823179 0.508703  -0.492074 -0.815716 0.304089  0.490136 0.764176 0
handrail001a
0  -0.823178 0.823179 -2.000001  -0.707107 0.707107 0.000000  0.496285 0.698491 0
0  -1.164150 -0.000000 -2.000001  -1.000000 0.000000 0.000000  0.484405 0.704793 0
0  -1.164150 -0.000000 -1.883817  -1.000000 0.000000 0.000000  0.483481 0.702986 0
handrail001a
0  -1.420577 0.823179 -1.630823  0.316282 0.707107 -0.632428  0.482858 0.689908 0
0  -0.823178 0.823179 -1.332060  -0.180955 0.938889 -0.292820  0.493389 0.688400 0
0  -1.164150 -0.000000 -1.883817  0.447291 -0.000000 -0.894389  0.483481 0.702986 0
handrail001a
0  -1.788777 1.164151 -0.894582  -0.000000 1.000000 0.000000  0.480100 0.678830 0
0  0.000001 1.164151 0.000000  -0.012488 0.999584 0.026016  0.508647 0.664684 0
0  -0.823178 0.823179 -1.332060  -0.180955 0.938889 -0.292820  0.493389 0.688400 0
handrail001a
0  0.000000 1.164151 -2.000001  -0.000000 1.000000 0.000000  0.507709 0.696509 0
0  -0.823178 0.823179 -2.000001  -0.707107 0.707107 0.000000  0.496285 0.698491 0
0  -0.823178 0.823179 -1.332060  -0.180955 0.938889 -0.292820  0.493389 0.688400 0
handrail001a
0  -1.788777 1.164151 -0.894582  -0.000000 1.000000 0.000000  0.480100 0.678830 0
0  -2.156977 0.823179 -0.158340  -0.316282 0.707107 0.632428  0.473147 0.668964 0
0  -0.823179 0.823179 0.508703  -0.492074 0.815716 0.304089  0.492368 0.654319 0
handrail001a
0  -1.788777 -1.164151 -0.894582  0.000000 -1.000000 -0.000000  0.478833 0.740077 0
0  -1.420577 -0.823179 -1.630823  0.316282 -0.707107 -0.632428  0.481895 0.728905 0
0  -0.823178 -0.823179 -1.332060  -0.180955 -0.938888 -0.292820  0.492239 0.730630 0
handrail001a
0  -0.823178 -0.823179 -1.332060  -0.180955 -0.938888 -0.292820  0.492239 0.730630 0
0  -1.420577 -0.823179 -1.630823  0.316282 -0.707107 -0.632428  0.481895 0.728905 0
0  -1.268063 -0.000000 -1.935785  0.447291 -0.000000 -0.894389  0.481317 0.715491 0
handrail001a
0  -0.823178 -0.823179 -1.332060  -0.180955 -0.938888 -0.292820  0.492239 0.730630 0
0  -1.164150 -0.000000 -1.883817  -1.000000 0.000000 0.000000  0.483343 0.715436 0
0  -1.164150 -0.000000 -2.000001  -1.000000 0.000000 0.000000  0.484360 0.713765 0
handrail001a
0  0.000000 -1.164151 -2.000001  -0.000000 -1.000000 0.000000  0.506570 0.722716 0
0  0.823179 -0.823179 -2.000001  0.707107 -0.707107 0.000000  0.518175 0.720414 0
0  0.823179 -0.823179 -0.823179  0.337726 -0.878568 -0.337726  0.522998 0.738949 0
handrail001a
0  0.000001 1.164151 0.000000  -0.012488 0.999584 0.026016  0.508647 0.664684 0
0  0.823179 0.823179 -0.823179  0.337726 0.878568 -0.337726  0.524028 0.681048 0
0  0.823179 0.823179 -2.000001  0.707107 0.707107 0.000000  0.518557 0.699025 0
handrail001a
0  1.164151 -0.000000 -2.000001  1.000000 -0.000000 0.000000  0.529900 0.713303 0
0  1.164151 -0.000000 -1.164151  0.707107 0.000000 -0.707107  0.535986 0.726853 0
0  0.823179 -0.823179 -0.823179  0.337726 -0.878568 -0.337726  0.522998 0.738949 0
handrail001a
0  -0.823179 -0.823179 1.999998  -0.000001 -0.000000 1.000000  0.494034 0.787884 0
0  0.000000 -1.164151 1.999999  -0.000000 0.000001 1.000000  0.505867 0.786400 0
0  0.000000 -0.989528 1.999999  -0.000000 0.000001 1.000000  0.505717 0.788775 0
handrail001a
0  0.823179 -0.823179 1.999999  0.000000 0.000001 1.000000  0.516729 0.789085 0
0  1.164151 -0.000000 1.999999  -0.000001 -0.000000 1.000000  0.526840 0.796338 0
0  0.989528 -0.000000 1.999999  -0.000001 -0.000000 1.000000  0.524662 0.797653 0
handrail001a
0  0.823179 0.823179 1.999999  -0.000001 -0.000000 1.000000  0.519922 0.630598 0
0  0.000000 1.164151 1.999999  -0.000000 0.000000 1.000000  0.508448 0.632990 0
0  0.000000 0.989528 1.999999  0.000000 -0.000000 1.000000  0.508413 0.630616 0
handrail001a
0  0.000000 1.164151 1.999999  -0.000000 0.000000 1.000000  0.508448 0.632990 0
0  -0.823179 0.823179 1.999998  -0.000002 0.000000 1.000000  0.497283 0.631153 0
0  -0.699702 0.699702 1.999999  -0.000002 0.000000 1.000000  0.498066 0.629031 0
handrail001a
0  -1.164150 -0.000000 1.999998  -0.000000 0.000000 1.000000  0.481537 0.794038 0
0  -0.823179 -0.823179 1.999998  -0.000001 -0.000000 1.000000  0.494034 0.787884 0
0  -0.699702 -0.699702 1.999999  -0.000001 -0.000000 1.000000  0.494777 0.790356 0
handrail001a
0  0.000000 -1.164151 1.999999  -0.000000 0.000001 1.000000  0.505867 0.786400 0
0  0.823179 -0.823179 1.999999  0.000000 0.000001 1.000000  0.516729 0.789085 0
0  0.699702 -0.699702 1.999999  0.000000 0.000000 1.000000  0.515776 0.791112 0
handrail001a
0  1.164151 -0.000000 1.999999  -0.000001 -0.000000 1.000000  0.531558 0.623474 0
0  0.823179 0.823179 1.999999  -0.000001 -0.000000 1.000000  0.519922 0.630598 0
0  0.699702 0.699702 1.999999  -0.000001 -0.000001 1.000000  0.518990 0.628241 0
handrail001a
0  -0.823179 0.823179 1.999998  -0.000002 0.000000 1.000000  0.497283 0.631153 0
0  -1.164150 -0.000000 1.999998  -0.000000 0.000000 1.000000  0.486394 0.624835 0
0  -0.989528 -0.000000 1.999998  -0.000000 0.000000 1.000000  0.488463 0.623295 0
handrail001a
0  0.000001 -1.164151 0.000000  -0.012487 -0.999584 0.026016  0.506852 0.754696 0
0  -0.823179 -0.823179 0.508703  -0.492074 -0.815716 0.304089  0.490136 0.764176 0
0  -2.156977 -0.823179 -0.158340  -0.316282 -0.707107 0.632428  0.472047 0.749073 0
handrail001a
0  -0.823179 0.823179 1.999998  -0.707107 0.707107 -0.000000  0.497283 0.631153 0
0  0.000000 1.164151 1.999999  0.000000 1.000000 -0.000000  0.508448 0.632990 0
0  0.000001 1.164151 0.000000  -0.012488 0.999584 0.026016  0.508647 0.664684 0
handrail001a
0  0.000000 1.164151 1.999999  0.000000 1.000000 -0.000000  0.508448 0.632990 0
0  0.823179 0.823179 1.999999  0.707107 0.707107 0.000000  0.519922 0.630598 0
0  0.823179 0.823179 0.823178  0.337726 0.878568 0.337726  0.524757 0.649027 0
handrail001a
0  0.823179 0.823179 0.823178  0.337726 0.878568 0.337726  0.524757 0.649027 0
0  0.823179 0.823179 1.999999  0.707107 0.707107 0.000000  0.519922 0.630598 0
0  1.164151 -0.000000 1.999999  1.000000 -0.000000 -0.000000  0.531558 0.623474 0
handrail001a
0  1.164151 -0.000000 1.164150  0.707107 0.000000 0.707107  0.534101 0.784260 0
0  1.164151 -0.000000 1.999999  1.000000 -0.000000 -0.000000  0.526840 0.796338 0
0  0.823179 -0.823179 1.999999  0.707107 -0.707107 -0.000000  0.516729 0.789085 0
handrail001a
0  0.000000 -1.164151 1.999999  0.000000 -1.000000 0.000000  0.505867 0.786400 0
0  -0.823179 -0.823179 1.999998  -0.707107 -0.707107 0.000000  0.494034 0.787884 0
0  -0.823179 -0.823179 0.508703  -0.492074 -0.815716 0.304089  0.490136 0.764176 0
handrail001a
0  -0.823179 -0.823179 1.999998  -0.707107 -0.707107 0.000000  0.494034 0.787884 0
0  -1.164150 -0.000000 1.999998  -1.000000 0.000000 0.000000  0.481537 0.794038 0
0  -1.164150 -0.000000 0.719415  -0.850674 0.000000 0.525694  0.475126 0.772372 0
handrail001a
0  -1.164150 -0.000000 0.719415  -0.850674 0.000000 0.525694  0.478020 0.644830 0
0  -1.164150 -0.000000 1.999998  -1.000000 0.000000 0.000000  0.486394 0.624835 0
0  -0.823179 0.823179 1.999998  -0.707107 0.707107 -0.000000  0.497283 0.631153 0
handrail001a
0  0.000000 -1.164151 1.999999  0.000000 -1.000000 0.000000  0.505867 0.786400 0
0  0.000001 -1.164151 0.000000  -0.012487 -0.999584 0.026016  0.506852 0.754696 0
0  0.823179 -0.823179 0.823178  0.337726 -0.878568 0.337726  0.522280 0.771077 0
handrail001a
0  -0.823178 -0.823179 -2.000001  -0.707107 -0.707107 0.000000  0.495405 0.720498 0
0  0.000000 -1.164151 -2.000001  -0.000000 -1.000000 0.000000  0.506570 0.722716 0
0  0.000001 -1.164151 0.000000  -0.012487 -0.999584 0.026016  0.506852 0.754696 0
handrail001a
0  2.000001 0.699702 -0.699703  1.000000 0.000000 -0.000001  0.544897 0.675719 0
0  2.000001 -0.000000 -0.989529  1.000000 0.000001 -0.000001  0.551217 0.685885 0
0  2.000001 -0.000000 -1.164151  1.000000 0.000000 -0.000001  0.549369 0.688333 0
handrail001a
0  2.000001 -0.699702 -0.699703  1.000000 -0.000001 -0.000001  0.543212 0.745051 0
0  2.000001 -0.989528 -0.000000  1.000000 0.000000 0.000000  0.541148 0.755132 0
0  2.000001 -1.164151 -0.000000  1.000000 0.000000 0.000000  0.538788 0.755076 0
handrail001a
0  2.000001 -0.699702 0.699702  1.000000 -0.000000 0.000000  0.543222 0.765749 0
0  2.000001 -0.000000 0.989528  1.000000 -0.000000 0.000001  0.549565 0.775963 0
0  2.000001 -0.000000 1.164150  1.000000 0.000000 0.000001  0.547708 0.778422 0
handrail001a
0  2.000001 0.699702 0.699702  1.000000 0.000000 0.000000  0.544887 0.655096 0
0  2.000001 0.989528 -0.000000  1.000000 0.000000 -0.000000  0.542831 0.665145 0
0  2.000001 1.164151 -0.000000  1.000000 0.000000 -0.000000  0.540479 0.665089 0
handrail001a
0  2.000001 0.989528 -0.000000  1.000000 0.000000 -0.000000  0.542831 0.665145 0
0  2.000001 0.699702 -0.699703  1.000000 0.000000 -0.000001  0.544897 0.675719 0
0  2.000001 0.823179 -0.823179  1.000000 0.000000 -0.000001  0.542528 0.676590 0
handrail001a
0  2.000001 -0.000000 -0.989529  1.000000 0.000001 -0.000001  0.549565 0.736028 0
0  2.000001 -0.699702 -0.699703  1.000000 -0.000001 -0.000001  0.543212 0.745051 0
0  2.000001 -0.823179 -0.823179  1.000000 -0.000001 -0.000001  0.541165 0.744148 0
handrail001a
0  2.000001 -0.989528 -0.000000  1.000000 0.000000 0.000000  0.541148 0.755132 0
0  2.000001 -0.699702 0.699702  1.000000 -0.000000 0.000000  0.543222 0.765749 0
0  2.000001 -0.823179 0.823178  1.000000 0.000000 0.000000  0.540843 0.766623 0
handrail001a
0  2.000001 -0.000000 0.989528  1.000000 -0.000000 0.000001  0.551217 0.646098 0
0  2.000001 0.699702 0.699702  1.000000 0.000000 0.000000  0.544887 0.655096 0
0  2.000001 0.823179 0.823178  1.000000 0.000000 0.000000  0.542846 0.654197 0
handrail001a
0  2.000001 1.164151 -0.000000  0.000000 1.000000 -0.000000  0.540479 0.665089 0
0  2.000001 0.823179 -0.823179  -0.000000 0.707107 -0.707107  0.542528 0.676590 0
0  0.823179 0.823179 -0.823179  0.337726 0.878568 -0.337726  0.524028 0.681048 0
handrail001a
0  1.164151 -0.000000 -1.164151  0.707107 0.000000 -0.707107  0.535986 0.726853 0
0  2.000001 -0.000000 -1.164151  0.000000 0.000000 -1.000000  0.548204 0.733879 0
0  2.000001 -0.823179 -0.823179  -0.000000 -0.707107 -0.707107  0.541165 0.744148 0
handrail001a
0  0.823179 0.823179 -0.823179  0.337726 0.878568 -0.337726  0.524028 0.681048 0
0  2.000001 0.823179 -0.823179  -0.000000 0.707107 -0.707107  0.542528 0.676590 0
0  2.000001 -0.000000 -1.164151  0.000000 0.000000 -1.000000  0.549369 0.688333 0
handrail001a
0  0.823179 -0.823179 -0.823179  0.337726 -0.878568 -0.337726  0.522998 0.738949 0
0  2.000001 -0.823179 -0.823179  -0.000000 -0.707107 -0.707107  0.541165 0.744148 0
0  2.000001 -1.164151 -0.000000  0.000000 -1.000000 -0.000000  0.538788 0.755076 0
handrail001a
0  2.000001 0.823179 0.823178  -0.000000 0.707107 0.707107  0.542846 0.654197 0
0  2.000001 1.164151 -0.000000  0.000000 1.000000 -0.000000  0.540479 0.665089 0
0  0.000001 1.164151 0.000000  -0.012488 0.999584 0.026016  0.508647 0.664684 0
handrail001a
0  2.000001 -0.823179 0.823178  0.000000 -0.707107 0.707107  0.540843 0.766623 0
0  2.000001 -0.000000 1.164150  0.000000 0.000000 1.000000  0.547708 0.778422 0
0  1.164151 -0.000000 1.164150  0.707107 0.000000 0.707107  0.534101 0.784260 0
handrail001a
0  0.823179 0.823179 0.823178  0.337726 0.878568 0.337726  0.524757 0.649027 0
0  1.164151 -0.000000 1.164150  0.707107 0.000000 0.707107  0.537671 0.636957 0
0  2.000001 -0.000000 1.164150  0.000000 0.000000 1.000000  0.549858 0.643956 0
handrail001a
0  2.000001 -0.823179 0.823178  0.000000 -0.707107 0.707107  0.540843 0.766623 0
0  0.823179 -0.823179 0.823178  0.337726 -0.878568 0.337726  0.522280 0.771077 0
0  0.000001 -1.164151 0.000000  -0.012487 -0.999584 0.026016  0.506852 0.754696 0
handrail001a
0  0.823179 0.823179 -0.823179  0.337726 0.878568 -0.337726  0.524028 0.681048 0
0  1.164151 -0.000000 -1.164151  0.707107 0.000000 -0.707107  0.535829 0.694149 0
0  1.164151 -0.000000 -2.000001  1.000000 -0.000000 0.000000  0.528658 0.706181 0
end
