version 1
nodes
0 "root" -1
end
skeleton
time 0
0 0 0 0 0 0 0
end
triangles
handrail001a
0  1.000000 0.000000 0.000000  1.000000 0.000000 0.000000  0.791119 0.194713 0
0  0.707107 -0.707107 38.399998  0.707107 -0.707107 0.000000  0.001990 0.178983 0
0  0.707107 -0.707107 0.000000  0.707107 -0.707107 0.000000  0.791119 0.178986 0
handrail001a
0  0.707107 -0.707107 0.000000  0.707107 -0.707107 0.000000  0.791119 0.178986 0
0  -0.000000 -1.000000 38.399998  -0.000000 -1.000000 0.000000  0.001990 0.163255 0
0  -0.000000 -1.000000 0.000000  0.000000 -1.000000 0.000000  0.791119 0.163259 0
handrail001a
0  -0.000000 -1.000000 0.000000  0.000000 -1.000000 0.000000  0.791119 0.163259 0
0  -0.707107 -0.707107 38.399998  -0.707107 -0.707107 0.000000  0.001990 0.147527 0
0  -0.707107 -0.707107 0.000000  -0.707107 -0.707107 0.000000  0.791119 0.147531 0
handrail001a
0  -0.707107 -0.707107 0.000000  -0.707107 -0.707107 0.000000  0.791119 0.147531 0
0  -1.000000 0.000000 38.399998  -1.000000 0.000000 0.000000  0.001990 0.131798 0
0  -1.000000 0.000000 0.000000  -1.000000 -0.000000 0.000000  0.791119 0.131804 0
handrail001a
0  -1.000000 0.000000 0.000000  -1.000000 -0.000000 0.000000  0.791119 0.257623 0
0  -0.707107 0.707107 38.399998  -0.707106 0.707107 0.000000  0.001990 0.241897 0
0  -0.707107 0.707107 0.000000  -0.707107 0.707107 0.000000  0.791119 0.241895 0
handrail001a
0  -0.707107 0.707107 0.000000  -0.707107 0.707107 0.000000  0.791119 0.241895 0
0  0.000000 1.000000 38.399998  0.000000 1.000000 0.000000  0.001990 0.226169 0
0  0.000000 1.000000 0.000000  -0.000000 1.000000 0.000000  0.791119 0.226168 0
handrail001a
0  0.000000 1.000000 0.000000  -0.000000 1.000000 0.000000  0.791119 0.226168 0
0  0.707107 0.707107 38.399998  0.707107 0.707107 0.000000  0.001990 0.210440 0
0  0.707107 0.707107 0.000000  0.707107 0.707107 0.000000  0.791119 0.210441 0
handrail001a
0  0.707107 0.707107 0.000000  0.707107 0.707107 0.000000  0.791119 0.210441 0
0  1.000000 0.000000 38.399998  1.000000 -0.000000 0.000000  0.001990 0.194712 0
0  1.000000 0.000000 0.000000  1.000000 0.000000 0.000000  0.791119 0.194713 0
handrail001a
0  1.000000 0.000000 0.000000  1.000000 0.000000 0.000000  0.791119 0.194713 0
0  1.000000 0.000000 38.399998  1.000000 -0.000000 0.000000  0.001990 0.194712 0
0  0.707107 -0.707107 38.399998  0.707107 -0.707107 0.000000  0.001990 0.178983 0
handrail001a
0  0.707107 -0.707107 0.000000  0.707107 -0.707107 0.000000  0.791119 0.178986 0
0  0.707107 -0.707107 38.399998  0.707107 -0.707107 0.000000  0.001990 0.178983 0
0  -0.000000 -1.000000 38.399998  -0.000000 -1.000000 0.000000  0.001990 0.163255 0
handrail001a
0  -0.000000 -1.000000 0.000000  0.000000 -1.000000 0.000000  0.791119 0.163259 0
0  -0.000000 -1.000000 38.399998  -0.000000 -1.000000 0.000000  0.001990 0.163255 0
0  -0.707107 -0.707107 38.399998  -0.707107 -0.707107 0.000000  0.001990 0.147527 0
handrail001a
0  -0.707107 -0.707107 0.000000  -0.707107 -0.707107 0.000000  0.791119 0.147531 0
0  -0.707107 -0.707107 38.399998  -0.707107 -0.707107 0.000000  0.001990 0.147527 0
0  -1.000000 0.000000 38.399998  -1.000000 0.000000 0.000000  0.001990 0.131798 0
handrail001a
0  -1.000000 0.000000 0.000000  -1.000000 -0.000000 0.000000  0.791119 0.257623 0
0  -1.000000 0.000000 38.399998  -1.000000 0.000000 0.000000  0.001991 0.257626 0
0  -0.707107 0.707107 38.399998  -0.707106 0.707107 0.000000  0.001990 0.241897 0
handrail001a
0  -0.707107 0.707107 0.000000  -0.707107 0.707107 0.000000  0.791119 0.241895 0
0  -0.707107 0.707107 38.399998  -0.707106 0.707107 0.000000  0.001990 0.241897 0
0  0.000000 1.000000 38.399998  0.000000 1.000000 0.000000  0.001990 0.226169 0
handrail001a
0  0.000000 1.000000 0.000000  -0.000000 1.000000 0.000000  0.791119 0.226168 0
0  0.000000 1.000000 38.399998  0.000000 1.000000 0.000000  0.001990 0.226169 0
0  0.707107 0.707107 38.399998  0.707107 0.707107 0.000000  0.001990 0.210440 0
handrail001a
0  0.707107 0.707107 0.000000  0.707107 0.707107 0.000000  0.791119 0.210441 0
0  0.707107 0.707107 38.399998  0.707107 0.707107 0.000000  0.001990 0.210440 0
0  1.000000 0.000000 38.399998  1.000000 -0.000000 0.000000  0.001990 0.194712 0
end
