// Created by Crowbar 0.19.0.0

$modelname "props_expanded\architecture\handrail001_connectorX.mdl"

$staticprop

$bodygroup "Body"
{
	studio "Connector_X.smd"
}

$noforcedfade

$cdmaterials "models\props_expanded\architecture\"

$surfaceprop "metal"

$contents "solid"

$sequence "idle" "anims\idle.smd" {
	fps 30
}

$collisionmodel "Connector_X_physics.smd"
{
	$mass 2
	$inertia 1
	$damping 0
	$rotdamping 0
	$concave

}


$keyvalues
{
	prop_data 
	{
		"base" "Metal.Medium"
	}
}
