version 1
nodes
0 "root" -1
end
skeleton
time 0
0 0 0 0 0 0 0
end
triangles
plate001a
0  0.445291 1.721755 -0.185161  -0.107596 0.259761 -0.959660  0.402266 0.151071 0
0  1.976023 3.414217 0.590830  -0.096613 0.485709 -0.868765  0.501729 0.202912 0
0  1.976023 2.026236 -0.185161  -0.055381 0.278421 -0.958861  0.429112 0.216695 0
plate001a
0  -0.852403 0.854663 -0.185161  -0.198812 0.198812 -0.959660  0.865036 0.713106 0
0  0.445291 1.721755 -0.185161  -0.107596 0.259761 -0.959660  0.837641 0.779243 0
0  2.083445 -2.101699 -0.185161  0.000000 0.000000 -1.000000  0.677743 0.683313 0
plate001a
0  -2.023977 -1.973764 -0.185161  -0.277972 0.055292 -0.958997  0.216231 0.074183 0
0  -3.001823 0.088128 0.590830  -0.450845 0.186746 -0.872849  0.301944 0.001760 0
0  -1.719495 -0.443030 -0.185161  -0.259761 0.107597 -0.959660  0.286993 0.073986 0
plate001a
0  -1.719495 -0.443030 -0.185161  -0.259761 0.107597 -0.959660  0.286993 0.073986 0
0  -1.833854 1.836115 0.590830  -0.345062 0.345062 -0.872849  0.393899 0.040111 0
0  -0.852403 0.854663 -0.185161  -0.198812 0.198812 -0.959660  0.352342 0.100996 0
plate001a
0  -0.852403 0.854663 -0.185161  -0.198812 0.198812 -0.959660  0.352342 0.100996 0
0  -0.085866 3.004082 0.590830  -0.186746 0.450845 -0.872849  0.464020 0.110832 0
0  0.445291 1.721755 -0.185161  -0.107596 0.259761 -0.959660  0.402266 0.151071 0
plate001a
0  -1.676368 -0.460894 0.049689  0.185592 -0.076875 0.979615  0.901766 0.348030 0
0  -1.833854 1.836115 0.590830  0.249552 -0.249552 0.935654  0.998291 0.296653 0
0  -3.001823 0.088128 0.590830  0.326055 -0.135057 0.935654  0.960714 0.387204 0
plate001a
0  -0.819396 0.821655 0.049689  0.142046 -0.142046 0.979615  0.928860 0.283058 0
0  -0.085866 3.004082 0.590830  0.135056 -0.326055 0.935654  0.998291 0.198642 0
0  -1.833854 1.836115 0.590830  0.249552 -0.249552 0.935654  0.998291 0.296653 0
plate001a
0  -0.819396 0.821655 0.049689  0.142046 -0.142046 0.979615  0.144178 0.862672 0
0  -1.676368 -0.460894 0.049689  0.185592 -0.076875 0.979615  0.078813 0.835597 0
0  2.102095 -2.099165 0.049689  -0.000000 0.000000 1.000000  0.181166 0.676832 0
plate001a
0  0.463155 1.678627 0.049689  0.076875 -0.185592 0.979615  0.928980 0.212704 0
0  1.976023 3.414217 0.590830  0.070028 -0.352053 0.933357  0.960708 0.108147 0
0  -0.085866 3.004082 0.590830  0.135056 -0.326055 0.935654  0.998291 0.198642 0
plate001a
0  -1.977297 -1.973764 0.049689  0.198779 -0.039540 0.979246  0.851828 0.397705 0
0  -3.001823 0.088128 0.590830  0.326055 -0.135057 0.935654  0.960714 0.387204 0
0  -3.411959 -1.973764 0.590830  0.352053 -0.070028 0.933357  0.891308 0.456478 0
plate001a
0  1.976023 3.414217 0.590830  1.000000 0.000001 0.000000  0.400912 0.520313 0
0  1.976023 1.979555 0.049689  0.999912 0.013206 0.001216  0.382495 0.588648 0
0  1.976023 2.026236 -0.185161  0.999904 0.013589 0.002701  0.371499 0.587560 0
plate001a
0  2.083445 -2.101699 -0.185161  0.996611 0.030625 -0.076350  0.390119 0.777234 0
0  1.976023 1.979555 0.049689  0.999912 0.013206 0.001216  0.382495 0.588648 0
0  2.102095 -2.099165 0.049689  0.996363 0.030797 -0.079453  0.400912 0.776072 0
plate001a
0  -2.023977 -1.973764 -0.185161  -0.016059 -0.999865 0.003345  0.430296 0.709064 0
0  2.102095 -2.099165 0.049689  -0.031114 -0.999431 0.012981  0.459680 0.520517 0
0  -1.977297 -1.973764 0.049689  -0.015503 -0.999875 0.003082  0.441295 0.707979 0
plate001a
0  -3.411959 -1.973764 0.590830  0.000000 -1.000000 0.000000  0.459680 0.776314 0
0  -2.023977 -1.973764 -0.185161  -0.016059 -0.999865 0.003345  0.430296 0.709064 0
0  -1.977297 -1.973764 0.049689  -0.015503 -0.999875 0.003082  0.441295 0.707979 0
plate001a
0  0.445291 1.721755 -0.185161  -0.107596 0.259761 -0.959660  0.402266 0.151071 0
0  -0.085866 3.004082 0.590830  -0.186746 0.450845 -0.872849  0.464020 0.110832 0
0  1.976023 3.414217 0.590830  -0.096613 0.485709 -0.868765  0.501729 0.202912 0
plate001a
0  0.445291 1.721755 -0.185161  -0.107596 0.259761 -0.959660  0.837641 0.779243 0
0  1.976023 2.026236 -0.185161  -0.055381 0.278421 -0.958861  0.787022 0.829862 0
0  2.083445 -2.101699 -0.185161  0.000000 0.000000 -1.000000  0.677743 0.683313 0
plate001a
0  2.083445 -2.101699 -0.185161  0.000000 0.000000 -1.000000  0.677743 0.683313 0
0  -2.023977 -1.973764 -0.185161  -0.277972 0.055292 -0.958997  0.837641 0.575382 0
0  -1.719495 -0.443030 -0.185161  -0.259761 0.107597 -0.959660  0.865036 0.641519 0
plate001a
0  -1.719495 -0.443030 -0.185161  -0.259761 0.107597 -0.959660  0.865036 0.641519 0
0  -0.852403 0.854663 -0.185161  -0.198812 0.198812 -0.959660  0.865036 0.713106 0
0  2.083445 -2.101699 -0.185161  0.000000 0.000000 -1.000000  0.677743 0.683313 0
plate001a
0  -2.023977 -1.973764 -0.185161  -0.277972 0.055292 -0.958997  0.216231 0.074183 0
0  -3.411959 -1.973764 0.590830  -0.485708 0.096613 -0.868765  0.202276 0.001709 0
0  -3.001823 0.088128 0.590830  -0.450845 0.186746 -0.872849  0.301944 0.001760 0
plate001a
0  -1.719495 -0.443030 -0.185161  -0.259761 0.107597 -0.959660  0.286993 0.073986 0
0  -3.001823 0.088128 0.590830  -0.450845 0.186746 -0.872849  0.301944 0.001760 0
0  -1.833854 1.836115 0.590830  -0.345062 0.345062 -0.872849  0.393899 0.040111 0
plate001a
0  -0.852403 0.854663 -0.185161  -0.198812 0.198812 -0.959660  0.352342 0.100996 0
0  -1.833854 1.836115 0.590830  -0.345062 0.345062 -0.872849  0.393899 0.040111 0
0  -0.085866 3.004082 0.590830  -0.186746 0.450845 -0.872849  0.464020 0.110832 0
plate001a
0  -1.676368 -0.460894 0.049689  0.185592 -0.076875 0.979615  0.901766 0.348030 0
0  -0.819396 0.821655 0.049689  0.142046 -0.142046 0.979615  0.928860 0.283058 0
0  -1.833854 1.836115 0.590830  0.249552 -0.249552 0.935654  0.998291 0.296653 0
plate001a
0  -0.819396 0.821655 0.049689  0.142046 -0.142046 0.979615  0.928860 0.283058 0
0  0.463155 1.678627 0.049689  0.076875 -0.185592 0.979615  0.928980 0.212704 0
0  -0.085866 3.004082 0.590830  0.135056 -0.326055 0.935654  0.998291 0.198642 0
plate001a
0  -1.676368 -0.460894 0.049689  0.185592 -0.076875 0.979615  0.078813 0.835597 0
0  -1.977297 -1.973764 0.049689  0.198779 -0.039540 0.979246  0.028784 0.785568 0
0  2.102095 -2.099165 0.049689  -0.000000 0.000000 1.000000  0.181166 0.676832 0
plate001a
0  2.102095 -2.099165 0.049689  -0.000000 0.000000 1.000000  0.181166 0.676832 0
0  1.976023 1.979555 0.049689  0.039538 -0.198769 0.979249  0.280295 0.835597 0
0  0.463155 1.678627 0.049689  0.076875 -0.185592 0.979615  0.214930 0.862672 0
plate001a
0  0.463155 1.678627 0.049689  0.076875 -0.185592 0.979615  0.214930 0.862672 0
0  -0.819396 0.821655 0.049689  0.142046 -0.142046 0.979615  0.144178 0.862672 0
0  2.102095 -2.099165 0.049689  -0.000000 0.000000 1.000000  0.181166 0.676832 0
plate001a
0  0.463155 1.678627 0.049689  0.076875 -0.185592 0.979615  0.928980 0.212704 0
0  1.976023 1.979555 0.049689  0.039538 -0.198769 0.979249  0.902114 0.147712 0
0  1.976023 3.414217 0.590830  0.070028 -0.352053 0.933357  0.960708 0.108147 0
plate001a
0  -1.977297 -1.973764 0.049689  0.198779 -0.039540 0.979246  0.851828 0.397705 0
0  -1.676368 -0.460894 0.049689  0.185592 -0.076875 0.979615  0.901766 0.348030 0
0  -3.001823 0.088128 0.590830  0.326055 -0.135057 0.935654  0.960714 0.387204 0
plate001a
0  2.083445 -2.101699 -0.185161  0.996611 0.030625 -0.076350  0.390119 0.777234 0
0  1.976023 2.026236 -0.185161  0.999904 0.013589 0.002701  0.371499 0.587560 0
0  1.976023 1.979555 0.049689  0.999912 0.013206 0.001216  0.382495 0.588648 0
plate001a
0  -2.023977 -1.973764 -0.185161  -0.016059 -0.999865 0.003345  0.430296 0.709064 0
0  2.083445 -2.101699 -0.185161  -0.031129 -0.999428 0.013253  0.448807 0.520313 0
0  2.102095 -2.099165 0.049689  -0.031114 -0.999431 0.012981  0.459680 0.520517 0
end
