// Created by Crowbar 0.19.0.0

$modelname "props_expanded\architecture\doormetal001a_break01.mdl"

$staticprop

$bodygroup "Body"
{
	studio "break01.smd"
}

$noforcedfade

$cdmaterials "models\props_expanded\architecture\"

$surfaceprop "metal"

$contents "solid"


$definebone "door" "" 0 0 0 0 0 89.999982 0 0 0 0 0 0
$definebone "handle" "door" 43.810005 -10.390667 1.997513 0 0 0 0 0 0 0 0 0
$definebone "handle02" "door" 43.810005 -10.390667 1.997513 0 0 0 0 0 0 0 0 0

$sequence "idle" {
	"door01_left_anims\idle.smd"
	activity "ACT_IDLE" 1
	fadein 0.2
	fadeout 0.2
	fps 30
}

$sequence "locked" {
	"door01_left_anims\locked.smd"
	activity "ACT_DOOR_LOCKED" 1
	fadein 0.2
	fadeout 0.2
	fps 30
}

$sequence "openbar" {
	"door01_left_anims\openbar.smd"
	fadein 0.2
	fadeout 0.2
	hidden
	fps 30
}

$sequence "open" {
	"door01_left_anims\open.smd"
	activity "ACT_DOOR_OPEN" 1
	{ event 1 8 "" }
	fadein 0.2
	fadeout 0.2
	fps 30
}

$collisionmodel "break01_physics.smd"
{
	$mass 10
	$inertia 1
	$damping 0
	$rotdamping 0
	$concave

}

$keyvalues
{
	prop_data 
	{
		"base" "Glass.Window"
	}
	door_options 
	{
		"defaults"		 
		{
			"open"			"Doors.FullOpen1"
			"close"			"Doors.FullClose1"
			"move"			"Doors.Move1"
			"surfaceprop"			"metal"

		}
	}
}
