version 1
nodes
0 "root" -1
end
skeleton
time 0
0 0 0 0 0 0 0
end
triangles
phy
0  0.000000 -1.000000 -15.112881  -0.694815 -0.614399 -0.373730  0.375000 0.000000 0
0  0.000000 1.000000 6.882126  -0.666128 0.601398 0.441054  0.625000 0.250000 0
0  0.000000 1.000000 -15.112881  -0.694815 0.614399 -0.373730  0.375000 0.250000 0
phy
0  0.000000 1.000000 -15.112881  -0.694815 0.614399 -0.373730  0.375000 0.250000 0
0  30.000000 1.000000 19.603405  0.457717 0.559130 0.691244  0.625000 0.500000 0
0  30.000000 1.000000 -34.931824  0.394757 0.552690 -0.733940  0.375000 0.500000 0
phy
0  30.000000 1.000000 -34.931824  0.394757 0.552690 -0.733940  0.375000 0.500000 0
0  30.000000 -1.000000 19.603405  0.457717 -0.559130 0.691244  0.625000 0.750000 0
0  30.000000 -1.000000 -34.931824  0.394757 -0.552690 -0.733940  0.375000 0.750000 0
phy
0  30.000000 -1.000000 -34.931824  0.394757 -0.552690 -0.733940  0.375000 0.750000 0
0  0.000000 -1.000000 6.882126  -0.666128 -0.601398 0.441054  0.625000 1.000000 0
0  0.000000 -1.000000 -15.112881  -0.694815 -0.614399 -0.373730  0.375000 1.000000 0
phy
0  0.000000 1.000000 -15.112881  -0.694815 0.614399 -0.373730  0.125000 0.500000 0
0  30.000000 -1.000000 -34.931824  0.394757 -0.552690 -0.733940  0.375000 0.750000 0
0  0.000000 -1.000000 -15.112881  -0.694815 -0.614399 -0.373730  0.125000 0.750000 0
phy
0  30.000000 1.000000 19.603405  0.457717 0.559130 0.691244  0.625000 0.500000 0
0  0.000000 -1.000000 6.882126  -0.666128 -0.601398 0.441054  0.875000 0.750000 0
0  30.000000 -1.000000 19.603405  0.457717 -0.559130 0.691244  0.625000 0.750000 0
phy
0  0.000000 -1.000000 -15.112881  -0.694815 -0.614399 -0.373730  0.375000 0.000000 0
0  0.000000 -1.000000 6.882126  -0.666128 -0.601398 0.441054  0.625000 0.000000 0
0  0.000000 1.000000 6.882126  -0.666128 0.601398 0.441054  0.625000 0.250000 0
phy
0  0.000000 1.000000 -15.112881  -0.694815 0.614399 -0.373730  0.375000 0.250000 0
0  0.000000 1.000000 6.882126  -0.666128 0.601398 0.441054  0.625000 0.250000 0
0  30.000000 1.000000 19.603405  0.457717 0.559130 0.691244  0.625000 0.500000 0
phy
0  30.000000 1.000000 -34.931824  0.394757 0.552690 -0.733940  0.375000 0.500000 0
0  30.000000 1.000000 19.603405  0.457717 0.559130 0.691244  0.625000 0.500000 0
0  30.000000 -1.000000 19.603405  0.457717 -0.559130 0.691244  0.625000 0.750000 0
phy
0  30.000000 -1.000000 -34.931824  0.394757 -0.552690 -0.733940  0.375000 0.750000 0
0  30.000000 -1.000000 19.603405  0.457717 -0.559130 0.691244  0.625000 0.750000 0
0  0.000000 -1.000000 6.882126  -0.666128 -0.601398 0.441054  0.625000 1.000000 0
phy
0  0.000000 1.000000 -15.112881  -0.694815 0.614399 -0.373730  0.125000 0.500000 0
0  30.000000 1.000000 -34.931824  0.394757 0.552690 -0.733940  0.375000 0.500000 0
0  30.000000 -1.000000 -34.931824  0.394757 -0.552690 -0.733940  0.375000 0.750000 0
phy
0  30.000000 1.000000 19.603405  0.457717 0.559130 0.691244  0.625000 0.500000 0
0  0.000000 1.000000 6.882126  -0.666128 0.601398 0.441054  0.875000 0.500000 0
0  0.000000 -1.000000 6.882126  -0.666128 -0.601398 0.441054  0.875000 0.750000 0
end
