version 1
nodes
0 "root" -1
end
skeleton
time 0
0 0 0 0 0 0 0
end
triangles
phy
0  -0.556981 -4.907966 -0.210612  -0.684835 -0.399609 -0.609302  0.375000 0.000000 0
0  -0.556981 2.929909 0.210612  -0.577349 0.577349 0.577349  0.625000 0.250000 0
0  -0.556981 2.929909 -0.210612  -0.577349 0.577349 -0.577349  0.375000 0.250000 0
phy
0  -0.556981 2.929909 -0.210612  -0.577349 0.577349 -0.577349  0.375000 0.250000 0
0  0.556981 2.929909 0.210612  0.577349 0.577349 0.577349  0.625000 0.500000 0
0  0.556981 2.929909 -0.210612  0.577349 0.577349 -0.577349  0.375000 0.500000 0
phy
0  0.556981 2.929909 -0.210612  0.577349 0.577349 -0.577349  0.375000 0.500000 0
0  0.556981 -5.537448 0.210612  0.419233 -0.718436 0.555010  0.625000 0.750000 0
0  0.556981 -5.537448 -0.210612  0.419233 -0.718436 -0.555010  0.375000 0.750000 0
phy
0  0.556981 -5.537448 -0.210612  0.419233 -0.718436 -0.555010  0.375000 0.750000 0
0  -0.556981 -4.907966 0.210612  -0.684835 -0.399609 0.609302  0.625000 1.000000 0
0  -0.556981 -4.907966 -0.210612  -0.684835 -0.399609 -0.609302  0.375000 1.000000 0
phy
0  -0.556981 2.929909 -0.210612  -0.577349 0.577349 -0.577349  0.125000 0.500000 0
0  0.556981 -5.537448 -0.210612  0.419233 -0.718436 -0.555010  0.375000 0.750000 0
0  -0.556981 -4.907966 -0.210612  -0.684835 -0.399609 -0.609302  0.125000 0.750000 0
phy
0  0.556981 2.929909 0.210612  0.577349 0.577349 0.577349  0.625000 0.500000 0
0  -0.556981 -4.907966 0.210612  -0.684835 -0.399609 0.609302  0.875000 0.750000 0
0  0.556981 -5.537448 0.210612  0.419233 -0.718436 0.555010  0.625000 0.750000 0
phy
0  -0.556981 -4.907966 -0.210612  -0.684835 -0.399609 -0.609302  0.375000 0.000000 0
0  -0.556981 -4.907966 0.210612  -0.684835 -0.399609 0.609302  0.625000 0.000000 0
0  -0.556981 2.929909 0.210612  -0.577349 0.577349 0.577349  0.625000 0.250000 0
phy
0  -0.556981 2.929909 -0.210612  -0.577349 0.577349 -0.577349  0.375000 0.250000 0
0  -0.556981 2.929909 0.210612  -0.577349 0.577349 0.577349  0.625000 0.250000 0
0  0.556981 2.929909 0.210612  0.577349 0.577349 0.577349  0.625000 0.500000 0
phy
0  0.556981 2.929909 -0.210612  0.577349 0.577349 -0.577349  0.375000 0.500000 0
0  0.556981 2.929909 0.210612  0.577349 0.577349 0.577349  0.625000 0.500000 0
0  0.556981 -5.537448 0.210612  0.419233 -0.718436 0.555010  0.625000 0.750000 0
phy
0  0.556981 -5.537448 -0.210612  0.419233 -0.718436 -0.555010  0.375000 0.750000 0
0  0.556981 -5.537448 0.210612  0.419233 -0.718436 0.555010  0.625000 0.750000 0
0  -0.556981 -4.907966 0.210612  -0.684835 -0.399609 0.609302  0.625000 1.000000 0
phy
0  -0.556981 2.929909 -0.210612  -0.577349 0.577349 -0.577349  0.125000 0.500000 0
0  0.556981 2.929909 -0.210612  0.577349 0.577349 -0.577349  0.375000 0.500000 0
0  0.556981 -5.537448 -0.210612  0.419233 -0.718436 -0.555010  0.375000 0.750000 0
phy
0  0.556981 2.929909 0.210612  0.577349 0.577349 0.577349  0.625000 0.500000 0
0  -0.556981 2.929909 0.210612  -0.577349 0.577349 0.577349  0.875000 0.500000 0
0  -0.556981 -4.907966 0.210612  -0.684835 -0.399609 0.609302  0.875000 0.750000 0
end
