version 1
nodes
0 "root" -1
end
skeleton
time 0
0 0 0 0 0 0 0
end
triangles
phy
0  -16.000000 -0.509006 -32.000000  -0.577349 -0.577349 -0.577349  0.375000 0.000000 0
0  -16.000000 0.509006 -21.509785  -0.577349 0.577349 0.577349  0.625000 0.250000 0
0  -16.000000 0.509006 -32.000000  -0.577349 0.577349 -0.577349  0.375000 0.250000 0
phy
0  -16.000000 0.509006 -32.000000  -0.577349 0.577349 -0.577349  0.375000 0.250000 0
0  16.000000 0.509006 -21.509785  0.707083 0.707083 0.000000  0.625000 0.500000 0
0  16.000000 0.509006 -32.000000  0.577349 0.577349 -0.577349  0.375000 0.500000 0
phy
0  16.000000 0.509006 -32.000000  0.577349 0.577349 -0.577349  0.375000 0.500000 0
0  16.000000 -0.509006 -21.509785  0.707083 -0.707083 0.000000  0.625000 0.750000 0
0  16.000000 -0.509006 -32.000000  0.577349 -0.577349 -0.577349  0.375000 0.750000 0
phy
0  16.000000 -0.509006 -32.000000  0.577349 -0.577349 -0.577349  0.375000 0.750000 0
0  -16.000000 -0.509006 -21.509785  -0.577349 -0.577349 0.577349  0.625000 1.000000 0
0  -16.000000 -0.509006 -32.000000  -0.577349 -0.577349 -0.577349  0.375000 1.000000 0
phy
0  -16.000000 0.509006 -32.000000  -0.577349 0.577349 -0.577349  0.125000 0.500000 0
0  16.000000 -0.509006 -32.000000  0.577349 -0.577349 -0.577349  0.375000 0.750000 0
0  -16.000000 -0.509006 -32.000000  -0.577349 -0.577349 -0.577349  0.125000 0.750000 0
phy
0  16.000000 0.509006 -21.509785  0.707083 0.707083 0.000000  0.625000 0.500000 0
0  -16.000000 -0.509006 -21.509785  -0.577349 -0.577349 0.577349  0.875000 0.750000 0
0  16.000000 -0.509006 -21.509785  0.707083 -0.707083 0.000000  0.625000 0.750000 0
phy
0  7.285213 -0.509007 32.000000  -0.727012 -0.553728 0.405927  0.375000 0.250000 0
0  16.000000 -0.509005 17.859211  0.229133 -0.541887 -0.808588  0.625000 0.500000 0
0  15.999999 -0.509005 32.000000  0.577349 -0.577349 0.577349  0.375000 0.500000 0
phy
0  4.457555 0.509006 -21.510572  -0.763176 0.548387 -0.341746  0.375000 0.250000 0
0  16.000000 0.509006 -8.581073  0.298654 0.545518 0.783044  0.625000 0.500000 0
0  16.000000 0.509006 -21.509785  0.707083 0.707083 0.000000  0.375000 0.500000 0
phy
0  16.000000 0.509006 -21.509785  0.707083 0.707083 0.000000  0.375000 0.500000 0
0  16.000000 -0.509006 -8.581073  0.298654 -0.545518 0.783044  0.625000 0.750000 0
0  16.000000 -0.509006 -21.509785  0.707083 -0.707083 0.000000  0.375000 0.750000 0
phy
0  16.000000 -0.509006 -21.509785  0.707083 -0.707083 0.000000  0.375000 0.750000 0
0  16.000000 -0.509006 -8.581073  0.298654 -0.545518 0.783044  0.625000 0.750000 0
0  4.457555 -0.509006 -21.510572  -0.763176 -0.548387 -0.341746  0.375000 1.000000 0
phy
0  4.457555 0.509006 -21.510572  -0.763176 0.548387 -0.341746  0.125000 0.500000 0
0  16.000000 -0.509006 -21.509785  0.707083 -0.707083 0.000000  0.375000 0.750000 0
0  4.457555 -0.509006 -21.510572  -0.763176 -0.548387 -0.341746  0.125000 0.750000 0
phy
0  16.000000 0.509006 -8.581073  0.298654 0.545518 0.783044  0.625000 0.500000 0
0  4.457555 -0.509006 -21.510572  -0.763176 -0.548387 -0.341746  0.875000 0.750000 0
0  16.000000 -0.509006 -8.581073  0.298654 -0.545518 0.783044  0.625000 0.750000 0
phy
0  15.999999 -0.509005 32.000000  0.577349 -0.577349 0.577349  0.375000 0.500000 0
0  16.000000 0.509006 17.859211  0.229133 0.541887 -0.808588  0.625000 0.750000 0
0  15.999999 0.509006 32.000000  0.577349 0.577349 0.577349  0.375000 0.750000 0
phy
0  15.999999 0.509006 32.000000  0.577349 0.577349 0.577349  0.375000 0.750000 0
0  16.000000 0.509006 17.859211  0.229133 0.541887 -0.808588  0.625000 0.750000 0
0  7.285213 0.509005 32.000000  -0.727012 0.553728 0.405927  0.375000 1.000000 0
phy
0  7.285213 -0.509007 32.000000  -0.727012 -0.553728 0.405927  0.125000 0.500000 0
0  15.999999 0.509006 32.000000  0.577349 0.577349 0.577349  0.375000 0.750000 0
0  7.285213 0.509005 32.000000  -0.727012 0.553728 0.405927  0.125000 0.750000 0
phy
0  16.000000 -0.509005 17.859211  0.229133 -0.541887 -0.808588  0.625000 0.500000 0
0  7.285213 0.509005 32.000000  -0.727012 0.553728 0.405927  0.875000 0.750000 0
0  16.000000 0.509006 17.859211  0.229133 0.541887 -0.808588  0.625000 0.750000 0
phy
0  0.319908 0.509006 31.999992  0.772576 0.547044 0.322214  0.375000 0.250000 0
0  -16.000000 0.509006 15.518417  -0.318491 0.546770 -0.774316  0.625000 0.500000 0
0  -15.999999 0.509006 31.999996  -0.577349 0.577349 0.577319  0.375000 0.500000 0
phy
0  -15.999999 0.509006 31.999996  -0.577349 0.577349 0.577319  0.375000 0.500000 0
0  -16.000000 -0.509006 15.518429  -0.318491 -0.546770 -0.774316  0.625000 0.750000 0
0  -15.999999 -0.509006 32.000008  -0.577349 -0.577319 0.577349  0.375000 0.750000 0
phy
0  -15.999999 -0.509006 32.000008  -0.577349 -0.577319 0.577349  0.375000 0.750000 0
0  -16.000000 -0.509006 15.518429  -0.318491 -0.546770 -0.774316  0.625000 0.750000 0
0  0.319908 -0.509006 32.000004  0.772576 -0.547014 0.322245  0.375000 1.000000 0
phy
0  0.319908 0.509006 31.999992  0.772576 0.547044 0.322214  0.125000 0.500000 0
0  -15.999999 -0.509006 32.000008  -0.577349 -0.577319 0.577349  0.375000 0.750000 0
0  0.319908 -0.509006 32.000004  0.772576 -0.547014 0.322245  0.125000 0.750000 0
phy
0  -16.000000 0.509006 15.518417  -0.318491 0.546770 -0.774316  0.625000 0.500000 0
0  0.319908 -0.509006 32.000004  0.772576 -0.547014 0.322245  0.875000 0.750000 0
0  -16.000000 -0.509006 15.518429  -0.318491 -0.546770 -0.774316  0.625000 0.750000 0
phy
0  -16.000000 -0.509006 -32.000000  -0.577349 -0.577349 -0.577349  0.375000 0.000000 0
0  -16.000000 -0.509006 -21.509785  -0.577349 -0.577349 0.577349  0.625000 0.000000 0
0  -16.000000 0.509006 -21.509785  -0.577349 0.577349 0.577349  0.625000 0.250000 0
phy
0  -16.000000 0.509006 -32.000000  -0.577349 0.577349 -0.577349  0.375000 0.250000 0
0  -16.000000 0.509006 -21.509785  -0.577349 0.577349 0.577349  0.625000 0.250000 0
0  16.000000 0.509006 -21.509785  0.707083 0.707083 0.000000  0.625000 0.500000 0
phy
0  16.000000 0.509006 -32.000000  0.577349 0.577349 -0.577349  0.375000 0.500000 0
0  16.000000 0.509006 -21.509785  0.707083 0.707083 0.000000  0.625000 0.500000 0
0  16.000000 -0.509006 -21.509785  0.707083 -0.707083 0.000000  0.625000 0.750000 0
phy
0  16.000000 -0.509006 -32.000000  0.577349 -0.577349 -0.577349  0.375000 0.750000 0
0  16.000000 -0.509006 -21.509785  0.707083 -0.707083 0.000000  0.625000 0.750000 0
0  -16.000000 -0.509006 -21.509785  -0.577349 -0.577349 0.577349  0.625000 1.000000 0
phy
0  -16.000000 0.509006 -32.000000  -0.577349 0.577349 -0.577349  0.125000 0.500000 0
0  16.000000 0.509006 -32.000000  0.577349 0.577349 -0.577349  0.375000 0.500000 0
0  16.000000 -0.509006 -32.000000  0.577349 -0.577349 -0.577349  0.375000 0.750000 0
phy
0  16.000000 0.509006 -21.509785  0.707083 0.707083 0.000000  0.625000 0.500000 0
0  -16.000000 0.509006 -21.509785  -0.577349 0.577349 0.577349  0.875000 0.500000 0
0  -16.000000 -0.509006 -21.509785  -0.577349 -0.577349 0.577349  0.875000 0.750000 0
phy
0  16.000000 0.509006 -21.509785  0.707083 0.707083 0.000000  0.375000 0.500000 0
0  16.000000 0.509006 -8.581073  0.298654 0.545518 0.783044  0.625000 0.500000 0
0  16.000000 -0.509006 -8.581073  0.298654 -0.545518 0.783044  0.625000 0.750000 0
phy
0  4.457555 0.509006 -21.510572  -0.763176 0.548387 -0.341746  0.125000 0.500000 0
0  16.000000 0.509006 -21.509785  0.707083 0.707083 0.000000  0.375000 0.500000 0
0  16.000000 -0.509006 -21.509785  0.707083 -0.707083 0.000000  0.375000 0.750000 0
phy
0  16.000000 0.509006 -8.581073  0.298654 0.545518 0.783044  0.625000 0.500000 0
0  4.457555 0.509006 -21.510572  -0.763176 0.548387 -0.341746  0.875000 0.500000 0
0  4.457555 -0.509006 -21.510572  -0.763176 -0.548387 -0.341746  0.875000 0.750000 0
phy
0  15.999999 -0.509005 32.000000  0.577349 -0.577349 0.577349  0.375000 0.500000 0
0  16.000000 -0.509005 17.859211  0.229133 -0.541887 -0.808588  0.625000 0.500000 0
0  16.000000 0.509006 17.859211  0.229133 0.541887 -0.808588  0.625000 0.750000 0
phy
0  7.285213 -0.509007 32.000000  -0.727012 -0.553728 0.405927  0.125000 0.500000 0
0  15.999999 -0.509005 32.000000  0.577349 -0.577349 0.577349  0.375000 0.500000 0
0  15.999999 0.509006 32.000000  0.577349 0.577349 0.577349  0.375000 0.750000 0
phy
0  16.000000 -0.509005 17.859211  0.229133 -0.541887 -0.808588  0.625000 0.500000 0
0  7.285213 -0.509007 32.000000  -0.727012 -0.553728 0.405927  0.875000 0.500000 0
0  7.285213 0.509005 32.000000  -0.727012 0.553728 0.405927  0.875000 0.750000 0
phy
0  -15.999999 0.509006 31.999996  -0.577349 0.577349 0.577319  0.375000 0.500000 0
0  -16.000000 0.509006 15.518417  -0.318491 0.546770 -0.774316  0.625000 0.500000 0
0  -16.000000 -0.509006 15.518429  -0.318491 -0.546770 -0.774316  0.625000 0.750000 0
phy
0  0.319908 0.509006 31.999992  0.772576 0.547044 0.322214  0.125000 0.500000 0
0  -15.999999 0.509006 31.999996  -0.577349 0.577349 0.577319  0.375000 0.500000 0
0  -15.999999 -0.509006 32.000008  -0.577349 -0.577319 0.577349  0.375000 0.750000 0
phy
0  -16.000000 0.509006 15.518417  -0.318491 0.546770 -0.774316  0.625000 0.500000 0
0  0.319908 0.509006 31.999992  0.772576 0.547044 0.322214  0.875000 0.500000 0
0  0.319908 -0.509006 32.000004  0.772576 -0.547014 0.322245  0.875000 0.750000 0
end
