version 1
nodes
0 "root" -1
end
skeleton
time 0
0 0 0 0 0 0 0
end
triangles
phy
0  -16.000000 -0.509006 -32.000000  -0.577349 -0.577349 -0.577349  0.375000 0.000000 0
0  -16.000000 0.509006 -14.184355  -0.577349 0.577349 0.577349  0.625000 0.250000 0
0  -16.000000 0.509006 -32.000000  -0.577349 0.577349 -0.577349  0.375000 0.250000 0
phy
0  -16.000000 0.509006 -32.000000  -0.577349 0.577349 -0.577349  0.375000 0.250000 0
0  16.000000 0.509006 -14.184355  0.577349 0.577349 0.577349  0.625000 0.500000 0
0  16.000000 0.509006 -32.000000  0.577349 0.577349 -0.577349  0.375000 0.500000 0
phy
0  16.000000 0.509006 -32.000000  0.577349 0.577349 -0.577349  0.375000 0.500000 0
0  16.000000 -0.509006 -14.184355  0.577349 -0.577349 0.577349  0.625000 0.750000 0
0  16.000000 -0.509006 -32.000000  0.577349 -0.577349 -0.577349  0.375000 0.750000 0
phy
0  16.000000 -0.509006 -32.000000  0.577349 -0.577349 -0.577349  0.375000 0.750000 0
0  -16.000000 -0.509006 -14.184355  -0.577349 -0.577349 0.577349  0.625000 1.000000 0
0  -16.000000 -0.509006 -32.000000  -0.577349 -0.577349 -0.577349  0.375000 1.000000 0
phy
0  -16.000000 0.509006 -32.000000  -0.577349 0.577349 -0.577349  0.125000 0.500000 0
0  16.000000 -0.509006 -32.000000  0.577349 -0.577349 -0.577349  0.375000 0.750000 0
0  -16.000000 -0.509006 -32.000000  -0.577349 -0.577349 -0.577349  0.125000 0.750000 0
phy
0  16.000000 0.509006 -14.184355  0.577349 0.577349 0.577349  0.625000 0.500000 0
0  -16.000000 -0.509006 -14.184355  -0.577349 -0.577349 0.577349  0.875000 0.750000 0
0  16.000000 -0.509006 -14.184355  0.577349 -0.577349 0.577349  0.625000 0.750000 0
phy
0  -16.000000 -0.509006 23.737703  -0.577349 -0.577349 -0.577349  0.375000 0.000000 0
0  -16.000000 0.509006 32.000000  -0.577349 0.577349 0.577349  0.625000 0.250000 0
0  -16.000000 0.509006 23.737703  -0.577349 0.577349 -0.577349  0.375000 0.250000 0
phy
0  -16.000000 0.509006 23.737703  -0.577349 0.577349 -0.577349  0.375000 0.250000 0
0  16.000000 0.509006 32.000000  0.577349 0.577349 0.577349  0.625000 0.500000 0
0  16.000000 0.509006 23.737703  0.577349 0.577349 -0.577349  0.375000 0.500000 0
phy
0  16.000000 0.509006 23.737703  0.577349 0.577349 -0.577349  0.375000 0.500000 0
0  16.000000 -0.509006 32.000000  0.577349 -0.577349 0.577349  0.625000 0.750000 0
0  16.000000 -0.509006 23.737703  0.577349 -0.577349 -0.577349  0.375000 0.750000 0
phy
0  16.000000 -0.509006 23.737703  0.577349 -0.577349 -0.577349  0.375000 0.750000 0
0  -16.000000 -0.509006 32.000000  -0.577349 -0.577349 0.577349  0.625000 1.000000 0
0  -16.000000 -0.509006 23.737703  -0.577349 -0.577349 -0.577349  0.375000 1.000000 0
phy
0  -16.000000 0.509006 23.737703  -0.577349 0.577349 -0.577349  0.125000 0.500000 0
0  16.000000 -0.509006 23.737703  0.577349 -0.577349 -0.577349  0.375000 0.750000 0
0  -16.000000 -0.509006 23.737703  -0.577349 -0.577349 -0.577349  0.125000 0.750000 0
phy
0  16.000000 0.509006 32.000000  0.577349 0.577349 0.577349  0.625000 0.500000 0
0  -16.000000 -0.509006 32.000000  -0.577349 -0.577349 0.577349  0.875000 0.750000 0
0  16.000000 -0.509006 32.000000  0.577349 -0.577349 0.577349  0.625000 0.750000 0
phy
0  3.133444 -0.509007 23.742180  -0.734489 -0.552599 0.393811  0.375000 0.250000 0
0  16.000000 -0.509005 4.378494  0.242805 -0.542497 -0.804163  0.625000 0.500000 0
0  15.999999 -0.509005 23.742182  0.577349 -0.577349 0.577349  0.375000 0.500000 0
phy
0  -0.140661 0.509006 -14.217132  -0.760155 0.548845 -0.347728  0.375000 0.250000 0
0  16.000000 0.509006 4.457191  0.292459 0.545152 0.785638  0.625000 0.500000 0
0  16.000000 0.509006 -14.217132  0.577349 0.577349 -0.577349  0.375000 0.500000 0
phy
0  16.000000 0.509006 -14.217132  0.577349 0.577349 -0.577349  0.375000 0.500000 0
0  16.000000 -0.509006 4.457191  0.292459 -0.545152 0.785638  0.625000 0.750000 0
0  16.000000 -0.509006 -14.217132  0.577349 -0.577349 -0.577349  0.375000 0.750000 0
phy
0  16.000000 -0.509006 -14.217132  0.577349 -0.577349 -0.577349  0.375000 0.750000 0
0  16.000000 -0.509006 4.457191  0.292459 -0.545152 0.785638  0.625000 0.750000 0
0  -0.140661 -0.509006 -14.217132  -0.760155 -0.548845 -0.347728  0.375000 1.000000 0
phy
0  -0.140661 0.509006 -14.217132  -0.760155 0.548845 -0.347728  0.125000 0.500000 0
0  16.000000 -0.509006 -14.217132  0.577349 -0.577349 -0.577349  0.375000 0.750000 0
0  -0.140661 -0.509006 -14.217132  -0.760155 -0.548845 -0.347728  0.125000 0.750000 0
phy
0  16.000000 0.509006 4.457191  0.292459 0.545152 0.785638  0.625000 0.500000 0
0  -0.140661 -0.509006 -14.217132  -0.760155 -0.548845 -0.347728  0.875000 0.750000 0
0  16.000000 -0.509006 4.457191  0.292459 -0.545152 0.785638  0.625000 0.750000 0
phy
0  15.999999 -0.509005 23.742182  0.577349 -0.577349 0.577349  0.375000 0.500000 0
0  16.000000 0.509006 4.378494  0.242805 0.542497 -0.804163  0.625000 0.750000 0
0  15.999999 0.509006 23.742182  0.577349 0.577349 0.577349  0.375000 0.750000 0
phy
0  15.999999 0.509006 23.742182  0.577349 0.577349 0.577349  0.375000 0.750000 0
0  16.000000 0.509006 4.378494  0.242805 0.542497 -0.804163  0.625000 0.750000 0
0  3.133444 0.509005 23.742180  -0.734489 0.552599 0.393811  0.375000 1.000000 0
phy
0  3.133444 -0.509007 23.742180  -0.734489 -0.552599 0.393811  0.125000 0.500000 0
0  15.999999 0.509006 23.742182  0.577349 0.577349 0.577349  0.375000 0.750000 0
0  3.133444 0.509005 23.742180  -0.734489 0.552599 0.393811  0.125000 0.750000 0
phy
0  16.000000 -0.509005 4.378494  0.242805 -0.542497 -0.804163  0.625000 0.500000 0
0  3.133444 0.509005 23.742180  -0.734489 0.552599 0.393811  0.875000 0.750000 0
0  16.000000 0.509006 4.378494  0.242805 0.542497 -0.804163  0.625000 0.750000 0
phy
0  -5.573124 0.509006 23.733213  0.742485 0.551439 0.380261  0.375000 0.250000 0
0  -16.000000 0.509006 9.253515  -0.257729 0.543229 -0.799005  0.625000 0.500000 0
0  -15.999999 0.509006 23.733215  -0.577349 0.577349 0.577319  0.375000 0.500000 0
phy
0  -15.999999 0.509006 23.733215  -0.577349 0.577349 0.577319  0.375000 0.500000 0
0  -16.000000 -0.509006 9.253527  -0.257729 -0.543260 -0.799005  0.625000 0.750000 0
0  -15.999999 -0.509006 23.733227  -0.577349 -0.577319 0.577349  0.375000 0.750000 0
phy
0  -15.999999 -0.509006 23.733227  -0.577349 -0.577319 0.577349  0.375000 0.750000 0
0  -16.000000 -0.509006 9.253527  -0.257729 -0.543260 -0.799005  0.625000 0.750000 0
0  -5.573124 -0.509006 23.733225  0.742485 -0.551408 0.380291  0.375000 1.000000 0
phy
0  -5.573124 0.509006 23.733213  0.742485 0.551439 0.380261  0.125000 0.500000 0
0  -15.999999 -0.509006 23.733227  -0.577349 -0.577319 0.577349  0.375000 0.750000 0
0  -5.573124 -0.509006 23.733225  0.742485 -0.551408 0.380291  0.125000 0.750000 0
phy
0  -16.000000 0.509006 9.253515  -0.257729 0.543229 -0.799005  0.625000 0.500000 0
0  -5.573124 -0.509006 23.733225  0.742485 -0.551408 0.380291  0.875000 0.750000 0
0  -16.000000 -0.509006 9.253527  -0.257729 -0.543260 -0.799005  0.625000 0.750000 0
phy
0  0.149850 -0.509007 -14.221340  0.825770 -0.539476 -0.164342  0.375000 0.250000 0
0  -16.000000 -0.509005 -7.527058  -0.460402 -0.559435 0.689230  0.625000 0.500000 0
0  -16.000000 -0.509005 -14.221340  -0.577349 -0.577349 -0.577349  0.375000 0.500000 0
phy
0  -16.000000 -0.509005 -14.221340  -0.577349 -0.577349 -0.577349  0.375000 0.500000 0
0  -16.000000 0.509006 -7.527058  -0.460402 0.559435 0.689230  0.625000 0.750000 0
0  -16.000000 0.509006 -14.221340  -0.577349 0.577349 -0.577349  0.375000 0.750000 0
phy
0  -16.000000 0.509006 -14.221340  -0.577349 0.577349 -0.577349  0.375000 0.750000 0
0  -16.000000 0.509006 -7.527058  -0.460402 0.559435 0.689230  0.625000 0.750000 0
0  0.149850 0.509005 -14.221340  0.825770 0.539476 -0.164342  0.375000 1.000000 0
phy
0  0.149850 -0.509007 -14.221340  0.825770 -0.539476 -0.164342  0.125000 0.500000 0
0  -16.000000 0.509006 -14.221340  -0.577349 0.577349 -0.577349  0.375000 0.750000 0
0  0.149850 0.509005 -14.221340  0.825770 0.539476 -0.164342  0.125000 0.750000 0
phy
0  -16.000000 -0.509005 -7.527058  -0.460402 -0.559435 0.689230  0.625000 0.500000 0
0  0.149850 0.509005 -14.221340  0.825770 0.539476 -0.164342  0.875000 0.750000 0
0  -16.000000 0.509006 -7.527058  -0.460402 0.559435 0.689230  0.625000 0.750000 0
phy
0  -16.000000 -0.509006 -32.000000  -0.577349 -0.577349 -0.577349  0.375000 0.000000 0
0  -16.000000 -0.509006 -14.184355  -0.577349 -0.577349 0.577349  0.625000 0.000000 0
0  -16.000000 0.509006 -14.184355  -0.577349 0.577349 0.577349  0.625000 0.250000 0
phy
0  -16.000000 0.509006 -32.000000  -0.577349 0.577349 -0.577349  0.375000 0.250000 0
0  -16.000000 0.509006 -14.184355  -0.577349 0.577349 0.577349  0.625000 0.250000 0
0  16.000000 0.509006 -14.184355  0.577349 0.577349 0.577349  0.625000 0.500000 0
phy
0  16.000000 0.509006 -32.000000  0.577349 0.577349 -0.577349  0.375000 0.500000 0
0  16.000000 0.509006 -14.184355  0.577349 0.577349 0.577349  0.625000 0.500000 0
0  16.000000 -0.509006 -14.184355  0.577349 -0.577349 0.577349  0.625000 0.750000 0
phy
0  16.000000 -0.509006 -32.000000  0.577349 -0.577349 -0.577349  0.375000 0.750000 0
0  16.000000 -0.509006 -14.184355  0.577349 -0.577349 0.577349  0.625000 0.750000 0
0  -16.000000 -0.509006 -14.184355  -0.577349 -0.577349 0.577349  0.625000 1.000000 0
phy
0  -16.000000 0.509006 -32.000000  -0.577349 0.577349 -0.577349  0.125000 0.500000 0
0  16.000000 0.509006 -32.000000  0.577349 0.577349 -0.577349  0.375000 0.500000 0
0  16.000000 -0.509006 -32.000000  0.577349 -0.577349 -0.577349  0.375000 0.750000 0
phy
0  16.000000 0.509006 -14.184355  0.577349 0.577349 0.577349  0.625000 0.500000 0
0  -16.000000 0.509006 -14.184355  -0.577349 0.577349 0.577349  0.875000 0.500000 0
0  -16.000000 -0.509006 -14.184355  -0.577349 -0.577349 0.577349  0.875000 0.750000 0
phy
0  -16.000000 -0.509006 23.737703  -0.577349 -0.577349 -0.577349  0.375000 0.000000 0
0  -16.000000 -0.509006 32.000000  -0.577349 -0.577349 0.577349  0.625000 0.000000 0
0  -16.000000 0.509006 32.000000  -0.577349 0.577349 0.577349  0.625000 0.250000 0
phy
0  -16.000000 0.509006 23.737703  -0.577349 0.577349 -0.577349  0.375000 0.250000 0
0  -16.000000 0.509006 32.000000  -0.577349 0.577349 0.577349  0.625000 0.250000 0
0  16.000000 0.509006 32.000000  0.577349 0.577349 0.577349  0.625000 0.500000 0
phy
0  16.000000 0.509006 23.737703  0.577349 0.577349 -0.577349  0.375000 0.500000 0
0  16.000000 0.509006 32.000000  0.577349 0.577349 0.577349  0.625000 0.500000 0
0  16.000000 -0.509006 32.000000  0.577349 -0.577349 0.577349  0.625000 0.750000 0
phy
0  16.000000 -0.509006 23.737703  0.577349 -0.577349 -0.577349  0.375000 0.750000 0
0  16.000000 -0.509006 32.000000  0.577349 -0.577349 0.577349  0.625000 0.750000 0
0  -16.000000 -0.509006 32.000000  -0.577349 -0.577349 0.577349  0.625000 1.000000 0
phy
0  -16.000000 0.509006 23.737703  -0.577349 0.577349 -0.577349  0.125000 0.500000 0
0  16.000000 0.509006 23.737703  0.577349 0.577349 -0.577349  0.375000 0.500000 0
0  16.000000 -0.509006 23.737703  0.577349 -0.577349 -0.577349  0.375000 0.750000 0
phy
0  16.000000 0.509006 32.000000  0.577349 0.577349 0.577349  0.625000 0.500000 0
0  -16.000000 0.509006 32.000000  -0.577349 0.577349 0.577349  0.875000 0.500000 0
0  -16.000000 -0.509006 32.000000  -0.577349 -0.577349 0.577349  0.875000 0.750000 0
phy
0  16.000000 0.509006 -14.217132  0.577349 0.577349 -0.577349  0.375000 0.500000 0
0  16.000000 0.509006 4.457191  0.292459 0.545152 0.785638  0.625000 0.500000 0
0  16.000000 -0.509006 4.457191  0.292459 -0.545152 0.785638  0.625000 0.750000 0
phy
0  -0.140661 0.509006 -14.217132  -0.760155 0.548845 -0.347728  0.125000 0.500000 0
0  16.000000 0.509006 -14.217132  0.577349 0.577349 -0.577349  0.375000 0.500000 0
0  16.000000 -0.509006 -14.217132  0.577349 -0.577349 -0.577349  0.375000 0.750000 0
phy
0  16.000000 0.509006 4.457191  0.292459 0.545152 0.785638  0.625000 0.500000 0
0  -0.140661 0.509006 -14.217132  -0.760155 0.548845 -0.347728  0.875000 0.500000 0
0  -0.140661 -0.509006 -14.217132  -0.760155 -0.548845 -0.347728  0.875000 0.750000 0
phy
0  15.999999 -0.509005 23.742182  0.577349 -0.577349 0.577349  0.375000 0.500000 0
0  16.000000 -0.509005 4.378494  0.242805 -0.542497 -0.804163  0.625000 0.500000 0
0  16.000000 0.509006 4.378494  0.242805 0.542497 -0.804163  0.625000 0.750000 0
phy
0  3.133444 -0.509007 23.742180  -0.734489 -0.552599 0.393811  0.125000 0.500000 0
0  15.999999 -0.509005 23.742182  0.577349 -0.577349 0.577349  0.375000 0.500000 0
0  15.999999 0.509006 23.742182  0.577349 0.577349 0.577349  0.375000 0.750000 0
phy
0  16.000000 -0.509005 4.378494  0.242805 -0.542497 -0.804163  0.625000 0.500000 0
0  3.133444 -0.509007 23.742180  -0.734489 -0.552599 0.393811  0.875000 0.500000 0
0  3.133444 0.509005 23.742180  -0.734489 0.552599 0.393811  0.875000 0.750000 0
phy
0  -15.999999 0.509006 23.733215  -0.577349 0.577349 0.577319  0.375000 0.500000 0
0  -16.000000 0.509006 9.253515  -0.257729 0.543229 -0.799005  0.625000 0.500000 0
0  -16.000000 -0.509006 9.253527  -0.257729 -0.543260 -0.799005  0.625000 0.750000 0
phy
0  -5.573124 0.509006 23.733213  0.742485 0.551439 0.380261  0.125000 0.500000 0
0  -15.999999 0.509006 23.733215  -0.577349 0.577349 0.577319  0.375000 0.500000 0
0  -15.999999 -0.509006 23.733227  -0.577349 -0.577319 0.577349  0.375000 0.750000 0
phy
0  -16.000000 0.509006 9.253515  -0.257729 0.543229 -0.799005  0.625000 0.500000 0
0  -5.573124 0.509006 23.733213  0.742485 0.551439 0.380261  0.875000 0.500000 0
0  -5.573124 -0.509006 23.733225  0.742485 -0.551408 0.380291  0.875000 0.750000 0
phy
0  -16.000000 -0.509005 -14.221340  -0.577349 -0.577349 -0.577349  0.375000 0.500000 0
0  -16.000000 -0.509005 -7.527058  -0.460402 -0.559435 0.689230  0.625000 0.500000 0
0  -16.000000 0.509006 -7.527058  -0.460402 0.559435 0.689230  0.625000 0.750000 0
phy
0  0.149850 -0.509007 -14.221340  0.825770 -0.539476 -0.164342  0.125000 0.500000 0
0  -16.000000 -0.509005 -14.221340  -0.577349 -0.577349 -0.577349  0.375000 0.500000 0
0  -16.000000 0.509006 -14.221340  -0.577349 0.577349 -0.577349  0.375000 0.750000 0
phy
0  -16.000000 -0.509005 -7.527058  -0.460402 -0.559435 0.689230  0.625000 0.500000 0
0  0.149850 -0.509007 -14.221340  0.825770 -0.539476 -0.164342  0.875000 0.500000 0
0  0.149850 0.509005 -14.221340  0.825770 0.539476 -0.164342  0.875000 0.750000 0
end
