version 1
nodes
0 "root" -1
end
skeleton
time 0
0 0 0 0 0 0 0
end
triangles
phy
0  -16.000000 -0.509006 -32.000000  -0.577349 -0.577349 -0.577349  0.375000 0.000000 0
0  -16.000000 0.509006 -4.523502  -0.577349 0.577349 0.577349  0.625000 0.250000 0
0  -16.000000 0.509006 -32.000000  -0.577349 0.577349 -0.577349  0.375000 0.250000 0
phy
0  -16.000000 0.509006 -32.000000  -0.577349 0.577349 -0.577349  0.375000 0.250000 0
0  16.000000 0.509006 -4.523502  0.577349 0.577349 0.577349  0.625000 0.500000 0
0  16.000000 0.509006 -32.000000  0.577349 0.577349 -0.577349  0.375000 0.500000 0
phy
0  16.000000 0.509006 -32.000000  0.577349 0.577349 -0.577349  0.375000 0.500000 0
0  16.000000 -0.509006 -4.523502  0.577349 -0.577349 0.577349  0.625000 0.750000 0
0  16.000000 -0.509006 -32.000000  0.577349 -0.577349 -0.577349  0.375000 0.750000 0
phy
0  16.000000 -0.509006 -32.000000  0.577349 -0.577349 -0.577349  0.375000 0.750000 0
0  -16.000000 -0.509006 -4.523502  -0.577349 -0.577349 0.577349  0.625000 1.000000 0
0  -16.000000 -0.509006 -32.000000  -0.577349 -0.577349 -0.577349  0.375000 1.000000 0
phy
0  -16.000000 0.509006 -32.000000  -0.577349 0.577349 -0.577349  0.125000 0.500000 0
0  16.000000 -0.509006 -32.000000  0.577349 -0.577349 -0.577349  0.375000 0.750000 0
0  -16.000000 -0.509006 -32.000000  -0.577349 -0.577349 -0.577349  0.125000 0.750000 0
phy
0  16.000000 0.509006 -4.523502  0.577349 0.577349 0.577349  0.625000 0.500000 0
0  -16.000000 -0.509006 -4.523502  -0.577349 -0.577349 0.577349  0.875000 0.750000 0
0  16.000000 -0.509006 -4.523502  0.577349 -0.577349 0.577349  0.625000 0.750000 0
phy
0  -16.000000 -0.509006 17.078091  -0.577349 -0.577349 -0.577349  0.375000 0.000000 0
0  -16.000000 0.509006 32.000000  -0.577349 0.577349 0.577349  0.625000 0.250000 0
0  -16.000000 0.509006 17.078091  -0.577349 0.577349 -0.577349  0.375000 0.250000 0
phy
0  -16.000000 0.509006 17.078091  -0.577349 0.577349 -0.577349  0.375000 0.250000 0
0  16.000000 0.509006 32.000000  0.577349 0.577349 0.577349  0.625000 0.500000 0
0  16.000000 0.509006 17.078091  0.577349 0.577349 -0.577349  0.375000 0.500000 0
phy
0  16.000000 0.509006 17.078091  0.577349 0.577349 -0.577349  0.375000 0.500000 0
0  16.000000 -0.509006 32.000000  0.577349 -0.577349 0.577349  0.625000 0.750000 0
0  16.000000 -0.509006 17.078091  0.577349 -0.577349 -0.577349  0.375000 0.750000 0
phy
0  16.000000 -0.509006 17.078091  0.577349 -0.577349 -0.577349  0.375000 0.750000 0
0  -16.000000 -0.509006 32.000000  -0.577349 -0.577349 0.577349  0.625000 1.000000 0
0  -16.000000 -0.509006 17.078091  -0.577349 -0.577349 -0.577349  0.375000 1.000000 0
phy
0  -16.000000 0.509006 17.078091  -0.577349 0.577349 -0.577349  0.125000 0.500000 0
0  16.000000 -0.509006 17.078091  0.577349 -0.577349 -0.577349  0.375000 0.750000 0
0  -16.000000 -0.509006 17.078091  -0.577349 -0.577349 -0.577349  0.125000 0.750000 0
phy
0  16.000000 0.509006 32.000000  0.577349 0.577349 0.577349  0.625000 0.500000 0
0  -16.000000 -0.509006 32.000000  -0.577349 -0.577349 0.577349  0.875000 0.750000 0
0  16.000000 -0.509006 32.000000  0.577349 -0.577349 0.577349  0.625000 0.750000 0
phy
0  8.053202 -0.509006 -4.745171  -0.577349 -0.577349 -0.577349  0.375000 0.000000 0
0  8.053202 0.509006 17.172855  -0.577349 0.577349 0.577349  0.625000 0.250000 0
0  8.053202 0.509006 -4.745171  -0.577349 0.577349 -0.577349  0.375000 0.250000 0
phy
0  8.053202 0.509006 -4.745171  -0.577349 0.577349 -0.577349  0.375000 0.250000 0
0  16.000000 0.509006 17.172855  0.577349 0.577349 0.577349  0.625000 0.500000 0
0  16.000000 0.509006 -4.745171  0.577349 0.577349 -0.577349  0.375000 0.500000 0
phy
0  16.000000 0.509006 -4.745171  0.577349 0.577349 -0.577349  0.375000 0.500000 0
0  16.000000 -0.509006 17.172855  0.577349 -0.577349 0.577349  0.625000 0.750000 0
0  16.000000 -0.509006 -4.745171  0.577349 -0.577349 -0.577349  0.375000 0.750000 0
phy
0  16.000000 -0.509006 -4.745171  0.577349 -0.577349 -0.577349  0.375000 0.750000 0
0  8.053202 -0.509006 17.172855  -0.577349 -0.577349 0.577349  0.625000 1.000000 0
0  8.053202 -0.509006 -4.745171  -0.577349 -0.577349 -0.577349  0.375000 1.000000 0
phy
0  8.053202 0.509006 -4.745171  -0.577349 0.577349 -0.577349  0.125000 0.500000 0
0  16.000000 -0.509006 -4.745171  0.577349 -0.577349 -0.577349  0.375000 0.750000 0
0  8.053202 -0.509006 -4.745171  -0.577349 -0.577349 -0.577349  0.125000 0.750000 0
phy
0  16.000000 0.509006 17.172855  0.577349 0.577349 0.577349  0.625000 0.500000 0
0  8.053202 -0.509006 17.172855  -0.577349 -0.577349 0.577349  0.875000 0.750000 0
0  16.000000 -0.509006 17.172855  0.577349 -0.577349 0.577349  0.625000 0.750000 0
phy
0  3.077908 -0.509007 17.145107  -0.713431 -0.555773 0.426740  0.375000 0.250000 0
0  8.137609 -0.509005 7.719350  0.205084 -0.540880 -0.815668  0.625000 0.500000 0
0  8.137607 -0.509005 17.145109  0.577349 -0.577349 0.577349  0.375000 0.500000 0
phy
0  0.612155 0.509006 -4.745171  -0.722922 0.554338 -0.412366  0.375000 0.250000 0
0  8.137606 0.509006 7.980976  0.221778 0.541581 0.810846  0.625000 0.500000 0
0  8.137606 0.509006 -4.745171  0.577349 0.577349 -0.577349  0.375000 0.500000 0
phy
0  8.137606 0.509006 -4.745171  0.577349 0.577349 -0.577349  0.375000 0.500000 0
0  8.137606 -0.509006 7.980976  0.221778 -0.541581 0.810846  0.625000 0.750000 0
0  8.137606 -0.509006 -4.745171  0.577349 -0.577349 -0.577349  0.375000 0.750000 0
phy
0  8.137606 -0.509006 -4.745171  0.577349 -0.577349 -0.577349  0.375000 0.750000 0
0  8.137606 -0.509006 7.980976  0.221778 -0.541581 0.810846  0.625000 0.750000 0
0  0.612155 -0.509006 -4.745171  -0.722922 -0.554338 -0.412366  0.375000 1.000000 0
phy
0  0.612155 0.509006 -4.745171  -0.722922 0.554338 -0.412366  0.125000 0.500000 0
0  8.137606 -0.509006 -4.745171  0.577349 -0.577349 -0.577349  0.375000 0.750000 0
0  0.612155 -0.509006 -4.745171  -0.722922 -0.554338 -0.412366  0.125000 0.750000 0
phy
0  8.137606 0.509006 7.980976  0.221778 0.541581 0.810846  0.625000 0.500000 0
0  0.612155 -0.509006 -4.745171  -0.722922 -0.554338 -0.412366  0.875000 0.750000 0
0  8.137606 -0.509006 7.980976  0.221778 -0.541581 0.810846  0.625000 0.750000 0
phy
0  8.137607 -0.509005 17.145109  0.577349 -0.577349 0.577349  0.375000 0.500000 0
0  8.137609 0.509006 7.719350  0.205084 0.540880 -0.815668  0.625000 0.750000 0
0  8.137607 0.509006 17.145109  0.577349 0.577349 0.577349  0.375000 0.750000 0
phy
0  8.137607 0.509006 17.145109  0.577349 0.577349 0.577349  0.375000 0.750000 0
0  8.137609 0.509006 7.719350  0.205084 0.540880 -0.815668  0.625000 0.750000 0
0  3.077908 0.509005 17.145107  -0.713431 0.555773 0.426740  0.375000 1.000000 0
phy
0  3.077908 -0.509007 17.145107  -0.713431 -0.555773 0.426740  0.125000 0.500000 0
0  8.137607 0.509006 17.145109  0.577349 0.577349 0.577349  0.375000 0.750000 0
0  3.077908 0.509005 17.145107  -0.713431 0.555773 0.426740  0.125000 0.750000 0
phy
0  8.137609 -0.509005 7.719350  0.205084 -0.540880 -0.815668  0.625000 0.500000 0
0  3.077908 0.509005 17.145107  -0.713431 0.555773 0.426740  0.875000 0.750000 0
0  8.137609 0.509006 7.719350  0.205084 0.540880 -0.815668  0.625000 0.750000 0
phy
0  -5.573124 0.509006 17.145107  0.727012 0.553728 0.405927  0.375000 0.250000 0
0  -16.000000 0.509006 0.226275  -0.229133 0.541887 -0.808588  0.625000 0.500000 0
0  -15.999999 0.509006 17.145109  -0.577349 0.577349 0.577319  0.375000 0.500000 0
phy
0  -15.999999 0.509006 17.145109  -0.577349 0.577349 0.577319  0.375000 0.500000 0
0  -16.000000 -0.509006 0.226286  -0.229133 -0.541887 -0.808588  0.625000 0.750000 0
0  -15.999999 -0.509006 17.145121  -0.577349 -0.577319 0.577349  0.375000 0.750000 0
phy
0  -15.999999 -0.509006 17.145121  -0.577349 -0.577319 0.577349  0.375000 0.750000 0
0  -16.000000 -0.509006 0.226286  -0.229133 -0.541887 -0.808588  0.625000 0.750000 0
0  -5.573124 -0.509006 17.145119  0.727012 -0.553728 0.405927  0.375000 1.000000 0
phy
0  -5.573124 0.509006 17.145107  0.727012 0.553728 0.405927  0.125000 0.500000 0
0  -15.999999 -0.509006 17.145121  -0.577349 -0.577319 0.577349  0.375000 0.750000 0
0  -5.573124 -0.509006 17.145119  0.727012 -0.553728 0.405927  0.125000 0.750000 0
phy
0  -16.000000 0.509006 0.226275  -0.229133 0.541887 -0.808588  0.625000 0.500000 0
0  -5.573124 -0.509006 17.145119  0.727012 -0.553728 0.405927  0.875000 0.750000 0
0  -16.000000 -0.509006 0.226286  -0.229133 -0.541887 -0.808588  0.625000 0.750000 0
phy
0  0.870766 -0.509007 -4.745171  0.833949 -0.538347 -0.121189  0.375000 0.250000 0
0  -16.000000 -0.509005 0.264129  -0.493973 -0.563646 0.661977  0.625000 0.500000 0
0  -16.000000 -0.509005 -4.745171  -0.577349 -0.577349 -0.577349  0.375000 0.500000 0
phy
0  -16.000000 -0.509005 -4.745171  -0.577349 -0.577349 -0.577349  0.375000 0.500000 0
0  -16.000000 0.509006 0.264129  -0.493973 0.563646 0.661977  0.625000 0.750000 0
0  -16.000000 0.509006 -4.745171  -0.577349 0.577349 -0.577349  0.375000 0.750000 0
phy
0  -16.000000 0.509006 -4.745171  -0.577349 0.577349 -0.577349  0.375000 0.750000 0
0  -16.000000 0.509006 0.264129  -0.493973 0.563646 0.661977  0.625000 0.750000 0
0  0.870766 0.509005 -4.745171  0.833949 0.538347 -0.121189  0.375000 1.000000 0
phy
0  0.870766 -0.509007 -4.745171  0.833949 -0.538347 -0.121189  0.125000 0.500000 0
0  -16.000000 0.509006 -4.745171  -0.577349 0.577349 -0.577349  0.375000 0.750000 0
0  0.870766 0.509005 -4.745171  0.833949 0.538347 -0.121189  0.125000 0.750000 0
phy
0  -16.000000 -0.509005 0.264129  -0.493973 -0.563646 0.661977  0.625000 0.500000 0
0  0.870766 0.509005 -4.745171  0.833949 0.538347 -0.121189  0.875000 0.750000 0
0  -16.000000 0.509006 0.264129  -0.493973 0.563646 0.661977  0.625000 0.750000 0
phy
0  -16.000000 -0.509006 -32.000000  -0.577349 -0.577349 -0.577349  0.375000 0.000000 0
0  -16.000000 -0.509006 -4.523502  -0.577349 -0.577349 0.577349  0.625000 0.000000 0
0  -16.000000 0.509006 -4.523502  -0.577349 0.577349 0.577349  0.625000 0.250000 0
phy
0  -16.000000 0.509006 -32.000000  -0.577349 0.577349 -0.577349  0.375000 0.250000 0
0  -16.000000 0.509006 -4.523502  -0.577349 0.577349 0.577349  0.625000 0.250000 0
0  16.000000 0.509006 -4.523502  0.577349 0.577349 0.577349  0.625000 0.500000 0
phy
0  16.000000 0.509006 -32.000000  0.577349 0.577349 -0.577349  0.375000 0.500000 0
0  16.000000 0.509006 -4.523502  0.577349 0.577349 0.577349  0.625000 0.500000 0
0  16.000000 -0.509006 -4.523502  0.577349 -0.577349 0.577349  0.625000 0.750000 0
phy
0  16.000000 -0.509006 -32.000000  0.577349 -0.577349 -0.577349  0.375000 0.750000 0
0  16.000000 -0.509006 -4.523502  0.577349 -0.577349 0.577349  0.625000 0.750000 0
0  -16.000000 -0.509006 -4.523502  -0.577349 -0.577349 0.577349  0.625000 1.000000 0
phy
0  -16.000000 0.509006 -32.000000  -0.577349 0.577349 -0.577349  0.125000 0.500000 0
0  16.000000 0.509006 -32.000000  0.577349 0.577349 -0.577349  0.375000 0.500000 0
0  16.000000 -0.509006 -32.000000  0.577349 -0.577349 -0.577349  0.375000 0.750000 0
phy
0  16.000000 0.509006 -4.523502  0.577349 0.577349 0.577349  0.625000 0.500000 0
0  -16.000000 0.509006 -4.523502  -0.577349 0.577349 0.577349  0.875000 0.500000 0
0  -16.000000 -0.509006 -4.523502  -0.577349 -0.577349 0.577349  0.875000 0.750000 0
phy
0  -16.000000 -0.509006 17.078091  -0.577349 -0.577349 -0.577349  0.375000 0.000000 0
0  -16.000000 -0.509006 32.000000  -0.577349 -0.577349 0.577349  0.625000 0.000000 0
0  -16.000000 0.509006 32.000000  -0.577349 0.577349 0.577349  0.625000 0.250000 0
phy
0  -16.000000 0.509006 17.078091  -0.577349 0.577349 -0.577349  0.375000 0.250000 0
0  -16.000000 0.509006 32.000000  -0.577349 0.577349 0.577349  0.625000 0.250000 0
0  16.000000 0.509006 32.000000  0.577349 0.577349 0.577349  0.625000 0.500000 0
phy
0  16.000000 0.509006 17.078091  0.577349 0.577349 -0.577349  0.375000 0.500000 0
0  16.000000 0.509006 32.000000  0.577349 0.577349 0.577349  0.625000 0.500000 0
0  16.000000 -0.509006 32.000000  0.577349 -0.577349 0.577349  0.625000 0.750000 0
phy
0  16.000000 -0.509006 17.078091  0.577349 -0.577349 -0.577349  0.375000 0.750000 0
0  16.000000 -0.509006 32.000000  0.577349 -0.577349 0.577349  0.625000 0.750000 0
0  -16.000000 -0.509006 32.000000  -0.577349 -0.577349 0.577349  0.625000 1.000000 0
phy
0  -16.000000 0.509006 17.078091  -0.577349 0.577349 -0.577349  0.125000 0.500000 0
0  16.000000 0.509006 17.078091  0.577349 0.577349 -0.577349  0.375000 0.500000 0
0  16.000000 -0.509006 17.078091  0.577349 -0.577349 -0.577349  0.375000 0.750000 0
phy
0  16.000000 0.509006 32.000000  0.577349 0.577349 0.577349  0.625000 0.500000 0
0  -16.000000 0.509006 32.000000  -0.577349 0.577349 0.577349  0.875000 0.500000 0
0  -16.000000 -0.509006 32.000000  -0.577349 -0.577349 0.577349  0.875000 0.750000 0
phy
0  8.053202 -0.509006 -4.745171  -0.577349 -0.577349 -0.577349  0.375000 0.000000 0
0  8.053202 -0.509006 17.172855  -0.577349 -0.577349 0.577349  0.625000 0.000000 0
0  8.053202 0.509006 17.172855  -0.577349 0.577349 0.577349  0.625000 0.250000 0
phy
0  8.053202 0.509006 -4.745171  -0.577349 0.577349 -0.577349  0.375000 0.250000 0
0  8.053202 0.509006 17.172855  -0.577349 0.577349 0.577349  0.625000 0.250000 0
0  16.000000 0.509006 17.172855  0.577349 0.577349 0.577349  0.625000 0.500000 0
phy
0  16.000000 0.509006 -4.745171  0.577349 0.577349 -0.577349  0.375000 0.500000 0
0  16.000000 0.509006 17.172855  0.577349 0.577349 0.577349  0.625000 0.500000 0
0  16.000000 -0.509006 17.172855  0.577349 -0.577349 0.577349  0.625000 0.750000 0
phy
0  16.000000 -0.509006 -4.745171  0.577349 -0.577349 -0.577349  0.375000 0.750000 0
0  16.000000 -0.509006 17.172855  0.577349 -0.577349 0.577349  0.625000 0.750000 0
0  8.053202 -0.509006 17.172855  -0.577349 -0.577349 0.577349  0.625000 1.000000 0
phy
0  8.053202 0.509006 -4.745171  -0.577349 0.577349 -0.577349  0.125000 0.500000 0
0  16.000000 0.509006 -4.745171  0.577349 0.577349 -0.577349  0.375000 0.500000 0
0  16.000000 -0.509006 -4.745171  0.577349 -0.577349 -0.577349  0.375000 0.750000 0
phy
0  16.000000 0.509006 17.172855  0.577349 0.577349 0.577349  0.625000 0.500000 0
0  8.053202 0.509006 17.172855  -0.577349 0.577349 0.577349  0.875000 0.500000 0
0  8.053202 -0.509006 17.172855  -0.577349 -0.577349 0.577349  0.875000 0.750000 0
phy
0  8.137606 0.509006 -4.745171  0.577349 0.577349 -0.577349  0.375000 0.500000 0
0  8.137606 0.509006 7.980976  0.221778 0.541581 0.810846  0.625000 0.500000 0
0  8.137606 -0.509006 7.980976  0.221778 -0.541581 0.810846  0.625000 0.750000 0
phy
0  0.612155 0.509006 -4.745171  -0.722922 0.554338 -0.412366  0.125000 0.500000 0
0  8.137606 0.509006 -4.745171  0.577349 0.577349 -0.577349  0.375000 0.500000 0
0  8.137606 -0.509006 -4.745171  0.577349 -0.577349 -0.577349  0.375000 0.750000 0
phy
0  8.137606 0.509006 7.980976  0.221778 0.541581 0.810846  0.625000 0.500000 0
0  0.612155 0.509006 -4.745171  -0.722922 0.554338 -0.412366  0.875000 0.500000 0
0  0.612155 -0.509006 -4.745171  -0.722922 -0.554338 -0.412366  0.875000 0.750000 0
phy
0  8.137607 -0.509005 17.145109  0.577349 -0.577349 0.577349  0.375000 0.500000 0
0  8.137609 -0.509005 7.719350  0.205084 -0.540880 -0.815668  0.625000 0.500000 0
0  8.137609 0.509006 7.719350  0.205084 0.540880 -0.815668  0.625000 0.750000 0
phy
0  3.077908 -0.509007 17.145107  -0.713431 -0.555773 0.426740  0.125000 0.500000 0
0  8.137607 -0.509005 17.145109  0.577349 -0.577349 0.577349  0.375000 0.500000 0
0  8.137607 0.509006 17.145109  0.577349 0.577349 0.577349  0.375000 0.750000 0
phy
0  8.137609 -0.509005 7.719350  0.205084 -0.540880 -0.815668  0.625000 0.500000 0
0  3.077908 -0.509007 17.145107  -0.713431 -0.555773 0.426740  0.875000 0.500000 0
0  3.077908 0.509005 17.145107  -0.713431 0.555773 0.426740  0.875000 0.750000 0
phy
0  -15.999999 0.509006 17.145109  -0.577349 0.577349 0.577319  0.375000 0.500000 0
0  -16.000000 0.509006 0.226275  -0.229133 0.541887 -0.808588  0.625000 0.500000 0
0  -16.000000 -0.509006 0.226286  -0.229133 -0.541887 -0.808588  0.625000 0.750000 0
phy
0  -5.573124 0.509006 17.145107  0.727012 0.553728 0.405927  0.125000 0.500000 0
0  -15.999999 0.509006 17.145109  -0.577349 0.577349 0.577319  0.375000 0.500000 0
0  -15.999999 -0.509006 17.145121  -0.577349 -0.577319 0.577349  0.375000 0.750000 0
phy
0  -16.000000 0.509006 0.226275  -0.229133 0.541887 -0.808588  0.625000 0.500000 0
0  -5.573124 0.509006 17.145107  0.727012 0.553728 0.405927  0.875000 0.500000 0
0  -5.573124 -0.509006 17.145119  0.727012 -0.553728 0.405927  0.875000 0.750000 0
phy
0  -16.000000 -0.509005 -4.745171  -0.577349 -0.577349 -0.577349  0.375000 0.500000 0
0  -16.000000 -0.509005 0.264129  -0.493973 -0.563646 0.661977  0.625000 0.500000 0
0  -16.000000 0.509006 0.264129  -0.493973 0.563646 0.661977  0.625000 0.750000 0
phy
0  0.870766 -0.509007 -4.745171  0.833949 -0.538347 -0.121189  0.125000 0.500000 0
0  -16.000000 -0.509005 -4.745171  -0.577349 -0.577349 -0.577349  0.375000 0.500000 0
0  -16.000000 0.509006 -4.745171  -0.577349 0.577349 -0.577349  0.375000 0.750000 0
phy
0  -16.000000 -0.509005 0.264129  -0.493973 -0.563646 0.661977  0.625000 0.500000 0
0  0.870766 -0.509007 -4.745171  0.833949 -0.538347 -0.121189  0.875000 0.500000 0
0  0.870766 0.509005 -4.745171  0.833949 0.538347 -0.121189  0.875000 0.750000 0
end
