// Created by Crowbar 0.19.0.0

$modelname "props_expanded\architecture\window_glass_32x64_break03.mdl"

$staticprop

$bodygroup "Body"
{
	studio "break03.smd"
}

$noforcedfade

$cdmaterials "models\props_expanded\architecture\"

$surfaceprop "glass"

$contents "solid"


$attachment "placementOrigin" "static_prop" 0 0 0 rotate 0 0 0

$definebone "static_prop" "" 0 0 0 0 0 0 0 0 0 0 0 0

$sequence "idle" "anims\idle.smd" {
	fps 30
}

$collisionmodel "break03_physics.smd"
{
	$mass 4
	$inertia 1
	$damping 0
	$rotdamping 0
	$concave

}

$collisiontext
{
	break 
	{
		"model"		"props_expanded\architecture\window_glass_chunk01"
		"fadetime"		"20"
		"offset"	"0 -12 23"
	}
	break 
	{
		"model"		"props_expanded\architecture\window_glass_chunk02"
		"fadetime"		"20"
		"offset"	"0 -8 28"
	}
	break 
	{
		"model"		"props_expanded\architecture\window_glass_chunk03"
		"fadetime"		"20"
		"offset"	"0 12 28"
	}
	break 
	{
		"model"		"props_expanded\architecture\window_glass_chunk04"
		"fadetime"		"20"
		"offset"	"0 10 -23"
	}
	break 
	{
		"model"		"props_expanded\architecture\window_glass_chunk05"
		"fadetime"		"20"
		"offset"	"0 5 -25"
	}
	break 
	{
		"model"		"props_expanded\architecture\window_glass_chunk06"
		"fadetime"		"20"
		"offset"	"0 0 -25"
	}
	break 
	{
		"model"		"props_expanded\architecture\window_glass_chunk07"
		"fadetime"		"20"
		"offset"	"0 -6 -26"
	}
	break 
	{
		"model"		"props_expanded\architecture\window_glass_chunk08"
		"fadetime"		"20"
		"offset"	"0 -10 -24"
	}
}

$keyvalues
{
	prop_data 
	{
		"base" "Glass.Window"
		"health" "15"
	}
}
