// Created by Crowbar 0.19.0.0

$modelname "props_expanded\junk\cutlery001a.mdl"

$staticprop

$bodygroup "Body"
{
	studio "spoon.smd"
}

$noforcedfade

$cdmaterials "models\props_expanded\junk\"

$surfaceprop "plastic"

$contents "solid"





$sequence "idle" "anims\idle.smd" {
	fps 30
}

$collisionmodel "physics.smd"
{
	$mass 0.1
	$inertia 1
	$damping 0
	$rotdamping 0
	$concave

}


$keyvalues
{
	prop_data 
	{
		"base" "Plastic.Small"
	}
}
