// Created by Crowbar 0.19.0.0

$modelname "props_expanded\interiors\alarmclock001a.mdl"

$staticprop

$bodygroup "Body"
{
	studio "reference.smd"
}

$noforcedfade

$cdmaterials "models\props_expanded\interiors\"

$surfaceprop "computer"

$contents "solid"

$texturegroup "skinfamilies"
{
	{ "alarmclock001a" }
	{ "alarmclock001a_on" }
}

$sequence "idle" "anims\idle.smd" {
	fps 30
}

$collisionmodel "physics.smd"
{
	$mass 2
	$inertia 1
	$damping 0
	$rotdamping 0
	$concave

}


$keyvalues
{
	prop_data 
	{
		"base" "Metal.Small"
	}
}
